,PSII,Q_ox,Hi,Ho,O2,PC_ox,Fd_ox,NADPH,NADH,ATP,CO2,succinate,fumarate,3PGA,PG,CBBa,OCP,Hi_mol,Ho_mol,pHlumen,pHcytoplasm,dpH,light_ps1,light_ps2,light_ps1_ML,light_ps2_ML,light_ps1_tot,light_ps2_tot,Q_red,PC_red,Fd_red,NADP,NAD,ADP,PSIIq,Keq_PQred,B0,B1,B2,B3,Keq_vSDH,Y0,Y1,Y2,FPS2_old,B0_tot,B1_tot,B2_tot,B3_tot,FPS2,Y0_tot,Y1_tot,Y2_tot,FPS1,FPBS,Fluo,dG0_FNR,dG_FNR,f_CBB_energy,f_CBB_gas,f_oxy_carbon,f_oxy_gas
PSIItot,0.9820907081896767,-0.01972879520665698,0.007112016922672707,-0.005014411235089523,1.7130152558122814e-06,-0.1081952087748302,-0.0019222131715180774,-0.02006554815972668,0.02608055896141912,0.054984920462294425,-0.0048178750827204105,0.031063909599337688,-8.822171493946995e-05,1.5093529270486988e-05,0.006544568679380928,8.775987273947492e-05,7.949420938351595e-09,0.0071120169227551315,-0.005014411234664094,-0.0005388794961631623,0.00030312877455060454,0.0036258965669556417,-0.018614074480068955,-0.9795323649060511,-0.019890679967434304,-0.9774272691748644,-0.01871781894643706,-0.9793659628026758,0.13955673489694834,0.17554857605904153,0.012294956740392826,0.016147679095677357,-0.009444464359691939,-0.0012581560156167044,1.2457848620137848,-0.010028822468247645,1.0220549021136345,0.03800228621741628,0.05773110723951045,-0.9357946442121178,0.0,0.04081666619033916,-0.098861584153367,-0.2335087946365809,0.9517420539307093,1.023896877322027,0.04001066354497213,0.05973948252141085,-0.9336198667909666,-0.06672824293595786,0.04103025797327534,-0.09375402517794096,-0.2325683350559879,0.014894748730193747,-1.617486028793226e-11,-0.030922887187359933,-0.0007577454756271509,0.019092724928259027,0.027213961318078853,-0.00010184206578501988,1.508943894712753e-09,0.004717746024144278
PSItot,0.014386992640971314,0.015848646021560185,-0.00036827370361433023,0.00626513234844363,-4.687921879697714e-07,0.09866683290289434,-0.00153586535610116,0.022178943398458616,-0.02628069832250077,-0.0301520435342531,0.006019548209677341,-0.02806733888962709,7.971141900884091e-05,-4.009242699114804e-06,-0.015564000572079779,7.012091609571224e-05,-4.888867147358798e-08,-0.0003682737034323712,0.006265132348421521,2.790420039738614e-05,-0.00037873676964563825,-0.001983440150036331,-0.9813859349382493,-0.020467644976342347,-0.9801093294157709,-0.02257274070280406,-0.9812821904693984,-0.020634047079759483,-0.11210949620279596,-0.160088623299444,0.00982377937688281,-0.017848426458556308,0.009516940147706869,0.000689934160675087,-0.19744527246791999,0.012530264575504699,0.0007475343561535765,-0.01608886926671663,-0.031937517820057056,-0.04116391665895545,0.0,0.978424738104111,0.5727476867357791,1.1236265341084686,0.002684631667988342,0.0008142308209504699,-0.01618857490521747,-0.03203722326163023,-0.041430024203121585,-0.02077053035793335,0.9795903085030325,0.548194648847591,1.115898420331337,0.02589868024370486,9.851960357195105e-11,-0.009625310320470487,0.0009467463930928217,-0.0035356164709843306,-0.00819749496753063,0.0001272368809214451,-4.008305710016952e-10,-0.005892780241176206
k_Q,0.1074794818490059,0.11839891339555722,0.011164464692087638,0.0017452804998127564,2.2941839633552735e-06,-0.11648219181958509,-0.00805983397455821,0.013878516936953786,-0.07764082598058959,0.04251755717114201,0.0016768277725864888,-0.14007318299904492,0.0003978087777333051,2.1100649646179023e-05,-0.04704919225152623,0.00036797688253979434,0.0,0.011164464691949283,0.001745280499338272,-0.0008459345827438636,-0.0001055048561527709,0.002816409492705803,0.0,0.0,0.0,0.0,0.0,0.0,-0.8375253326799771,0.1889943477323485,0.05155271617126656,-0.01116868754533469,0.02811580897680213,-0.0009728798341674473,-1.4750348532155164,0.003490561010464528,0.0020874502653143896,0.02921500556369992,-0.08918392762170078,-0.00520506294695511,0.0,0.04362729952308073,-0.07042051860652551,-0.24960262212908685,0.026889484389374208,0.0022621796409377725,0.029389734938023132,-0.08900919668156067,-0.005030332007212962,0.026764533877802425,0.04382801237532985,-0.06519177097641539,-0.24844146925440144,0.046034946486821146,0.0,0.012403266826724026,0.0002637355264329534,0.030711687053516283,0.03873381003317867,3.54339938792311e-05,2.1085242502277544e-09,-0.0016390995715515695
k_FN_fwd,0.08099421707486813,0.08922286433719515,0.22626775784515124,0.38248260959560765,1.5286362769010901e-06,0.18401668932971266,0.05280586053762485,0.8135893608634728,-0.8000216304399499,-0.7119578837855142,0.36748936905256613,-0.44926892991908285,0.001275926745335439,1.7183865632442775e-05,-0.772566280744386,-0.002410885348836944,-6.415134583740358e-12,0.2262677578451787,0.3824826095961414,-0.017144370925057724,-0.02312165479759086,-0.04670945913219552,0.0,0.0,0.0,0.0,0.0,0.0,-0.631141004537917,-0.2985702245850746,-0.33775950584948344,-0.65473316803021,0.2897091195950929,0.016290904606860286,-1.1115544198675236,0.7649652141025705,0.0015730578390930128,0.022015797824216865,-0.06720709900767961,-0.003922439651273891,0.0,-0.06891138771548538,-0.05831806451102375,0.39432856022981033,0.02026333412634213,0.001704730122208405,0.022147470106593892,-0.067075424172909,-0.0037907648156231787,0.02016917420801627,-0.06922829377664702,-0.061740995962388745,0.39249436693700573,-0.13455411611463872,0.0,0.009346270985024652,0.05779830486681278,-0.5977472864223736,-0.019094546695497018,0.007767606829685316,1.717686685151309e-09,-0.3597202386783077
k_SDH,2.808935600252549e-06,3.094397925951683e-06,0.0004770056378148769,0.0005075494727154051,-3.236260117008239e-09,-0.0003345301883560082,-6.0009603013543966e-05,0.00040945602392388587,0.0013560203065788692,-0.00014074476582197375,0.00048765375744187127,-0.9535001890237862,0.0027079468994795925,-4.4720332584779946e-08,-0.00010641412465531374,2.739777474620865e-06,-1.0691890972900597e-12,0.00047700563819359776,0.0005075494725426282,-3.614285016573498e-05,-3.0682136448729955e-05,-9.132842583685706e-06,0.0,0.0,0.0,0.0,0.0,0.0,-2.1889023961888507e-05,0.0005427809500962106,0.0003838364464420856,-0.0003295082908019075,-0.0004910510335888829,3.220498903441493e-06,-3.85494779052908e-05,0.001015098947225553,5.4557201107613516e-08,7.635257331356957e-07,-2.3308968830560005e-06,-1.3614143644809183e-07,0.0,0.00012528561814588592,-4.626296504343335e-05,-0.0007168539746366295,7.02740557702001e-07,5.9123416482809104e-08,7.68091237292197e-07,-2.326327910712055e-06,-1.3157295877695854e-07,6.99459981446376e-07,0.0001258618907102452,-3.5696068646572156e-05,-0.0007135193731921716,0.00018908456395248446,0.0,3.247694071693503e-07,7.669760154706188e-05,0.00021012003931726323,0.0001458519822915613,1.030753700821427e-05,-4.441335966777786e-12,-0.0004773494520545971
k_NDH,-0.016131536197408765,-0.01777042767225083,-0.04834610532956609,-0.04428685033422403,-5.087654828844091e-07,-0.058645524098987774,-0.009336175661606636,0.0580360372447952,-0.565968347692356,-0.018715084302417057,-0.042550819585992904,0.17448123076201955,-0.0004955278588344609,6.597601256574584e-07,-0.18064126052799956,0.0004262490793785074,-1.0691890972900599e-12,-0.04834610532974432,-0.04428685033416365,0.0036631978289678414,0.0026772073661935356,-0.0012137488954923105,0.0,0.0,0.0,0.0,0.0,0.0,0.12570371569496025,0.09515336551768362,0.059716517179781714,-0.04670429623720268,0.2049521981519176,0.00042823551798236984,0.22138716820866128,-0.08857370051157003,-0.00031330430642442276,-0.0043848641304841535,0.013385568521765643,0.0007812270004770064,0.0,0.0219637656076784,-0.013119992079124641,-0.12566930044017913,-0.004035827803145592,-0.0003395293434399832,-0.004411089167299902,0.013359343092113243,0.0007550015724953997,-0.004017074071244885,0.022064795616850864,-0.011124622975162817,-0.12508471581385694,0.03132117308567299,0.0,-0.0018614723211601825,-0.006692343126332164,-0.0034968279870871708,0.021554726601958726,-0.0008993935052151402,6.606487250581957e-11,0.041650917446351514
vNQ_max,-0.11237426739872562,-0.1237909873012486,-0.32224639608193617,-0.5316674955132268,-1.7637816417293927e-06,-0.2545848072063915,0.13513710008468657,-1.0703563515052192,1.0771110053819544,0.954420185296337,-0.510826243647283,0.590588043076546,-0.001677273969706601,-2.036932744344249e-05,1.037662563844185,-0.006169770764322184,0.0,-0.32224639608198347,-0.5316674955137802,0.024416698768111686,0.032140107404078785,0.06261854135273813,0.0,0.0,0.0,0.0,0.0,0.0,0.8756675618794273,0.41306820234857283,-0.8643707285863489,0.8613654979442008,-0.39005055513675746,-0.021838887591552853,1.5422102727527571,-1.0633349971356807,-0.0021825166023447056,-0.030545503666428168,0.09324552844620652,0.005442133488568691,0.0,0.09539164861918936,-0.8002779479370044,-0.5454948361084626,-0.028114072937628198,-0.002365203430668984,-0.030728190494558247,0.09306283807424984,0.005259443117198613,-0.027983432106864877,0.09583100310794732,-0.7704106166993,-0.5429563313329814,-0.13506818903520804,0.0,-0.012968419856250019,-0.08034216160219479,-0.19176920733351352,0.037818456682374775,-0.010797313313852874,-2.0352422067759207e-09,0.5000271624446369
kRespiration,-9.57167109512337e-05,-0.00010544127545608029,0.16651944550904055,0.17793809515686346,-1.1887084144067848e-06,-0.12325460355095848,-0.022189865619043056,0.1516062048514477,0.5069387056463892,-0.05260597893492334,0.17096300220775712,0.6628706115016169,-0.001882556959359719,-1.642917024947698e-05,-0.028110791085555597,0.0010130925270138663,0.0,0.16651944550895037,0.17793809515689915,-0.012617224667660422,-0.010756628132892552,-0.003414265289892961,0.0,0.0,0.0,0.0,0.0,0.0,0.0007458661297804483,0.19998270155495068,0.14193193653220093,-0.12200455852824543,-0.1835759940897247,0.0012037214620904445,0.0013136040689754297,0.3558761889645463,-1.858814108721505e-06,-2.6017474707484366e-05,7.941570728144822e-05,4.627658459772128e-06,0.0,0.04616032494261577,-0.01670718769602839,-0.2641183447168996,-2.3946999948811684e-05,-2.014422102793042e-06,-2.6173082328377458e-05,7.926073917911438e-05,4.472690318221875e-06,-2.383568660318353e-05,0.0463726471779078,-0.012823552729770857,-0.26288974149483246,0.06978972289186673,0.0,-1.0813765720293553e-05,0.026888857117476513,0.07446214877031868,0.053650903081686525,0.0036136450380894795,-1.6421839737160867e-09,-0.1673505471625213
kATPsynth,7.307291697483926e-05,8.049668523373555e-05,-0.0018798641986706023,0.0005903560905489098,-2.6931429545144843e-10,-3.155249442853547e-06,4.594237507768712e-06,-4.4324668950578725e-05,-0.00046046661297961247,4.7116682215242815e-05,0.0005672143058885807,8.623986318244338e-05,-2.449137866152507e-07,-3.5071985598872675e-09,-0.0007179866489483395,-2.0975292312334141e-07,-2.459134923767137e-10,-0.001879864198987942,0.0005903560904827656,0.00014243783358150588,-3.568792322096364e-05,-0.0007386151369872749,6.455302732878166e-13,0.0,0.0,0.0,1.1861413774975822e-12,0.0,-0.0005694141199994285,5.119446166574428e-06,-2.9385893432670847e-05,3.567012097245534e-05,0.0001667472138748253,-1.0781164985479905e-06,-0.0010028434963562172,0.0011807121977112874,1.4192086531213246e-06,1.9862630756322767e-05,-6.063409437222395e-05,-3.5387256280946584e-06,0.0,1.1830081333726434e-06,-2.2271660577565535e-05,-6.759947564000944e-06,1.8281567306154683e-05,1.5380036787989894e-06,1.998142766191321e-05,-6.051529693956186e-05,-3.419928848984402e-06,1.819664756925262e-05,1.1884659915711491e-06,-2.1549083872429377e-05,-6.72847357960272e-06,-6.1783219399007914e-06,7.352209221787393e-13,8.43259785945506e-06,8.92108071221226e-05,0.00019286718282729215,6.991798980808028e-06,1.1989194854826523e-05,0.0,-0.0005552253914978079
vCBB_max,0.0027950037959613367,0.003078963510912145,-0.343036249542282,-0.1035401172299143,9.497477637262536e-07,0.08686944129356126,0.03437137817288915,-0.3029102696407345,0.2627458476698768,-1.0920315602805999,-0.09948138700443222,0.16135946911230886,-0.0004582619589219308,7.112311762997021e-06,0.6232779431868618,-0.0015692472617732502,3.3647380891718178e-09,-0.3430362495420889,-0.1035401172294994,0.025991952037695623,0.006259157385240292,-0.07161121135797838,-4.5187119130147165e-12,-7.217273253657669e-12,-4.561190857103966e-12,-6.306447463503596e-12,-4.151494821241538e-12,-7.311444132010819e-12,-0.021779844635660038,-0.14094715371238137,-0.21984794090741147,0.24376597090733582,-0.09514726266069776,0.02498768871284924,-0.03835827958032506,-0.20708023280222612,5.428403248708801e-05,0.0007597360665092868,-0.00231922324362611,-0.00013535297573615159,0.0,-0.03252882344680767,-0.0674885362945844,0.18615458867868767,0.0006992612249623798,5.882786935270315e-05,0.0007642799025631748,-0.002314679739964458,-0.00013080947182915774,0.0006960118465767197,-0.032678384788038854,-0.06796450024745354,0.18528875602181508,-0.078089278082131,-6.6169882996086526e-12,0.0003222833640130885,-0.015646314674856547,-0.020907881402487158,-0.9626214994063991,-0.0021027391488927837,7.106137546844459e-10,0.09737959911070859
vOxy_max,-1.8074410662388e-05,-1.9912397728575594e-05,0.00034850664041293845,0.0005178296227933724,-1.0076458486767243e-07,-0.000457064124279238,9.656255189502651e-05,-0.0013132411397866162,0.008569965178028325,-0.0007737458507480527,0.0004975326214412713,-0.0019068337491810745,5.415425554180983e-06,-9.757613862148566e-07,1.0033555493471624,-4.408627370293807e-06,2.6600868762246094e-06,0.0003485066405976289,0.0005178296232886372,-2.6406444954440983e-05,-3.130358691800897e-05,-5.06288906677989e-05,-3.6724217247343887e-09,-5.28881784028034e-09,-3.554992154026831e-09,-5.276394377798009e-09,-3.6633976444012823e-09,-5.287503460922369e-09,0.00014085549481661951,0.0007415943561038613,-0.0006176382598365328,0.0010568261744813804,-0.003103412423671805,1.77047268057649e-05,0.00024805093232405675,0.0010356592171435362,-3.5095445281179035e-07,-4.918180221517171e-06,1.4994197446357305e-05,8.665056755082409e-07,0.0,0.00017122208727240294,-0.0008187483954467976,-0.0009793821604026328,-4.522060271039368e-06,-3.8033207075014896e-07,-4.947558044689267e-06,1.4964822082175794e-05,8.37132200041138e-07,-4.506498007936729e-06,0.00017201023565534764,-0.0007827573098348722,-0.0009748253724050789,-1.7149444674155883e-05,-5.406079440780269e-09,-2.0913405792568303e-06,7.825107038840148e-05,0.0004672860594630451,-0.0013432337996893157,1.05167316142235e-05,-9.770939126911132e-11,-0.00048711665624176547
k_O2,5.034641333187083e-05,5.5461471509722674e-05,-0.0011886818240269424,-0.00154634093823527,-5.2633631698907715e-08,0.0013449343122902244,0.0004977941751253637,-0.002976874907380218,0.0028279234840685253,0.0016376734324234851,-0.0014857239438627087,0.0011982676600125464,-3.4031029732799505e-06,-4.801788327999875e-07,0.003173458661389606,-2.2727111792066162e-05,0.0,-0.0011886818241186703,-0.0015463409377604565,9.006675219469053e-05,9.347865733972355e-05,0.00010694285825196213,0.0,0.0,0.0,0.0,0.0,0.0,-0.00039232106144349585,-0.002182178916137183,-0.00318401618481903,0.002395629580099385,-0.0010240663398050185,-3.747297692322071e-05,-0.000690947826704569,-0.0030926818283040195,9.778208550751635e-07,1.3685131921768675e-05,-4.177627994359275e-05,-2.4382164018211407e-06,0.0,-0.0005036281866955882,-0.0008995152277142135,0.002882082799955828,1.2595789992926397e-05,1.0596677385946835e-06,1.3766977838377501e-05,-4.169443724082413e-05,-2.356373240394704e-06,1.2537229302476326e-05,-0.0005059438840908717,-0.0009110309774719048,0.0028686776109286796,-0.0011559957635518695,0.0,5.806108440695311e-06,-0.00023367306323436902,-0.0011325863149627756,-0.0006213545292366665,-3.14034978666875e-05,-4.774436164286121e-11,0.0014542678107074677
k_ox1,0.0059006844488204546,0.006500167140633952,-0.015090611285128877,-0.01741896472633123,-8.048893752235362e-07,0.0446382465484343,0.005695940004984774,-0.02991036918018054,0.0264713899674184,0.010731870350450826,-0.01673613312980301,0.005039836031485044,-1.4313165778504432e-05,-7.253293986396915e-06,0.03455364701649361,-0.0002600517878671689,-3.369795353602e-07,-0.015090611285267529,-0.017418964726487404,0.0011434198148210048,0.001053002878602147,0.0006961958328693482,4.6478179676722796e-10,6.712064125901632e-10,4.49733418510451e-10,6.684834311313811e-10,4.6378127860155464e-10,6.706588299271742e-10,-0.04598061325737798,-0.07242631820839948,-0.036432658455801285,0.02407026408200415,-0.00958599466604039,-0.0002455649135457314,-0.08098024916108637,-0.03483792916261508,0.0001146021613688278,0.0016039209876329257,-0.00489624644962781,-0.0002857585274856406,0.0,-0.016718160369316348,0.015954042384100697,0.09565326445142422,0.0014762480043205646,0.00012419490241235737,0.0016135137292059534,-0.004886653686552249,-0.00027616576357015305,0.0014693888787527646,-0.016795065939951923,0.014265015185430946,0.09520829957257063,-0.02166422912009419,6.852258994705848e-10,0.0006808666715073158,-0.002632241589170367,-0.015270659286609315,-0.010332366592702057,-0.00035374801241111215,-7.250480965764737e-10,0.01638158044490085
k_aa,0.008456224268013306,0.009315338681879453,-0.04506309478580476,-0.05929020452817536,-1.5716387164150438e-06,0.10746993367169692,0.016908206065452857,-0.10587279125962847,0.0994922891621335,0.06506134962329187,-0.056966019351772056,0.03321063307621173,-9.431842978197183e-05,-1.4354668835044703e-05,0.1146015473898659,-0.0007719549754118199,-4.2767563891602395e-12,-0.045063094785759136,-0.059290204528350536,0.003414443201592811,0.003584182907141232,0.004254016739308347,0.0,0.0,0.0,0.0,0.0,0.0,-0.06589445717717628,-0.17437180480412312,-0.10814911957356514,0.08520075527542438,-0.036028805225300116,-0.0014887232297377353,-0.11605215532625739,-0.1185804090952096,0.00016423545118862104,0.0022985655348712894,-0.0070167719952321655,-0.0004095191379532008,0.0,-0.04024940513552189,0.024891901367814037,0.2302932495861795,0.002115599360550282,0.00017798273402716487,0.00231231281711692,-0.007003024802910806,-0.00039577194572334014,0.0021057685395338417,-0.04043454697481155,0.02121109719005705,0.22922197732660596,-0.05708753094783497,0.0,0.000975657039157032,-0.00895955320556456,-0.037886090455924976,-0.017227111377525715,-0.001204082982557283,-1.434551517269225e-09,0.05576036468513079
