,PSII,Q_ox,Hi,Ho,O2,PC_ox,Fd_ox,NADPH,NADH,ATP,CO2,succinate,fumarate,3PGA,PG,CBBa,OCP,Hi_mol,Ho_mol,pHlumen,pHcytoplasm,dpH,light_ps1,light_ps2,light_ps1_ML,light_ps2_ML,light_ps1_tot,light_ps2_tot,Q_red,PC_red,Fd_red,NADP,NAD,ADP,PSIIq,Keq_PQred,B0,B1,B2,B3,Keq_vSDH,Y0,Y1,Y2,FPS2_old,B0_tot,B1_tot,B2_tot,B3_tot,FPS2,Y0_tot,Y1_tot,Y2_tot,FPS1,FPBS,Fluo,dG0_FNR,dG_FNR,f_CBB_energy,f_CBB_gas,f_oxy_carbon,f_oxy_gas
PSIItot,0.929284660331525,-0.055069111260332766,0.03287337096710722,0.006816824684512796,7.532282893901866e-06,-0.11376551475621234,-0.06738315976293592,0.005908313603692333,0.010792762884929925,0.10618356606899691,0.00650500945944517,0.052502111805606475,-0.00012835608928861946,6.698899820538508e-05,-0.06947666157533869,0.007871883132491582,4.017044860417481e-11,0.03287337096732312,0.006816824684772281,-0.0025944692436399,-0.0004161338169497868,0.007021868370310917,-0.009465158833254819,-0.9950687605486698,-0.020810480570173602,-0.9758427410731,-0.00980044119444149,-0.9945922015014953,0.15770073765425138,0.21416168808234165,0.05842437278295514,-0.010495552649922428,-0.0022934492222382334,-0.013137960263253168,1.2358381363929638,0.013633649275911763,1.073625690166591,0.06444714937674031,0.11951627400612394,-0.9156820688962757,0.0,0.05823179845359788,-0.04027864390068334,-0.24507391570102038,0.871204459187141,1.075311627882546,0.06660964615239283,0.12167877044971184,-0.9130430133710689,-0.18149880350409855,0.05847484525805297,-0.0386252471340033,-0.24434314726699147,0.08304043786736107,-2.3645681850656847e-12,-0.08903171636093082,0.001005669669593696,0.03729747474773372,0.03882915635973178,0.00011820084009827915,6.688651391349803e-09,-0.006379276411727537
PSItot,0.03655859871533285,0.02846977020670396,-0.000497540587556036,-0.0016910926264277711,9.025962637248506e-07,0.08993869966961608,-0.015900260764675773,0.004458030382425492,-0.022870721937635424,0.00476739749198289,-0.0016137772390380218,-0.04197803324563607,0.000102627032303301,8.202993861368567e-06,-0.006748349819896816,0.0018575114698624118,-1.0042612151043702e-12,-0.0004975405875882175,-0.001691092626196703,3.926745901257059e-05,0.00010323293632545481,0.00032164528656911204,-0.9905348508971618,-0.0049312494645924266,-0.9791895288570757,-0.024157268905559814,-0.9901995685272696,-0.005407808511076284,-0.08152853132529586,-0.16930810524130224,0.013786274872384192,-0.007919263555079405,0.004860001097368322,-0.0005898641487545975,-0.12192420810943873,-0.003382185214040272,0.002014555668538873,0.004377822518912261,-0.02409194872721329,-0.008276901888091798,0.0,0.9993308342439302,0.6948251481491681,1.0035178502118987,0.006877729918020647,0.0020993517636367543,0.003986059568720723,-0.02448371165094013,-0.00914522385950608,-0.017417027246034358,1.000453114328484,0.687077061171044,0.9988298174862112,0.11693181313327787,0.0,-0.008542909465207863,-0.0002494828069027199,0.006981630923289436,0.003894222769499597,-2.93329476795166e-05,8.18871248525976e-10,0.0015853469138719428
k_Q,0.3310622505532971,0.25781258357486325,0.03657105862046641,-0.0024539103387366153,1.1352755833748038e-05,-0.17014475504124071,-0.11093213453855728,0.01246720094049661,-0.18934833597220893,0.15895866696607605,-0.0023418602121539622,-0.35276378263854924,0.0008624296349270939,0.00010240482456805525,-0.136405955662888,0.012959392273206199,0.0,0.03657105861997806,-0.0024539103385430765,-0.0028863023106075274,0.00014979922687531164,0.010516673675984429,0.0,0.0,0.0,0.0,0.0,0.0,-0.7382947295826504,0.3202946695760355,0.0961833847609882,-0.022146787162138998,0.04023629525241204,-0.019667757709760092,-1.1041042094622262,-0.004907820614539328,0.014797188738896634,0.08085385039333687,-0.1769587436221783,0.010912667892544229,0.0,0.08643876449703577,-0.03791424742762318,-0.36383575909690635,0.06741610703103627,0.015143589877872378,0.08120025153079302,-0.17661234225499034,0.011259069257240016,0.07001589691760804,0.0867600053883556,-0.035171905550020505,-0.3625868043586272,0.16662412415700076,0.0,0.034346731592065145,-0.00036201945781483405,0.05812233016820737,0.05998619395159161,-4.2601137735824706e-05,1.0225620018033867e-08,0.002310611847971783
k_FN_fwd,0.10879486822272355,0.0847233033188896,0.12655638620364196,0.22293630133365086,1.010299236483407e-05,0.014714011573526451,0.25093641206881206,0.4079951196858079,-0.7824938920833804,-0.3987788340190898,0.21274200731256152,-0.5584111248465361,0.0013651920051307184,9.369282261430607e-05,-0.3388168854605149,-0.029315070873712976,6.839018874860761e-10,0.1265563862036792,0.22293630133406558,-0.009988225628917838,-0.01360917099453584,-0.025973015065300063,-3.999272421338292e-11,-4.940475543752871e-11,-3.149594623015082e-11,-4.949368013528851e-11,-3.971341782403179e-11,-4.907237525440326e-11,-0.2426210832917124,-0.02769888189582038,-0.21757368658733767,-0.7247642130738843,0.16627901752337276,0.04934040802444181,-0.3628346988273108,0.4458726060242839,0.004862706088913707,0.026570483992708196,-0.05815282722259114,0.00358615210607256,0.0,-0.007307772718327032,-0.37694122443262656,0.03163232589834889,0.02215452277069144,0.0049765416835332735,0.026684319587644594,-0.05803899142612705,0.003699987902695181,0.02300887491659882,-0.007333755513390617,-0.37610729082097094,0.03152611814186712,-0.3147420419270389,-5.1232310676423175e-11,0.011284530591151486,0.03288925326652416,-0.2846058389343726,0.07485889451743882,0.0038664827048128366,9.355673410277797e-09,-0.20886541869596176
k_SDH,2.5082818003669922e-05,1.9532770785300276e-05,0.0001337412020261798,0.00013112885390552498,-3.752725756922257e-09,-4.8364623787923645e-05,-6.008055833433523e-05,2.881881107299913e-05,0.001538825020014456,1.0149318929531489e-05,0.00012513282840745366,-0.8703171855929455,0.002127733513000181,-4.4429848310863586e-08,0.00019039204835374088,7.0187700599875375e-06,-2.085850543771777e-09,0.00013374120156283721,0.00013112885415585677,-1.0555273260381733e-05,-8.004776186731892e-06,7.03984906702902e-07,1.2183829934774797e-10,1.5370368358342264e-10,9.925995175562682e-11,1.512931813226433e-10,1.2094540882773316e-10,1.534627007955884e-10,-5.5935755830729756e-05,9.104559932845115e-05,5.2092673443670284e-05,-5.119385483123391e-05,-0.00032699847878973144,-1.2557622079905476e-06,-8.365207720524592e-05,0.0002622577138073206,1.1210679942547326e-06,6.125981246677869e-06,-1.3406793508693334e-05,8.273730816087249e-07,0.0,2.4550908494152754e-05,3.419734720090922e-05,-0.00010344225732556487,5.107811694205207e-06,1.1473134786482675e-06,6.152226862252511e-06,-1.3380546976275898e-05,8.536197136541609e-07,5.30503229865229e-06,2.4642011479344563e-05,3.4850180287175956e-05,-0.00010308744791159285,8.288909401487374e-05,1.552733108193133e-10,2.6029924290034888e-06,1.9345123276312883e-05,4.244988363272016e-05,1.8205719177994876e-05,2.2742617016245444e-06,-4.4413355852256326e-12,-0.00012286232035991013
k_NDH,-0.018804484175986173,-0.014643870355549208,-0.04079995962777352,-0.03777966267612169,-8.248552765342092e-07,-0.0030198955766223712,-0.017367613433964972,0.008535748146739165,-0.5930218301507041,-0.012489743910670642,-0.03605211726906356,0.11774169266784278,-0.00028785246068613926,-3.1938327316909913e-06,-0.08446934230099669,0.0020289316125760683,4.0170448604174815e-12,-0.04079995962787848,-0.03777966267538192,0.003220060412118025,0.002306263689544115,-0.0008139270478134849,0.0,0.0,0.0,0.0,0.0,0.0,0.04193547170692763,0.0056849031616281335,0.015058538738552302,-0.015162938207036281,0.1260164306520087,0.0015453404446387825,0.06271361383175793,-0.07555932481807014,-0.0008404870225557953,-0.004592535007074175,0.010051336774340855,-0.0006198435783946761,0.0,0.0015235191202780348,0.023586663613735327,-0.006468434527334276,-0.0038292649851708943,-0.0008601627625090384,-0.004612210747408779,0.010031660999439992,-0.0006395193523346265,-0.003976934250009319,0.0015291061040210744,0.023566997453518423,-0.006446381771818479,0.02211985729795796,0.0,-0.0019506861517728969,-0.00557354232813751,0.0005199398052226383,0.0001681026660807607,-0.0006552327628311256,-3.192209951880924e-10,0.035396060130227926
vNQ_max,-0.2740556365159364,-0.21341905070959527,-0.022062409433472485,-0.19106470836198244,6.092682666477552e-06,-0.27682487103664444,0.473854232730543,-0.2550820549137853,0.5911766847004328,0.6956820218459665,-0.1823280243182884,0.5009170730430597,-0.0012246317511856728,5.164432232503007e-05,-0.08763036122540688,-0.055356934038835154,-1.347718550670065e-09,-0.022062409433410427,-0.19106470836141207,0.0017412343578338731,0.011663566316328497,0.04554371438982755,7.812532171916664e-11,9.972441375353017e-11,6.394631507333652e-11,9.673764753715482e-11,7.762168029242577e-11,9.992920051805756e-11,0.6111655146796694,0.5211182124163591,-0.41085393494797723,0.45312881423980866,-0.12562433944739168,-0.08607586934155227,0.9139851535425434,-0.382129412580417,-0.012249216133358871,-0.06693138055681434,0.14648768327641046,-0.009033579381884838,0.0,0.1410893972222,-1.0925563066925812,-0.5915038073086583,-0.05580752249975473,-0.012535969406601543,-0.06721813382963962,0.14620092970386997,-0.009320332953092224,-0.057959646857791966,0.1416169295262554,-1.085190539467407,-0.5894668795436745,-0.5431784023499125,9.931186377275877e-11,-0.028435331863497806,-0.028187314768904043,-0.19297978239848598,0.10368185140086672,-0.0033137735810151964,5.156945781395114e-09,0.17902034717696286
kRespiration,0.01348034413084301,0.010497730668243554,0.06763231221497286,0.06607818334661993,-1.7386789417163408e-06,-0.0231403400535339,-0.02737415471693805,0.013033120802175231,0.7178115661451316,0.006111458831743834,0.06305667618203087,0.7021544887563212,-0.0017166128236672828,-2.0652789921244543e-05,0.08342143570507071,0.0031979228530883805,-2.4102269162504883e-11,0.06763231221470828,0.0660781833462074,-0.005337753592684602,-0.004033750015645356,0.00041881561744044334,1.8601267075992055e-12,9.14902878472754e-13,9.544226130348732e-13,2.249712733422205e-12,1.805155355637808e-12,8.922250046255139e-13,-0.03006222239998543,0.04356130501658567,0.023734681267950617,-0.023152089538128803,-0.1525341005115248,-0.0007561631825687194,-0.04495742016792423,0.13215636580297807,0.000602518812353563,0.0032922441751518086,-0.00720548840423035,0.0004443456521333901,0.0,0.011747481547493386,0.014200806113716139,-0.0494916152096985,0.002745079712994652,0.0006166237322862853,0.003306349095484929,-0.007191383437972539,0.0004584506190247561,0.0028509392174773975,0.01179108001055884,0.014519245157043987,-0.0493218442618996,0.03795167536280554,2.364568185065685e-12,0.00139876648614159,0.009748354688925676,0.020358772462813538,0.008746367838615775,0.001146040596133118,-2.0624452123891532e-09,-0.061912375066555565
kATPsynth,0.000637933361025165,0.0004967875184505897,-0.0055114943000862445,0.001697325582177243,8.167131503788777e-09,-0.00016722640117952705,0.0003033225628737772,-0.0001818077437359327,-0.0015532081430937347,0.0005028995312961661,0.001619712326407952,-0.0001631373595292881,3.988349842140818e-07,7.180880285015502e-08,-0.0022005701324413185,-3.5434976235713734e-05,0.0,-0.00551149430000287,0.001697325582351448,0.0004349843661847698,-0.00010361342760089215,-0.0019426743541904332,0.0,0.0,0.0,0.0,0.0,0.0,-0.0014226443159164504,0.0003148009170027225,-0.00026299494635106995,0.0003229640256995829,0.000330054875025039,-6.222313238268433e-05,-0.0021275301188435547,0.0033946511376716443,2.8513210551342887e-05,0.0001557996904903095,-0.0003409878860499857,2.1026935076287466e-05,0.0,8.524216037582474e-05,-0.0006868971549978199,-0.00035730807597685743,0.0001299059085621156,2.9180701894598526e-05,0.00015646718323705794,-0.0003403203919822008,2.1694427378220568e-05,0.00013491544732121158,8.556096381297098e-05,-0.0006823718164649664,-0.00035607746559647283,-0.0003493734560240899,0.0,6.617886199870412e-05,0.00025040233993400346,0.00016480837200753075,7.627779144412644e-05,2.9437719024012943e-05,7.217170325991655e-12,-0.001590266455825895
vCBB_max,0.0018921533068017105,0.001473501599542281,-0.5301834272175083,-0.1213134002011042,2.3755913904788634e-05,0.08169776521909854,0.5729014914196925,-0.37055977382635996,0.7730735504953709,-1.6905054190145528,-0.11576645738534223,0.6097050940796036,-0.0014905944779757623,0.0002073483839973207,1.5120752081711262,-0.06692790230597728,1.3959230889950747e-10,-0.5301834272179913,-0.12131340020080651,0.04184373414846902,0.0074055899614856886,-0.11018465286773363,-8.370570184196427e-12,-1.0063931663200292e-11,-6.680958291244113e-12,-1.0123707300399923e-11,-8.123199100370138e-12,-9.814475050880651e-12,-0.004219648435654323,-0.15379468329546267,-0.496732572654244,0.6582639103156912,-0.16427720618642064,0.20916412814926855,-0.00631039759892925,-0.2426267981728921,8.457160296055078e-05,0.0004621118627157568,-0.0010113870272381916,6.237329696908641e-05,0.0,-0.04114455228050021,-0.8004463925405992,0.175063446150703,0.00038531042004774684,8.655142333767346e-05,0.0004640916821231932,-0.001009407273296764,6.435305201929877e-05,0.00040016919056293877,-0.04129493021586847,-0.7994570100196833,0.174467618144062,-0.7266530076401947,-1.0246462135284636e-11,0.00019115533219657218,-0.01789707278597377,-0.18981875097325654,-0.7600254099143803,-0.0021040986592341473,2.0704951331373748e-08,0.11368611668376126
vOxy_max,0.00046543674869725746,0.00036245669831846684,0.001549666951613595,0.0018247677540163979,-1.8246146304103522e-07,-0.00050189222687808,0.00104450311147161,-0.0008333239448921479,0.02810578715868453,-0.0011448588422265224,0.00174132992481279,-0.0042787581663135555,1.046062042734357e-05,-1.8226853105703842e-06,1.0053052954843142,-0.00012202166785395763,1.9010664801925726e-09,0.0015496669518544571,0.0018247677540519248,-0.00012230456304512154,-0.00011139314921691981,-7.413574664894659e-05,-1.1067753910215274e-10,-1.3998014040633135e-10,-9.162457085134784e-11,-1.3667004855539895e-10,-1.101144766939063e-10,-1.4007932572620565e-10,-0.001037962795918949,0.0009448037638993391,-0.0009056333863277864,0.0014803200921140608,-0.005972446204279845,0.00014165195702264282,-0.001552247870653329,0.0036495354215500104,2.08032812413762e-05,0.00011367147110513505,-0.0002487852834361656,1.534091170043281e-05,0.0,0.00025592812228191484,-0.002272909452653145,-0.001072286008132409,9.477943868041572e-05,2.1290285963991122e-05,0.00011415847442855357,-0.0002482982784844653,1.582791712862335e-05,9.843424734665058e-05,0.0002568859375742157,-0.002258732314424014,-0.0010685916104716516,-0.0012155034483910118,-1.402977123138973e-10,4.827719619248953e-05,0.0002692035760812329,3.669813125755462e-05,-0.0008134665376519277,3.164872859328458e-05,-1.8209475899425097e-10,-0.0017098637008154747
k_O2,-0.00529866737349216,-0.004126302159898186,-0.038881075572728595,-0.06412201805370638,-5.469726343851771e-06,0.0339233600005702,0.20650592833759585,-0.08180893633967046,0.16246515636057238,0.10494180872516388,-0.06118985107718665,0.09072160459976848,-0.00022179430967912057,-4.9377424248465255e-05,0.0407501215337033,-0.02412458149585362,-1.0042612151043702e-12,-0.038881075572424,-0.06412201805386586,0.003068616078145204,0.00391433568514939,0.006802074740224341,0.0,0.0,0.0,0.0,0.0,0.0,0.01181644082331505,-0.06386016060064792,-0.1790503648319896,0.14532573187221687,-0.03452365169133898,-0.012984319174954139,0.017671241411050056,-0.1282440353470013,-0.000236829777567616,-0.0012940698516790974,0.002832233928027715,-0.000174657120830476,0.0,-0.017106216274328016,-0.28293230800876845,0.07266973958449818,-0.0010789979804300773,-0.00024237394262261686,-0.0012996140163661516,0.002826689723629815,-0.0001802013261848242,-0.0011206078204883652,-0.01716889146697751,-0.282660752086418,0.07242209976501666,-0.26267823005978164,0.0,-0.0005515615155938184,-0.009459766343221734,-0.093710603004707,-0.006588366986902591,-0.0011120871506890113,-4.930437666548606e-09,0.060072294880218834
k_ox1,0.011999261677774051,0.009344347550096275,-0.007203162586850702,-0.009660150449250454,-9.987815806351883e-07,0.02383267889109191,0.02981529446310382,-0.011079636375764715,0.017033722404468824,0.010289861933415594,-0.00921840944950033,0.00012987987329013493,-3.1754159389859563e-07,-8.946689168161412e-06,0.007761416078998309,-0.0034831034040280727,-3.0127836453131103e-12,-0.007203162587040184,-0.009660150449698328,0.0005684961172531972,0.000589704952049658,0.000662123257179563,0.0,0.0,0.0,0.0,0.0,0.0,-0.026759293328369845,-0.04486462135540875,-0.025851264388229378,0.01968191174739982,-0.003619645666705628,-0.0012731517902867192,-0.04001795827439488,-0.019320300801050558,0.0005363200983180112,0.0029305259286057507,-0.0064138217558194445,0.0003955267103150775,0.0,-0.012097830846522896,-0.01718123846128223,0.05097349067059744,0.0024434785579430397,0.0005488753143999075,0.0029430811440011315,-0.006401266535866545,0.00040808192914177087,0.0025377072049164585,-0.012142721652567983,-0.01750200585447841,0.05079865242895812,-0.041105768366775396,0.0,0.0012445542744167618,-0.0014251386466989533,-0.013905064593503852,-0.002214772624107993,-0.00016753821402530272,-8.932636195785054e-10,0.009049872543835276
k_aa,0.005865231530463488,0.004567510612901808,-0.006984961580974874,-0.013166463416219394,-6.671112798617217e-07,0.024695733215365702,0.03602750060476977,-0.015335710453243874,0.027601451550422262,0.025589195541723293,-0.012564394709839943,0.009617491389661618,-2.3512640732739524e-05,-6.038353463740518e-06,0.004498140449371891,-0.004208830149760941,8.73707257140802e-11,-0.006984961581261688,-0.013166463416006127,0.0005512750128383618,0.0008037482158043592,0.0016658267611361884,-4.650316768998014e-12,-6.404320149309277e-12,-3.817690452139494e-12,-6.749138200266616e-12,-4.512888389094521e-12,-6.245575032378597e-12,-0.013079924052035345,-0.04648930675668626,-0.031237539663864233,0.027242419289558145,-0.005865275489739503,-0.003166119265472761,-0.019560752732854333,-0.02633292662608266,0.0002621528666963139,0.0014324391585724267,-0.0031350713290800047,0.00019333389471235278,0.0,-0.012532370432200436,-0.0258893423133743,0.052822970537639034,0.0011943708604922625,0.00026828984694357046,0.0014385761384775526,-0.0031289343541913333,0.00019947087271323074,0.0012404297874563813,-0.012578848636412315,-0.026198947433721895,0.0526418391724119,-0.04898133083142043,-6.3055151601751604e-12,0.0006081329123284473,-0.0019424165243400711,-0.01619916299016145,0.0007598053066809976,-0.0002283515411582031,-6.034664726425329e-10,0.012335376219625493
