,PSII,Q_ox,Hi,Ho,O2,PC_ox,Fd_ox,NADPH,NADH,ATP,CO2,succinate,fumarate,3PGA,PG,CBBa,OCP,Hi_mol,Ho_mol,pHlumen,pHcytoplasm,dpH,light_ps1,light_ps2,light_ps1_ML,light_ps2_ML,light_ps1_tot,light_ps2_tot,Q_red,PC_red,Fd_red,NADP,NAD,ADP,PSIIq,Keq_PQred,B0,B1,B2,B3,Keq_vSDH,Y0,Y1,Y2,FPS2_old,B0_tot,B1_tot,B2_tot,B3_tot,FPS2,Y0_tot,Y1_tot,Y2_tot,FPS1,FPBS,Fluo,dG0_FNR,dG_FNR,f_CBB_energy,f_CBB_gas,f_oxy_carbon,f_oxy_gas
PSIItot,0.02071083880284552,-1.6662834729785998,0.04053293916800094,0.07932253051324212,-3.2057599850918733e-06,-0.8785172988236998,-0.24977363354197674,0.0071585444815264005,0.7033072873015853,-0.132536508746459,0.07531231215030944,1.8541036064780796,-0.009851123545676499,-3.457402471976283e-05,0.18939889868423376,3.101706986863624e-06,1.3666568719385402e-11,0.04053293916825783,0.0793225305130279,-0.0032817929890665634,-0.00487363700709717,-0.009882731305490127,-0.05135358727341096,-0.5789825953779196,-0.021914575344493262,-0.973842205999905,-0.051316790752254544,-0.58278420326504,0.7325721800586761,0.41350554676930357,4.0285177867390824e-05,-0.019116530482334596,-0.15917368606700033,0.0433946037428917,1.4699814858167046,0.15864506116338262,0.6906583213920979,0.03783399936038328,1.7041174629289733,0.9487757164326263,0.0,-0.02404684537644744,0.02273012940743849,-0.5434703237103943,1.083239489123462,0.6897433846550063,0.03311745476599889,1.6994009182416132,0.9402575638858032,0.11915338350244259,-0.024111556078962683,0.02272967157126777,-0.543438227800829,0.015662819374278457,-2.5659785658193283e-12,0.06412982529290878,0.011522934015302452,0.023652676450440016,-0.021080516137529204,0.0012401855814101923,-3.45036238308363e-09,-0.07407533219547263
PSItot,0.4793582610661913,0.8156393129913386,-0.019733314219429136,-0.03876792753427703,1.5830732013987425e-06,0.4300479899684719,-0.8947239564105068,-0.0034660951808553825,-0.3444338435363372,0.0650361559674737,-0.036807981992182895,-0.9076476319072966,0.004822464583815742,1.7048149429611663e-05,-0.09294164260332961,1.1110746962338253e-05,0.0,-0.019733314219332145,-0.038767927534489946,0.001597728984833184,0.002381931136601164,0.004849599125873305,-0.9486464212459654,-0.42101741388862896,-0.9780854340366437,-0.0261578039547153,-0.9486832177682744,-0.4172158060084438,-0.3585912477379047,-0.20241744752003538,0.00014430712014335632,0.009256031634711104,0.07795284574992586,-0.02129389285901621,-0.2300541216021019,-0.07753585564692993,0.3664366136327379,-0.01843555645293888,-0.8340748625171991,-1.168765155513058,0.0,0.9960882912784328,1.0265783063995093,0.3299279965809126,-0.1864130859193657,0.36773603360232093,-0.013334528619012022,-0.8289738347399936,-1.1598625197800831,-0.23904648744572463,0.9961597555792553,1.0265752370235062,0.32986037847566246,0.9791984067550498,0.0,-0.12858825968519913,-0.005631694620855032,0.0754801352669598,0.010366710568464953,-0.000606125751959835,1.7010314306948096e-09,0.03620343883000941
k_Q,0.029856691708762418,0.0508018633043446,0.02315850582993616,0.006226919160466233,1.9989792715947142e-06,-0.9667478113652671,-0.17706091472995547,-0.0034386822535735773,-0.035490514043530146,0.05783243709290527,0.005912082760917409,-0.060105836135132686,0.00031935110952802803,1.8025134879837054e-05,-0.059189557022873526,2.198755359405132e-06,-2.606409891482787e-09,0.02315850582946104,0.006226919160808709,-0.0018750533044395762,-0.0003825866790134346,0.004313794360388202,1.9964113589390017e-11,2.38708117314277e-10,2.693558824997741e-10,4.1960412011205757e-10,1.9939159968975106e-11,2.40162434319532e-10,-0.02233475417274638,0.4550343890362714,2.855757961458768e-05,0.009182826800775238,0.00803227272471262,-0.018935278398584224,-0.01432885493517754,0.012453838400076788,0.014819266827628283,0.01707056310445098,-0.033731300212745605,-0.028354439790005053,0.0,0.009484618616721228,0.01946263434103634,-0.508325070895123,-0.006188072817139735,0.014919060941304324,0.017170357220514153,-0.033631506092195146,-0.028254645669642683,-0.00704893306589348,0.009451939248843293,0.019462438886467114,-0.5082847773810558,0.016445533188970428,4.3279505143486e-10,-0.0037926278171774206,0.0009045649165383401,0.01596433902580611,0.009047003323771816,9.734872636680712e-05,1.7987408079148773e-09,-0.005812734984492963
k_FN_fwd,0.26721641194182494,0.45467499395869726,0.14573672944725038,0.1254578983115619,3.7476140127601646e-05,0.22407281472815535,0.20969242260005425,0.3112898939516642,-0.9620058658600785,0.063439466112103,0.11911471153609696,-0.9175789916549271,0.00487523134923796,0.0003401464769667374,-0.5481372489762995,-2.603975601491696e-06,9.761834799560999e-13,0.1457367294477283,0.1254578983116108,-0.011799730871669908,-0.007708229290232161,0.00516659827534877,0.0,-7.578035470294508e-13,0.0,0.0,0.0,-7.505076072485374e-13,-0.19989531009889291,-0.10546787399057206,-3.382060953609227e-05,-0.8312838960387126,0.21772278270327153,-0.020771110689347286,-0.12824278190228303,0.2509157980690127,0.13263194871392509,0.15278097440541982,-0.3018940228877099,-0.25377130041524254,0.0,0.150176935519342,-0.019133416505194314,0.27178457165171876,-0.05538304634725858,0.13352510273013693,0.15367412842065076,-0.30100086882575566,-0.25287814635333056,-0.0630877211449081,0.15019438134393853,-0.019123499309232607,0.2717851911166985,0.13395168905017016,-8.553261886064426e-13,-0.03394480752901244,0.018224873407232334,-0.06148038010643879,0.16143333367186258,0.0019613589581615252,3.394568108023308e-08,-0.11711587514583327
k_SDH,5.1517484202673204e-05,8.766296960360125e-05,0.00019844081386161328,0.00016725977485742668,-2.1721178353950202e-09,-9.476500148723749e-05,1.5400519505228503e-05,-1.1625708088147274e-06,0.0023022843881536914,0.00010643488908620909,0.00015880376373953215,-0.6138054231916046,0.0032612379650181914,-3.8366528803193285e-08,0.0002787289510438294,-1.9125055950869034e-10,-1.75713026392098e-11,0.00019844081321944258,0.00016725977454176884,-1.6066973019921402e-05,-1.0276568494264325e-05,7.944238297309105e-06,0.0,7.578035470294507e-13,3.015177789176575e-12,3.0450226423226243e-12,0.0,7.505076072485374e-13,-3.8540532745086165e-05,4.460453393480347e-05,-2.4838185174342766e-09,3.1045864647390277e-06,-0.0005210568681044068,-3.4848509454882336e-05,-2.4724325286657784e-05,0.0003345195435019491,2.5571981475744762e-05,2.9456575411046157e-05,-5.8206398495132025e-05,-4.892866736180438e-05,0.0,3.0524963812184706e-05,-9.322279635856457e-07,-1.9924327161212104e-05,-1.0678454971034585e-05,2.5744183426423023e-05,2.962877871694783e-05,-5.803419518797879e-05,-4.875646457912447e-05,-1.2164070990796462e-05,3.052366513874377e-05,-9.303287231286475e-07,-1.991845532356937e-05,2.8385073716988856e-05,2.565978565819328e-12,-6.544790211573754e-06,2.4297299583390252e-05,6.022389986268425e-06,1.913437109108397e-05,2.6150448434466067e-06,-3.886168412161772e-12,-0.000156190890559761
k_NDH,-0.020408887639185077,-0.03472620698751921,-0.03373542115621653,-0.024103429126059155,-1.9032086215795699e-06,-0.0006085617448366175,-0.010181401463444246,0.0022686799137724136,-0.4178857615469317,-0.03288998504078885,-0.022884825825131953,0.10126389502658216,-0.0005380298864040719,-1.3542259644213461e-05,-0.046443686503001326,1.2643285809029693e-07,-1.9523669599121997e-12,-0.033735421156366206,-0.024103429125594242,0.0027314246303573875,0.0014809331379118855,-0.002454018863696366,0.0,7.578035470294508e-13,0.0,0.0,0.0,7.505076072485375e-13,0.015267182067737063,0.00028644132264533,1.6421250903917092e-06,-0.006058394808918339,0.09457660715505616,0.010768714834790496,0.009794654853863815,-0.04820685833124251,-0.010129883223106375,-0.011668782715608023,0.023057424902740445,0.019382009798643192,0.0,-0.00909204811232485,0.0008853234538801683,-0.00951292410922983,0.004229929988914397,-0.010198098655582803,-0.011736998149446577,0.022989209464468,0.019313794358717752,0.0048183813293947155,-0.00909265807887539,0.0008847339005049361,-0.009513493351327375,-0.008215216761973515,8.553261886064427e-13,0.0025927037816501153,-0.0035014291796744168,-0.0005163171715924682,-0.004994589945696655,-0.0003768409538811772,-1.3512762736002503e-09,0.02250608156712727
vNQ_max,0.09824668749883352,0.16716904314613792,0.10264077912021985,-0.10184135854513764,2.400359015262046e-05,0.41506229367408093,0.3531074273499299,-0.04102032428065507,-0.07191392494733177,0.6985259271938119,-0.09669292163121787,-0.25742213730969055,0.0013677214635599143,0.0002150760284855068,-0.4691403167215123,-4.3849140428074046e-06,-9.761834799561e-13,0.1026407791207866,-0.10184135854481834,-0.008310420970587635,0.006257211021741953,0.052097533017701425,0.0,7.578035470294508e-13,0.0,0.0,0.0,7.505076072485375e-13,-0.07349493190193933,-0.19536389427851264,-5.695155010960602e-05,0.10954269845358097,0.01627568023262408,-0.22870872411898543,-0.04715065375622972,-0.2036827180078313,0.048764404833295104,0.056172538997978874,-0.11099650191475367,-0.09330335933446132,0.0,0.24627237498224064,-0.0323798350237531,0.4711999353604902,-0.020362524093277323,0.049092788196444435,0.05650092236076262,-0.11066811856754613,-0.09297497598710017,-0.023195280093433288,0.24630262372088174,-0.032363532112398535,0.4711989974380319,0.21927727805661365,8.553261886064428e-13,-0.012468693583978363,-0.014794173142366947,-0.028143410857493337,0.10952072413624327,-0.0015923263514155488,2.1463308140369467e-08,0.09512459805432087
kRespiration,0.012899587769130801,0.0219489562590922,0.05459312256257887,0.0465481948301814,-8.503482297830117e-07,-0.028050077859000554,0.003276462455322449,-3.5126289585989014e-05,0.7109893724700445,0.027459537261464398,0.044194901363583484,0.48369663771587745,-0.0025699509625255333,-1.3407090617700772e-05,0.0950837615795459,-4.0687654410193164e-08,-9.761834799561e-13,0.05459312256279206,0.046548194830025084,-0.004420190862643167,-0.0028599567369845427,0.002049669944066603,0.0,7.578035470294507e-13,0.0,0.0,0.0,7.505076072485374e-13,-0.009649735473167997,0.013202771074736974,-5.28449522560493e-07,9.380297731399866e-05,-0.16091230847904456,-0.008990698108587512,-0.0061907837504850995,0.09309638952027212,0.006402667971428037,0.007375340728497258,-0.014573616761319885,-0.012250543557817649,0.0,0.00787697598823154,-0.00016478248315133853,-0.007067905085607368,-0.002673558852306716,0.006445784039472908,0.007418456798397643,-0.0145305006797702,-0.012207427478468919,-0.0030454938430623506,0.007876520263690434,-0.00016429565869931245,-0.0070662391542059165,0.007350000214815299,8.553261886064426e-13,-0.001638589346345774,0.006761909579213966,0.0017171379277409046,0.005063891861379267,0.0007277646779463518,-1.3379522676156958e-09,-0.043467987150602586
kATPsynth,0.0020641338421675958,0.0035121740565040895,-0.008899920038507604,0.0033285500542181053,1.342744519160646e-07,-0.0006746387833094183,0.0010355611496109818,-0.00023144333410080864,-0.004932924044327496,0.0036790063048074417,0.0031602686181712715,-0.003757424615574258,1.9963738066073622e-05,1.2079930739886328e-06,-0.007102676003793272,-1.2859495167971122e-08,-9.761834799561e-13,-0.00889992003815435,0.00332855005372185,0.0007205915915247411,-0.00020450866394869794,-0.003115544143961898,0.0,7.578035470294508e-13,0.0,0.0,0.0,7.505076072485375e-13,-0.0015441076190589062,0.0003175428420716193,-1.670227493438703e-07,0.0006180577019097959,0.0011164276510216887,-0.0012045663664592182,-0.0009906212878753545,0.006657100125848997,0.001024526344955314,0.0011801690534516877,-0.002332005088893598,-0.0019602773959287354,0.0,0.0010538653915238862,-8.691490032645255e-05,0.0007034409491080933,-0.0004278110298586204,0.0010314255860723676,0.0011870682931571109,-0.0023251058470955682,-0.0019533781559989364,-0.0004873265882826269,0.001053910426806603,-8.684718855839484e-05,0.000703537507356524,0.0009583062690933411,8.553261886064427e-13,-0.0002622148740725728,0.0004835279760606873,9.01552946601073e-05,0.000569421141151926,5.204006018933945e-05,1.2047122077701493e-10,-0.003108094272228113
vCBB_max,0.882287189852876,1.5012323290723375,-0.3223019546647667,-0.1287816128288285,0.00015974163340223388,1.3066764842875367,0.8442209070013674,-0.2752565609279757,0.15715118254814645,-0.6929813142945355,-0.12227286978479077,-1.176780821620879,0.006252408562661753,0.0014221851768192533,0.8636246398726503,-1.0483596082780054e-05,9.761834799561e-13,-0.3223019546647144,-0.1287816128285927,0.026095524163944686,0.00791244088433224,-0.04930470963509744,0.0,-7.578035470294507e-13,0.0,0.0,0.0,-7.505076072485374e-13,-0.6600083706758636,-0.6150339609807796,-0.00013616164754168096,0.7350587051629585,-0.03556671948034545,0.22689332787876243,-0.42342819754805283,-0.2575632262585173,0.437920209417014,0.5044476623675077,-0.9967846737254608,-0.83789450174537,0.0,0.5336985731923561,-0.07875154758733163,1.2392826696022639,-0.18286208698610404,0.4408691987017119,0.5073966516546716,-0.9938356843372135,-0.8349455123590113,-0.20830115266477053,0.5337781487012109,-0.07871587629162964,1.2392639265453271,0.4718823300654418,-8.553261886064427e-13,-0.1120759148410814,-0.018707699010230814,-0.03454465762950689,-0.26058824997988,-0.0020139720729417947,1.4192897724822417e-07,0.1204186388504919
vOxy_max,0.002820968514375398,0.004799948469936937,0.0036975366181721614,0.0028582388412995837,3.5797630300211434e-08,0.0009927140910829973,0.002085302578674751,-0.0006099747703148706,0.05110957451038046,0.0028289473468010107,0.0027137365159361835,-0.012243256451450541,6.505021266148487e-05,-9.696078389433876e-08,1.0069092988333317,-2.5895806890959715e-08,9.761834799561e-13,0.003697536617552875,0.0028582388410082313,-0.000299375026766015,-0.0001756123828179936,0.00021383453982776012,0.0,-7.578035470294507e-13,0.0,0.0,0.0,-7.505076072485375e-13,-0.0021102704145022156,-0.00046725634712268844,-3.36331747748158e-07,0.0016289067310081035,-0.011567204713144444,-0.0009262432690011101,-0.00135384218149988,0.005716477694205659,0.0014001793865970195,0.0016128899981065568,-0.0031870585602938716,-0.002679033307806902,0.0,0.0017100271446298936,-0.00018501909455338262,0.002259686912007376,-0.0005846724477719366,0.001409608303428787,0.0016223189174898176,-0.0031776296437065637,-0.0026696043887168576,-0.0006660097871020373,0.0017101721154922586,-0.000184907476033575,0.002259757937027728,0.00153796116646685,-8.553261886064427e-13,-0.0003583428945420496,0.000415207350005633,3.962300071968074e-05,0.00023010558622304795,4.468727193678113e-05,-9.993004488415985e-12,-0.0026690134460652347
k_O2,0.3794767872349604,0.6456886510911024,0.08845512904336975,-0.1215729175241663,2.4265203409834145e-05,0.628564924368104,0.3782823272310965,-0.04195226371892455,-0.27422776150429623,0.7174791513946178,-0.11542692838610626,-0.7878357424896864,0.0041858864902025745,0.00021911597018522025,-0.511465433818755,-4.69753713899851e-06,-2.664980900280153e-10,0.08845512904369561,-0.12157291752400866,-0.007161864600094985,0.007469533129072126,0.053510508320450095,1.288007328347743e-12,2.576532059900133e-11,2.7136600102589177e-11,4.384832604944578e-11,1.2863974173532326e-12,2.626776625369881e-11,-0.2838733927572534,-0.2958565335926584,-6.1011927823502736e-05,0.11203139552396217,0.06206368739348524,-0.23491431729103074,-0.1821188994676519,-0.2431458354542625,0.18835199784967047,0.2169658373652549,-0.42872281452691563,-0.36038323891779983,0.0,0.23159371957869776,-0.03547048703070413,0.5707463217130254,-0.07865003431964919,0.1896203750921055,0.21823421460888232,-0.4274544372720182,-0.3591148616605007,-0.08959152302230476,0.23163037020339167,-0.03545495623137965,0.570735662678256,0.20426805026646586,4.447696180753502e-11,-0.04820440511140359,-0.01766051457040405,-0.030996617104602914,0.11257944512546011,-0.001900822010950653,2.1866914488318268e-08,0.1135503712327555
k_ox1,0.063713929305382,0.10841074980910483,0.010451949521299289,-0.015993911403413684,3.0339844444669066e-06,0.0745138209951786,0.027508487780060778,-0.005272312046912834,-0.04623819018164709,0.09034229707135312,-0.015185354401021695,-0.12910231098768615,0.0006859394385993305,2.7495191376663194e-05,-0.06641623675025367,-3.4160236729150337e-07,-1.46427521993415e-11,0.010451949521745208,-0.01599391140349522,-0.000846253324282824,0.0009826781584368236,0.006737821349901336,0.0,7.578035470294507e-13,1.0050592630588584e-12,1.827013585393574e-12,0.0,7.505076072485374e-13,-0.04766217790560241,-0.035072591437614216,-4.436754320963986e-06,0.014079442296864548,0.010464704831926592,-0.029579534119800372,-0.0305776560679887,-0.031987822917519254,0.03162419103925559,0.036428437866094746,-0.07198231155017558,-0.0605081370665462,0.0,0.011792310255181794,-0.002701894257402633,0.051834074034230515,-0.01320529547127818,0.03183715084202593,0.03664139766850031,-0.07176935174460035,-0.06029517726344139,-0.015042365227077345,0.011795640380812518,-0.002701067846216349,0.05183178681827639,0.01005486119776336,2.565978565819328e-12,-0.00809515942621857,-0.002323385094625284,-0.0022112199479140298,0.014180469431325761,-0.00025006815864549577,2.7441900659022336e-09,0.014938320106779946
k_aa,0.045727479616242905,0.07780637937384684,0.011487123273770085,-0.01525071013500751,3.093059253707403e-06,0.07635774682407914,0.026605828577748427,-0.005341727544789209,-0.03311550217777394,0.09133927619289993,-0.014479727351068361,-0.09543678111727096,0.000507069568329993,2.7914406380208937e-05,-0.06491670188130509,-3.303937613872158e-07,0.0,0.011487123274164176,-0.015250710134692707,-0.0009300672789632384,0.0009370153037279801,0.006812209489624373,0.0,0.0,0.0,0.0,0.0,0.0,-0.034207138151878806,-0.03594050099336226,-4.291167857706449e-06,0.014264812868287917,0.007494756051285172,-0.029905961263653913,-0.021945580185898168,-0.030501420379603426,0.02269667723704187,0.026144684623564046,-0.05166169435754215,-0.043426680675901344,0.0,0.010653561360889822,-0.002631474720215063,0.051671277484271416,-0.009477438352480553,0.02284951845366308,0.026297525839849203,-0.05150885313937239,-0.043273839459197376,-0.010795903215875107,0.010656881224621549,-0.002630720538660054,0.0516688401796171,0.009010320339829169,0.0,-0.005809771278629737,-0.0022154225889146526,-0.0020912352638617956,0.014331557480069888,-0.00023844870645713277,2.785827584603968e-09,0.014244371583923684
