,PSII,Q_ox,Hi,Ho,O2,PC_ox,Fd_ox,NADPH,NADH,ATP,CO2,succinate,fumarate,3PGA,PG,CBBa,OCP,Hi_mol,Ho_mol,pHlumen,pHcytoplasm,dpH,light_ps1,light_ps2,light_ps1_ML,light_ps2_ML,light_ps1_tot,light_ps2_tot,Q_red,PC_red,Fd_red,NADP,NAD,ADP,PSIIq,Keq_PQred,B0,B1,B2,B3,Keq_vSDH,Y0,Y1,Y2,FPS2_old,B0_tot,B1_tot,B2_tot,B3_tot,FPS2,Y0_tot,Y1_tot,Y2_tot,FPS1,FPBS,Fluo,dG0_FNR,dG_FNR,f_CBB_energy,f_CBB_gas,f_oxy_carbon,f_oxy_gas
PSIItot,0.9992784036890584,-0.002633917474926826,0.016398980879210313,-0.004030169418729419,2.2498795095916067e-06,-0.0006667535087418937,-0.004341448043492686,-0.003532239915342034,0.007869596462177088,0.09437144165463648,-0.0038584844406176102,0.004982403591794715,-1.144372042785068e-05,2.0038051947686218e-05,0.01399436876105734,0.01577756132433302,9.517906172648322e-13,0.016398980879203995,-0.004030169418505274,-0.001224102941484804,0.0002449166753595066,0.006679392817061635,-0.035163948904282975,-0.8661202726460079,-0.02197270308608504,-0.9737337453063645,-0.03505648541269598,-0.8897019632022994,0.09971558030600845,0.11954147772460741,0.07221910248035751,0.0039790985975445845,-0.002059154449620887,-0.0005731029027862036,1.161401264817936,-0.008060338830180076,1.0048347870458187,0.1385165910088579,0.1411505229757869,-0.7256057959564975,0.0,0.1301574419059999,0.07537615249221043,-0.004404605205231223,0.9892828223214186,1.0063506405461253,0.11645075421629598,0.1190846832810728,-0.7712533263625327,0.0022763620861813607,0.13019483160354708,0.07541902762694323,-0.00439089338696573,0.13869124042980335,0.0,0.0010294934288745238,-0.0006011181809779456,0.16273105121395753,0.08321125832154315,-7.516835321277803e-05,2.0030425932688944e-09,0.0037855659692427567
PSItot,0.0007090783231878449,0.0025882252612415843,-0.015398161484068565,0.004354065508034617,-2.1423187066855716e-06,0.0029521842035433277,0.004063889925327806,0.004617514993368784,-0.009064076759060673,-0.09124894010547793,0.004168578278967347,-0.005836354178848421,1.3405119741208952e-05,-1.907244672493115e-05,-0.014383573737010895,-0.014768867815476571,-9.517906172648322e-13,-0.015398161483741174,0.004354065508299227,0.001149396708681627,-0.00026460010289494905,-0.00645806998185887,-0.964836059945792,-0.13387973712048387,-0.9780273062920893,-0.02626626464671271,-0.9649435234416563,-0.11029804660494552,-0.09798575177247909,-0.5292937458592761,-0.06760197981087175,-0.005201670292680466,0.0023717015324044933,0.0005541404425536389,-0.15860133510825133,0.00870813106319312,0.0007628402934758805,-0.13292239846085666,-0.13551062330445357,-0.26876534707835553,0.0,0.8746945823486523,0.8109292302112133,1.0042509173645942,-0.001456366992527336,0.0008065957179285051,-0.10929695252293004,-0.11188517772842374,-0.22155821088088473,-0.029390483748945356,0.8765861243446035,0.8105604356847417,1.0041728456739638,0.26631851306751286,0.0,-0.013291789780997165,0.0006494287583186209,-0.1546201679388729,-0.07978492191065975,8.120833706390519e-05,-1.906998699522908e-09,-0.004089512207703075
k_Q,0.00714192656627,0.0260689318761687,0.005252668954370413,0.005123655877593996,3.0256445509114815e-07,-0.00010396884357849936,-0.0013541219297670613,0.01227365833416013,-0.031412645660292456,0.0005507369889770174,0.00490534117998489,-0.041689915459879205,9.575461885166037e-05,2.8889962201409014e-06,-0.013562881360195391,0.0049211096363550545,0.0,0.005252668954711673,0.0051236558777907485,-0.0003920857993854799,-0.0003113687382210844,4.2181342618753655e-05,0.0,0.0,0.0,0.0,0.0,0.0,-0.9869248732108361,0.018640455634262875,0.022525542039672136,-0.013826381512782633,0.00821941625704037,-3.3445390529961236e-06,-1.5974527095442426,0.010247311773358025,0.00013496394464709816,0.0020939760808466918,-0.0239749706749738,-0.017679753888490253,0.0,0.01808796353775016,0.022813325861492092,-0.0006132202325433075,0.0017426294379881476,0.0001725675267052932,0.0021315796643130067,-0.02393736383346312,-0.017642147048713547,0.0014776828618612084,0.01808977613464479,0.022813412589949,-0.0006112008703583811,0.022941400558173137,0.0,0.0006682822104319228,0.0007642166849956857,0.027831120375478614,0.007369308386202483,9.55509784585592e-05,2.8868684825383175e-10,-0.004809487641223329
k_FN_fwd,0.002650530082774143,0.00967476882090372,0.1761499903145024,0.24710189165431448,5.292753821635357e-08,0.0006828037978610946,0.014874783176748787,0.44429327153773696,-0.5964343903029277,-0.32872420838349836,0.23657331361422948,-0.3515539062813427,0.0008074591641176775,3.0037593241319866e-06,-0.6056284777679632,-0.05405749393528481,9.517906172648322e-13,0.17614999031431672,0.2471018916539673,-0.013148726948090243,-0.01501658310509731,-0.023198009507156805,0.0,0.0,0.0,0.0,0.0,0.0,-0.366270088750481,-0.12241911579333965,-0.247438983457347,-0.5005001857307636,0.1560627072685543,0.0019962903479872366,-0.5928507417666454,0.49420378184755037,5.0088208156993445e-05,0.0007771218093322432,-0.008897659827082157,-0.0065613628479525435,0.0,-0.11878288707684413,-0.2435130463506334,0.004035441878659107,0.0006467290139775758,6.404374676399474e-05,0.0007910773474193629,-0.008883701481411486,-0.006547404501336384,0.0005484013625494329,-0.11879478995270171,-0.2434639702745441,0.004022181113077551,-0.1710408292348181,0.0,0.0002479998589540149,0.03685637619686122,-1.2701557350534252,-0.04797420964126417,0.004608256725209385,3.003453555871596e-10,-0.23196500537838605
k_SDH,1.0640519678764826e-06,3.8839280017659e-06,0.0005077179764555688,0.000542458884965982,-1.4364012406967942e-10,-2.2561483086036675e-06,-4.505757493525288e-05,0.000640961062497466,0.0007907389226636791,-0.00016247240624513544,0.0005193456939900077,-0.9883548674523618,0.0022700819746104143,-1.0947113702746607e-08,-0.0004047661108188841,0.00016374689669696938,7.614324938118658e-12,0.000507717976261588,0.0005424588858230655,-3.7898639194524935e-05,-3.296566801786294e-05,-1.1358682665195695e-05,0.0,-6.864500021258378e-13,0.0,-1.223059408457119e-12,0.0,-1.0720519573998535e-12,-0.00014703882648168466,0.0004045022624406774,0.0007495235665995819,-0.0007220481411205019,-0.00020690432924170565,9.866689881445355e-07,-0.00023799918459087543,0.0010849177732978716,2.010727316557567e-08,3.119746654928733e-07,-3.5719724082854346e-06,-2.6340694868184803e-06,0.0,0.0003924926214326999,0.000740530178381379,-1.3328471750465203e-05,2.5962685228541015e-07,2.5710458648921116e-08,3.1757654869632994e-07,-3.566365705914835e-06,-2.628462061876231e-06,2.2015284390545939e-07,0.00039253195123817303,0.0007404019879594711,-1.3284654893143221e-05,0.0005512272668819244,-1.7179489005315091e-12,9.960856179806886e-08,8.091022200710912e-05,0.0007986923416217644,0.0002122176073021066,1.0116434169875849e-05,-1.110334031745507e-12,-0.0005092294024846037
k_NDH,-0.0007101769694543478,-0.0025922354414317575,-0.031585675606764715,-0.032500527766250877,-2.6484930376454906e-08,-0.00037534604603152785,-0.00611230088342227,0.05880488695614252,-0.6585614086676411,0.0040307174148828786,-0.031115745903842924,0.10831211313803853,-0.0002487743965964415,4.7723340013458495e-06,-0.14586763699348748,0.022213142102756316,0.0,-0.0315856756071315,-0.03250052776651617,0.0023577147075442445,0.001975083522786076,0.00029911459686628937,0.0,0.0,0.0,0.0,0.0,0.0,0.09813757028942251,0.06729536539726964,0.10167687819097501,-0.06624421013975683,0.17231883005214224,-2.447791210249936e-05,0.1588470720867782,-0.0650010555940511,-1.3420512577798959e-05,-0.00020822023391162234,0.0023840176368550236,0.0017580355661212521,0.0,0.06529917519588202,0.10152606975719086,-0.002215508941831415,-0.00017328310323091523,-1.7159728107601683e-05,-0.00021195944941163983,0.0023802778904962628,0.0017542958193431052,-0.00014693742021256785,0.0653057187551396,0.10151622688537615,-0.0022082189276103462,0.0869907849495325,0.0,-6.644514866397255e-05,-0.004847602203500452,0.06029974395032802,0.03656403877248184,-0.0006061094783639143,4.77443633650568e-10,0.030509609917701394
vNQ_max,-0.0047238645923176415,-0.017242701113833924,-0.26028803897992325,-0.438212679265555,-8.471240442064732e-08,-0.0012287985973849832,0.04113071446371241,-0.7547038543147896,1.027085208181542,0.8246161145676866,-0.4195412062429628,0.5930928535805812,-0.0013622327637157698,-5.0232605349730825e-06,0.7825400324686379,-0.14947601753013684,0.0,-0.2602880389797098,-0.43821267926566226,0.019429216749319776,0.026630541141727443,0.05817317642058334,0.0,0.0,0.0,0.0,0.0,0.0,0.6527789742754846,0.2203099019823669,-0.6842010437963156,0.85018037286255,-0.26874657261587115,-0.005007763798450334,1.056598695393621,-0.8764253597156408,-8.926890059400524e-05,-0.001385012840340678,0.01585771104663572,0.011693883347109973,0.0,0.21385453362683152,-0.6252485634192744,-0.00716940363930574,-0.0011526223781211495,-0.00011414093145518326,-0.0014098848724713904,0.01583283402456227,0.011669006325871771,-0.0009773794977672484,0.2138759675277537,-0.624773344880637,-0.0071455258753085225,0.0765219091614719,0.0,-0.0004420124561336404,-0.06536142315429203,-0.2951062580775736,0.3218129414575239,-0.008172323204594217,-5.018709823489692e-10,0.4113687980750818
kRespiration,0.0004661084574945294,0.00170135461373326,0.22308353695552816,0.23836076931474254,-6.338825850183875e-08,-0.0009925109497620974,-0.019821601593722687,0.2819289542246484,0.3481323408987781,-0.07144708656060508,0.2282046479755413,0.5819507093071625,-0.0013366411753772582,-4.815823500660879e-06,-0.17775416725075469,0.0720350753102445,-9.517906172648324e-13,0.2230835369554105,0.23836076931500916,-0.01665208442641159,-0.014485377958941592,-0.004994952568328884,0.0,0.0,0.0,0.0,0.0,0.0,-0.06441035614429416,0.17794615856808899,0.32972829859556235,-0.3175953879831182,-0.09109212428370848,0.0004338869047782671,-0.10425565307303308,0.47672153810877654,8.808283041823738e-06,0.0001366606384274647,-0.001564702030085346,-0.001153852974042927,0.0,0.17266295069932516,0.3257718379724551,-0.005863380006118873,0.00011373033369299061,1.1262432493859795e-05,0.00013911478670918697,-0.0015622461148410518,-0.0011513970601230792,9.643894624990897e-05,0.17268025284569408,0.32571544194667,-0.005844104054405064,0.24249001613877424,0.0,4.363426387053791e-05,0.035552597793856486,0.3511616889300246,0.09335996971042028,0.004445242291609827,-4.813298027616773e-10,-0.22375946963258717
kATPsynth,9.700162062579056e-07,3.5406832831811967e-06,-0.0007077455398547842,0.0001361443959743573,2.5650022155299894e-12,-1.1055426033713887e-08,-1.472661110443117e-07,2.1965770556626855e-05,-0.00013013257063151828,-1.3824876994917112e-05,0.00013034352637641183,4.361856023201689e-06,-1.000160387585101e-08,-2.159754533536011e-11,-0.0001696405045304554,5.351901987582787e-07,0.0,-0.0007077455402099294,0.00013614439641268937,5.282971039663383e-05,-8.273605933695646e-06,-0.0002759132116940125,0.0,0.0,0.0,0.0,0.0,0.0,-0.0001340441724629223,1.9821147509804105e-06,2.449741712637582e-06,-2.474462916186047e-05,3.405041913672495e-05,8.395622806638954e-08,-0.00021696596886150866,0.00027228880524669385,1.833235030352208e-08,2.844054847415431e-07,-3.256284367760208e-06,-2.40126721042558e-06,0.0,1.9233618330953543e-06,2.4771588616107996e-06,-6.521251692691465e-08,2.3668565338673477e-07,2.3437629045298623e-08,2.8951108193157494e-07,-3.2511749637085344e-06,-2.396161610342049e-06,2.0069176155106607e-07,1.9235556784239968e-06,2.477135523408152e-06,-6.499537470829104e-08,2.442694588503641e-06,0.0,9.0763082870671e-08,2.0306559384332842e-05,9.833137409040192e-05,-1.8082057145045626e-07,2.5389859774727096e-06,0.0,-0.00012780453734146462
vCBB_max,4.9840351000134355e-06,1.819235718094789e-05,-0.23667737586444657,-0.022533480998058172,3.93888152722324e-08,0.00013258858216477602,0.005617170033448175,-0.09867806174932227,0.10732745298045916,-0.9932637773372837,-0.021573368919663233,0.08796531120012877,-0.0002020412709878406,-2.6323031419091284e-07,0.16889543709545837,-0.020413752136078763,0.0,-0.23667737586441392,-0.022533480997936037,0.017666797304407948,0.0013693779772088078,-0.0700152071091671,0.0,0.0,0.0,0.0,0.0,0.0,-0.0006887313177808641,-0.023771655992174862,-0.09344047751607518,0.11116168395292174,-0.028083244608954446,0.0060319344957432,-0.001114791688363473,-0.04506696212462439,9.418121382956674e-08,1.4612888721126206e-06,-1.673040953270066e-05,-1.2337253700137501e-05,0.0,-0.023062006355039046,-0.09002502278424972,0.0007873468255958095,1.2161118027225142e-06,1.2042291930965708e-07,1.487531302484338e-06,-1.67043114355873e-05,-1.2311157236236182e-05,1.031217847602434e-06,-0.023064317162242956,-0.08999284574468845,0.0007847723476821478,-0.04250815544172202,0.0,4.628848532791274e-07,-0.003360971637397662,-0.011232051983174746,-0.9518690954150857,-0.0004202319270691927,-2.6648016761892163e-11,0.021153176302464206
vOxy_max,-1.2363093384838912e-06,-4.5126875465459216e-06,-5.1415128816872596e-05,0.00016161257935959475,-3.193043008002507e-08,-1.8986025985570946e-06,2.266159985830912e-06,-0.00035057905711587757,0.0033153808815522675,-0.0009891192687211485,0.0001547270702313779,-0.0004544427241492711,1.0437827590069045e-06,-3.099799061386684e-07,1.0009580438627341,-8.235611339095508e-06,-9.517906172648322e-13,-5.141512860039968e-05,0.00016161257991129186,3.837884803191179e-06,-9.821327352663505e-06,-6.965025933118683e-05,0.0,0.0,0.0,0.0,0.0,0.0,0.0001708425801974017,0.00034039829902290567,-3.7697109032299724e-05,0.0003949303184189888,-0.000867500808327742,6.006765484848558e-06,0.0002765284246863089,0.00032322512719417496,-2.336320403908891e-08,-3.6247857082171344e-07,4.150207841860843e-06,3.0604678359616993e-06,0.0,0.0003303442871449604,-6.195943484481792e-06,-1.116123494949829e-05,-3.01660461153815e-07,-2.987349568223085e-08,-3.689890450228815e-07,4.143698065936245e-06,3.0539592916422718e-06,-2.557999371264009e-07,0.0003303773919600182,-5.9703233596140895e-06,-1.1124353129722531e-05,0.00032698453829161137,0.0,-1.1565746000091681e-07,2.4105253252785422e-05,0.0008595685005995418,-0.0010891700404354666,3.0140737868112632e-06,-3.108935288887419e-11,-0.00015174492633861656
k_O2,-2.2432986842545705e-07,-8.188327768376646e-07,-7.444120515699751e-05,-9.230404597805543e-05,-2.203336903140261e-09,3.497777045201523e-07,1.2917331082568964e-05,-0.0001567284569098083,0.00021270926295157162,8.308958224227935e-05,-8.837109888965802e-05,0.00012001649732496512,-2.756416656959753e-07,-2.0523919989610234e-08,0.0001562515149188911,-4.694378137956689e-05,0.0,-7.444120523836787e-05,-9.230404554251494e-05,5.556668567589501e-06,5.609392027723294e-06,5.840326892342487e-06,0.0,0.0,0.0,0.0,0.0,0.0,3.0999598997769055e-05,-6.271124654800469e-05,-0.00021487716722143625,0.00017655595260571567,-5.565739304680467e-05,-5.045895944118857e-07,5.017642688184456e-05,-0.00018460809769380544,-4.237888955589119e-09,-6.577216828305157e-08,7.530623019811518e-07,5.553290452741266e-07,0.0,-6.0841621628747205e-05,-0.0002077154065424659,2.0744713111491528e-06,-5.473566732216975e-08,-5.4200317103576215e-09,-6.695409621896178e-08,7.518800321967132e-07,5.541477736469267e-07,-4.6416959816294884e-08,-6.0847716833355887e-05,-0.0002076463079432966,2.067681371418385e-06,-0.00010567528678462191,0.0,-2.0999543377001172e-08,-1.3767571746046104e-05,-0.00022300756180327236,-1.2749141370848992e-05,-1.7213894615990955e-06,-2.220668063491014e-12,8.664750508165335e-05
k_ox1,5.338391296093767e-05,0.00019485800598743075,-0.006440253815852355,-0.007083553765063929,-2.6905462489691046e-07,8.259269588373301e-05,0.0012256329798432393,-0.012602545505052175,0.01667467629659666,0.0030183217486744905,-0.00678173199746788,0.009421897499478409,-2.1640462405490406e-05,-2.4691103842857785e-06,0.011810702166576387,-0.004454158913048295,-9.517906172648322e-13,-0.0064402538158519086,-0.007083553765099668,0.0004807331458052325,0.0004304733280835145,0.00021032950269920953,0.0,0.0,0.0,0.0,0.0,0.0,-0.007376988584218315,-0.014807950443081312,-0.02038815457144004,0.014196875735092618,-0.004363086985144446,-1.8329792768143053e-05,-0.011940514315601822,-0.014167107486496548,1.008815980768712e-06,1.5651886846301785e-05,-0.0001792060182389288,-0.00013215102472316446,0.0,-0.014368856085457314,-0.020471004870017948,0.00048734642019189657,1.3025671302108999e-05,1.2898914268086795e-06,1.5932963036677005e-05,-0.0001789249633430769,-0.00013186997139269264,1.1045269104580748e-05,-0.014370295980248906,-0.020469829487380374,0.0004857422705811523,-0.018735279594239193,0.0,4.993675606109817e-06,-0.0010565444080758363,-0.024431861017968622,-0.004331670508159761,-0.0001321016762720842,-2.464941550475025e-10,0.006649361290726823
k_aa,-4.059862469603188e-06,-1.4819008748561193e-05,-0.0013296122480951507,-0.0016971789915765081,-3.8684080913515534e-08,1.3435845375380976e-05,0.0002393683740829886,-0.002975288782975583,0.003993475586372928,0.0017088241909672109,-0.0016248646052225838,0.0022880716465827713,-5.255335412264e-06,-3.6165260170997367e-07,0.0029113197140229322,-0.0008699054216582175,-9.517906172648324e-13,-0.0013296122477150544,-0.0016971789909346095,9.924898919213652e-05,0.00010313894931992423,0.00012017742542155093,0.0,0.0,0.0,0.0,0.0,0.0,0.0005610221546381774,-0.002408897425501402,-0.00398184406798718,0.0033516883641472256,-0.001044930710825877,-1.0377419890589808e-05,0.0009080796676171555,-0.003394358007762967,-7.672186461545184e-08,-1.1903299168702477e-06,1.3628737268321833e-05,1.0050190956216428e-05,0.0,-0.002337415200740093,-0.003956442899854699,7.933426675725124e-05,-9.90605188397776e-07,-9.809812799559273e-08,-1.2117072063814758e-06,1.3607348974875453e-05,1.0028801648101194e-05,-8.399996568799314e-07,-0.0023376494300352654,-0.003955919820554711,7.907331909980845e-05,-0.003183994904450817,0.0,-3.801495130392682e-07,-0.00025314200290039654,-0.003961837572486178,-0.00012334373454749828,-3.165090749417106e-05,-3.608585603172897e-11,0.0015931750117138253
