,PSII,Q_ox,Hi,Ho,O2,PC_ox,Fd_ox,NADPH,NADH,ATP,CO2,succinate,fumarate,3PGA,PG,CBBa,OCP,Hi_mol,Ho_mol,pHlumen,pHcytoplasm,dpH,light_ps1,light_ps2,light_ps1_ML,light_ps2_ML,light_ps1_tot,light_ps2_tot,Q_red,PC_red,Fd_red,NADP,NAD,ADP,PSIIq,Keq_PQred,B0,B1,B2,B3,Keq_vSDH,Y0,Y1,Y2,FPS2_old,B0_tot,B1_tot,B2_tot,B3_tot,FPS2,Y0_tot,Y1_tot,Y2_tot,FPS1,FPBS,Fluo,dG0_FNR,dG_FNR,f_CBB_energy,f_CBB_gas,f_oxy_carbon,f_oxy_gas
PSIItot,0.5346320905383706,-0.9415471201314689,0.018794517817698714,0.04723756069261326,-3.00533307014946e-06,-0.42592544107112396,-0.22750595330848097,0.006289577469707663,0.3546318141939377,-0.0997775168544071,0.04484222804521887,1.0151573596756696,-0.0066145557590964335,-3.0279374619846574e-05,0.12657503333603215,1.6153754669430838e-10,0.0,0.01879451781821338,0.04723756069263295,-0.0015192955530780514,-0.0029028786968870782,-0.00728913780313147,-0.018809009480779362,-0.9792222704383932,-0.020092280205915327,-0.9770860746357726,-0.018821503153215,-0.9792020895227085,0.335327092481133,0.1910699904130476,6.767474051683629e-05,-0.015572526916495098,-0.09386261200169858,0.029347733095907692,1.1984330661752023,0.09447512355945592,1.025940029258685,0.014560465341423669,0.9561075577103031,-0.09929737487321377,0.0,-0.02880113558536772,0.05205919554956695,-0.3713695007170497,0.9273643186312945,1.0260874402644888,0.014728057219454981,0.9562751495007815,-0.09910960221086962,-0.05911965956431659,-0.02930219423455296,0.05213172280669103,-0.3710094414115155,0.07387334306157899,0.0,-0.03239134223248341,0.006858884667991617,0.021624823653415937,-0.01666651915003636,0.0007362444170899634,-3.0217734912999946e-09,-0.044108987027329384
PSItot,0.015946091654268534,0.03226263314906405,-0.0005233629971415378,-0.0015683616828594971,1.2373290551821697e-07,0.014655050463492119,-0.9332787279558653,-0.00013826497859413927,-0.012386274114081802,0.003663912157996155,-0.0014888331586143143,-0.03490770003842154,0.00022745138050255374,1.2239338313905765e-06,-0.004682413979922077,6.644688776394745e-10,3.116928775247787e-11,-0.0005233629970157135,-0.00156836168235927,4.23071814449871e-05,9.638016075111676e-05,0.0002678032508231167,-0.9811909999877177,-0.02077773952460186,-0.9799077292260648,-0.02291393532339228,-0.9811785063152045,-0.02079792044035118,-0.011490168403453516,-0.006574250048895523,0.00027761645300228055,0.0003423338230804762,0.003278352349891608,-0.00107767280111538,-0.006799419977964465,-0.0031367234240250582,0.01929288437347932,-0.00038296759869917916,-0.032645599596137206,-0.05081289679528794,0.0,0.9894802063293315,1.0659866532288862,0.3340144968597148,-0.009023276744153392,0.019415669713675348,-0.00028036317539319866,-0.03254299517761655,-0.05073047329196385,-0.03202760412900244,0.9901024321635437,1.0655365094515241,0.3325062199711145,0.9305961372992492,-7.46611128158792e-13,-0.01587959541229103,-0.00022772581177625358,0.0839761759557555,0.000657073570296814,-2.444455660783549e-05,1.22136720206871e-10,0.0014645122753550305
k_Q,0.021629166608860613,0.04376081031666614,0.022757182047619826,0.005801433874204784,2.2873543529029845e-06,-0.9731296476709737,-0.34569676788889414,-0.00398439997808841,-0.028024892482641933,0.05946304952749939,0.005507219430665892,-0.04957956457437569,0.0003230501957931892,2.056029136109582e-05,-0.058492946904922356,2.4591454702947974e-10,0.0,0.022757182047823354,0.005801433873974979,-0.0018396260941263352,-0.0003565141487132466,0.004345272878150034,0.0,0.0,0.0,0.0,0.0,0.0,-0.01558518418689334,0.4365455887864786,0.00010283220572515919,0.009865078569061362,0.007417522919484983,-0.017489969300052272,-0.009222685453054026,0.011602868016535244,0.015700052904769075,0.017194645645237653,-0.026566163725468734,-0.023025378376689318,0.0,0.01004525792816088,0.059110887539231334,-0.7428796853608777,-0.006267505517182262,0.015793835657094704,0.017288428396360533,-0.026472380975799754,-0.022931595625954333,-0.0061742840279727694,0.00910978400282012,0.059557415987926104,-0.7417350103469775,0.193414014865167,0.0,-0.0030350204475185533,0.0008423670720217172,0.03200818157214105,0.009817739314699604,9.041240660478192e-05,2.051896899475433e-09,-0.005414519412291508
k_FN_fwd,0.2078466520851217,0.42052192733727756,0.1507958899083774,0.1314248237810832,4.216911945776724e-05,0.17862418488853743,0.3495623241844641,0.33106218831737144,-0.8997255295184932,0.061313383116329695,0.12475985065959293,-0.8410370343988507,0.0054800236587249605,0.0003821866334532754,-0.5801058119499581,-2.4869010625103147e-10,8.043687161929771e-12,0.15079588990814163,0.13142482378075393,-0.012189912403519602,-0.008076418778937104,0.004964249539434395,0.0,0.0,0.0,0.0,0.0,0.0,-0.14976668952974315,-0.08013074121171476,-0.00010398206832600944,-0.8196854023082191,0.23813596216000552,-0.018034211109375226,-0.08862589712127726,0.26284965285037004,0.1508705292832119,0.16523289936905547,-0.2552890239836844,-0.2212636544762967,0.0,0.16035254742491362,-0.13326372053664323,0.2997419691589257,-0.06022794483971339,0.15177173983457165,0.1661341099192031,-0.2543878134179593,-0.22036244390680645,-0.05933212689207286,0.1610652894971688,-0.13280458981867002,0.300075168067499,0.004829812933497149,0.0,-0.03263757608681998,0.01908285902590852,-0.07734414814968424,0.17307511925354924,0.0020482208449346755,3.813719088459547e-08,-0.12266945601823119
k_SDH,7.140463543857766e-05,0.0001444704523310398,0.0003090589761636799,0.00025283419825173026,6.853499069880565e-10,-0.00014172699389719255,4.354042683559854e-05,-7.033110032959441e-06,0.002673510539840603,0.00019706109868764378,0.000240013227085367,-0.6107352017969274,0.003979424497426727,-1.954254241398929e-08,0.0003170518941069674,0.0,0.0,0.0003090589766758423,0.00025283419832421947,-2.4983452183016574e-05,-1.553735917532329e-05,1.440880752873209e-05,0.0,0.0,0.0,0.0,0.0,0.0,-5.1452397773710944e-05,6.35786761744045e-05,-1.2951823716991889e-08,1.7413458347945783e-05,-0.000707614693186513,-5.796192078247334e-05,-3.0446966116773367e-05,0.0005056683582973586,5.1831652734031375e-05,5.67657719248606e-05,-8.770468436835955e-05,-7.601544524155717e-05,0.0,5.4688701567751534e-05,-3.1561787611650485e-05,-5.457865168199659e-05,-2.0691491763660736e-05,5.214126412762662e-05,5.707538122865077e-05,-8.739507320068718e-05,-7.57058329706403e-05,-2.0383785307493348e-05,5.473000140642137e-05,-3.131919192583293e-05,-5.4233649343939574e-05,4.1404132871838124e-05,0.0,-1.1138321302698044e-05,3.6711472578267895e-05,8.558344463288e-06,3.5536384096772976e-05,3.940618580121113e-06,-1.6655007300936956e-12,-0.00023607191728710798
k_NDH,-0.01568653727667139,-0.03173749722607784,-0.03487704145813003,-0.024553627226240497,-2.2051905798629698e-06,0.003210960083118142,-0.015842005362360127,0.0027883300186478856,-0.37857693498728107,-0.03619418816412393,-0.02330851182565006,0.09928269981646153,-0.0006469055702053924,-1.6101723560243412e-05,-0.04967020319590501,1.16573487305171e-11,0.0,-0.03487704145735467,-0.02455362722606179,0.002819361193475351,0.0015088882771756382,-0.0026455955269430774,0.0,0.0,0.0,0.0,0.0,0.0,0.01130314398516857,-0.0014404354686041307,4.712419945666657e-06,-0.006903698138165024,0.1002003163267927,0.010645858980417975,0.006688745886096963,-0.049107255456420563,-0.011386452678868864,-0.012470404969749164,0.019267092155442228,0.016699140155273545,0.0,-0.009660747831891714,0.007071139408393938,-0.007246732212547478,0.004545504238589031,-0.011454468556195469,-0.012538420844076402,0.019199076275435586,0.016631124274429882,0.004477895266792282,-0.009689775396489055,0.00703754795753855,-0.007282758908824264,-0.0030322188759026414,0.0,0.0024582157503570644,-0.0035651819291616454,-0.00011485679584562757,-0.005799371814703015,-0.00038268042792384815,-1.606653037630385e-09,0.022923625315700222
vNQ_max,0.0810112735043253,0.16390457053032553,0.10051385947138633,-0.1015712177209519,2.7048668235650763e-05,0.3953398734454898,0.5736271538069903,-0.04731503068771567,-0.042293794434913067,0.7087953850983528,-0.09642097021783634,-0.2341171711685721,0.0015254591631155127,0.00024208965036320474,-0.46069592767721823,-4.0800720556809847e-10,1.3171537727660002e-10,0.10051385947190729,-0.1015712177212738,-0.00812525553202455,0.006241832134389906,0.05178862083950014,-1.159627659499701e-12,-1.3025099268301499e-12,-1.8429681634629407e-12,-2.133923841679963e-12,-1.1483377515476273e-12,-1.2902049484365892e-12,-0.05837375730366699,-0.17734931644250568,-0.00017063320043434214,0.1171485036137874,0.011194162109612174,-0.20847920891407107,-0.034543240024558726,-0.20314244005879387,0.058803993478780396,0.06440193735799478,-0.09950262767027988,-0.08624074215578072,0.0,0.24149521401777485,-0.20935639496027914,0.5491700835054313,-0.023474721200658265,0.059155253473323836,0.0647531973532825,-0.09915136770256697,-0.08588948218710554,-0.023125563549104382,0.24269441116331872,-0.20871854777150942,0.5495276617731191,-0.01751000206361507,-2.239833384476376e-12,-0.012757296729454937,-0.014748121159255301,-0.048814584794206625,0.1171136638958764,-0.001583155851436023,2.4156977756188993e-08,0.09486485897098432
kRespiration,0.011941359324894879,0.024160147249814252,0.06036324949455705,0.050583971952122234,-4.3656147962036307e-07,-0.03143161083544287,0.005060287116732818,-0.0006920509824321394,0.6868605069141009,0.03427153501501653,0.04801891776189968,0.4667915582368298,-0.0030415173794389704,-1.0348425735379e-05,0.10742365671840057,-3.885782910172367e-12,0.0,0.06036324949445447,0.05058397195187628,-0.004879593990317485,-0.003108524911506533,0.0025061487779516685,0.0,0.0,0.0,0.0,0.0,0.0,-0.008604510340686003,0.014100208633054992,-1.505251381315252e-06,0.001713466859008619,-0.18179565024728883,-0.010080345694331758,-0.005091800480797563,0.10116794653776326,0.00866792937078815,0.009493086865356649,-0.014667060821227028,-0.012712210185612891,0.0,0.009523164965208119,-0.005033233524749577,-0.014728723518658723,-0.003460262831420112,0.008719706408395093,0.009544863903207175,-0.014615283775647631,-0.012660433139203163,-0.003408795518189983,0.009523633251088699,-0.004988123608274384,-0.014660938048403533,0.008534553418589282,0.0,-0.0018596529326795177,0.0073447829156122295,0.0019290818128797984,0.006438455583705185,0.0007883925144298951,-1.032610452658091e-09,-0.047230959487363146
kATPsynth,0.0015288911657058445,0.003093296578494023,-0.009022206562026775,0.0032800027271832643,1.5629119333531845e-07,-0.001047957111676383,0.0015030560698384573,-0.000275001128428569,-0.0043735142151653745,0.00388100667017916,0.0031136747110415437,-0.003070458640646613,2.0006492125191267e-05,1.4011333529116288e-06,-0.0071924573652168,-1.1102236886206762e-12,0.0,-0.009022206561840556,0.0032800027270795435,0.0007293296089035768,-0.00020156523549745006,-0.0031527041001767294,0.0,0.0,0.0,0.0,0.0,0.0,-0.0011016614309067277,0.00047011316059984227,-4.4710436457395e-07,0.0006808823796425014,0.001157565258793793,-0.0011415271849975397,-0.0006519198158955572,0.006560005583770885,0.0011097810695037417,0.0012154286729702429,-0.0018778679121775066,-0.001627582010516595,0.0,0.0010739586546581424,-0.0007387219298058433,0.00027090732260565316,-0.00044302748364362046,0.0011164102377695332,0.0012220578413859773,-0.0018712387419672512,-0.0016209528402717447,-0.00043643800157665253,0.0010764975091333954,-0.0007346943854702397,0.00027570122966945207,0.0004726494873939829,0.0,-0.00023925820870429956,0.0004762557613597659,5.5302922667887636e-05,0.0006335117264532114,5.1120906859118505e-05,1.3990206132787043e-10,-0.0030623973880999846
vCBB_max,0.6317621667239396,1.2782012262923625,-0.3212555190180778,-0.11732997758552749,0.0001628489167985206,1.0818575194544777,1.3254957314384976,-0.28641442985752136,0.2542816235453318,-0.7485222717082107,-0.11138230966101036,-0.9185434470751913,0.005985039448080233,0.0014487331773602832,0.9247367801506297,-9.431350234832644e-10,4.847326975957929e-09,-0.3212555190179264,-0.11732997758507283,0.025969385786016375,0.007210251515151863,-0.052260278961474095,-5.74015691452352e-11,-8.205812539029944e-11,-5.528904490388821e-11,-8.215606790467857e-11,-5.7416887577381373e-11,-8.257311669994171e-11,-0.45522469524241194,-0.48532087059873075,-0.00039428673668523054,0.7091408667291854,-0.06730230175290741,0.22016414657971536,-0.26938364525814407,-0.23465995978107324,0.45857987786791,0.5022351494542451,-0.7759660551152983,-0.6725439364112564,0.0,0.522390947579518,-0.4684048330649504,1.3633391594460649,-0.18306639280297735,0.4613191605575322,0.504974432146619,-0.7732267724580579,-0.6698046537448963,-0.1803435024591558,0.5252107045756881,-0.46712127902131567,1.36385385747677,-0.08234808202055609,-8.436705748194349e-11,-0.09938558560304045,-0.017036290089897092,-0.07981476605448236,-0.287218254555572,-0.001829213296478493,1.4456268753758261e-07,0.10971594120407493
vOxy_max,0.0022585406903569078,0.004569558097629236,0.004125505226959892,0.003134579049858118,7.207585836606012e-08,0.0003744950950511949,0.0033904879578659777,-0.0007054749517029905,0.049864357699765764,0.0034358378617851235,0.0029756270554989763,-0.01276708261952516,8.318765331033983e-05,1.7734531058927848e-07,1.0078770155088983,-2.7755592215516907e-12,5.0273044762061084e-12,0.0041255052273092485,0.0031345790498093534,-0.00033349414910824646,-0.0001926285474450359,0.00025394600849443433,0.0,0.0,0.0,0.0,0.0,0.0,-0.0016274242656804886,-0.00016799835706084428,-1.0085466261863037e-06,0.001746703610412565,-0.013197910261706847,-0.0010105889152778734,-0.0009630426704508697,0.006269158280765663,0.0016394191144250352,0.0017954860849258198,-0.0027740719611048167,-0.002404339373256395,0.0,0.0018428073175381866,-0.0014164765806670703,0.0021460540238340594,-0.0006544612259895773,0.0016492120251339333,0.0018052789957622817,-0.0027642790503956374,-0.0023945464598152315,-0.0006447269534599577,0.00184932716965166,-0.0014104878461622336,0.0021517993345956292,0.00038476536724316927,0.0,-0.0003540307323728566,0.0004551402702549294,-5.383383414487992e-05,0.00033622320234201843,4.885465062261408e-05,1.776534112099942e-11,-0.002926700184917322
k_O2,0.2832252690706205,0.5730303402872127,0.09426893010974606,-0.12298603544050052,2.8734530916536635e-05,0.5560917942974986,0.6250503893871716,-0.050703404896958265,-0.1964964761215362,0.7620090394719065,-0.11674988456720767,-0.6759902616122724,0.0044046129730834875,0.00025863859692295713,-0.5224660428805984,-4.446445872925808e-10,-1.0054608952412216e-12,0.09426893010986986,-0.12298603543994811,-0.007620433114328137,0.007557831861995205,0.055676228842536826,0.0,0.0,0.0,0.0,0.0,0.0,-0.20408176479254356,-0.24946256682480814,-0.00018592974142604956,0.1255378666243746,0.05200794672036921,-0.224131032839545,-0.12076737011229627,-0.24597207718769556,0.20558592429456207,0.2251570172693998,-0.3478733070571505,-0.3015081418014176,0.0,0.23661430186192214,-0.21668959514648783,0.6686417916124547,-0.0820704863112745,0.2068139720094679,0.22638506498748176,-0.34664525939574636,-0.3002800941359456,-0.08084978797913571,0.23795728467407928,-0.21613625743900072,0.6687994890729934,-0.05026126387192978,0.0,-0.04458054221559675,-0.01785754848939324,-0.053878026009991344,0.1259857744633967,-0.001916928154518343,2.5808599313531907e-08,0.11486168535306547
k_ox1,0.04976431955117872,0.10068474677193846,0.012050358078992235,-0.017014756262038567,3.8244614838648966e-06,0.06561136251647852,0.048466879754904706,-0.00677099700130983,-0.03566850489986972,0.10194438171479447,-0.01615200136452326,-0.1160876564311773,0.0007564031939665907,3.45128934520772e-05,-0.07186253957423995,-3.4416934347240963e-11,-1.0054608952412216e-12,0.012050358079104189,-0.017014756262334407,-0.0009741168007759546,0.0010456038162443846,0.007448556893632985,0.0,0.0,0.0,0.0,0.0,0.0,-0.0358583470442977,-0.0294332322010268,-1.4417132847192308e-05,0.016764485939197087,0.00944060544566247,-0.02998507679291277,-0.02121952612981386,-0.03402951310872322,0.03612263686275166,0.03956139119049546,-0.06112335359942605,-0.05297672557205729,0.0,0.013585512229431407,-0.014749909630450602,0.06445422591355278,-0.014420259406198057,0.03633841195251363,0.03977716628153124,-0.06090757851526196,-0.05276095048792965,-0.014205775605682622,0.013696160360900851,-0.014732434674079111,0.0644248246966025,-0.00949393703243172,0.0,-0.007834300639438303,-0.0024705393270947184,-0.004070129010361531,0.016860818009829193,-0.00026520088299526387,3.443700342923731e-09,0.015890624408203297
k_aa,0.034733520357897577,0.07027395459678268,0.012299496013112832,-0.01575591331021373,3.714282350454851e-06,0.06888724729699253,0.04683468053560135,-0.006545767511465514,-0.023960328575858277,0.09840257501924042,-0.014956991677535222,-0.08331645560024788,0.0005428728157482486,3.341828303329292e-05,-0.0672132399335407,-3.330671065862029e-11,-3.8609698377262905e-10,0.012299496013754553,-0.01575591331051687,-0.000994256390514594,0.0009682444245632613,0.007189798300573357,4.638510637998804e-12,7.163804597565823e-12,4.607420408657351e-12,6.401771525039888e-12,4.59335100619051e-12,7.09612721640124e-12,-0.025027702138813848,-0.03090279286309625,-1.3931612663361852e-05,0.01620683444195715,0.006341729462144738,-0.02894331908267372,-0.014810387229847111,-0.03151182750217538,0.02521216552420712,0.027612279616662357,-0.04266167261657238,-0.03697564957406337,0.0,0.011966662107947076,-0.013752633382027929,0.06535839435957934,-0.010064767949602364,0.025362767963167533,0.027762882058894062,-0.042511070183870237,-0.03682504714042,-0.009915066884773381,0.012075172250839972,-0.013741949332547661,0.06531983037221273,-0.010539173496326333,6.719500153429128e-12,-0.005475359649585074,-0.002287755546717256,-0.0039017589320701463,0.01627016228178556,-0.0002455804584411726,3.3348876285576094e-09,0.014715124695374547
