,PSII,Q_ox,Hi,Ho,O2,PC_ox,Fd_ox,NADPH,NADH,ATP,CO2,succinate,fumarate,3PGA,PG,CBBa,OCP,Hi_mol,Ho_mol,pHlumen,pHcytoplasm,dpH,light_ps1,light_ps2,light_ps1_ML,light_ps2_ML,light_ps1_tot,light_ps2_tot,Q_red,PC_red,Fd_red,NADP,NAD,ADP,PSIIq,Keq_PQred,B0,B1,B2,B3,Keq_vSDH,Y0,Y1,Y2,FPS2_old,B0_tot,B1_tot,B2_tot,B3_tot,FPS2,Y0_tot,Y1_tot,Y2_tot,FPS1,FPBS,Fluo,dG0_FNR,dG_FNR,f_CBB_energy,f_CBB_gas,f_oxy_carbon,f_oxy_gas
PSIItot,0.9692095554998542,-0.026006424787593865,0.05039404454992429,0.006776191633775307,1.3143427125744237e-05,-0.024065754271886862,-0.14825746932764325,0.01502077105894556,-0.028324918938716408,0.17640983840464533,0.006467539442248929,-0.004192228506041256,8.978805877620794e-06,0.00011721967790555683,-0.12430036319214852,0.013791265132514649,8.438362267497648e-11,0.05039404454990508,0.006776191633710486,-0.003979677360936631,-0.0004135350154189649,0.011715246579714025,-0.02979472713479967,-0.9577468584329877,-0.02033741498837176,-0.9766666413013575,-0.029633088673720737,-0.958225829372323,0.1050403042438022,0.19725106581527452,0.10906323429041899,-0.02821087865248492,0.005476961096151603,-0.023091536733296815,1.1717329567188886,0.01355238328468935,1.0695048202316049,0.10484533883726936,0.13085177254995037,-0.847340311360766,0.0,0.11714395545572773,0.16431828640639384,-0.10582685784728653,0.8804589877697013,1.0712095319978416,0.10607107968496315,0.13207751316988636,-0.8465935416527377,-0.17190133305869798,0.11740677629941701,0.16476227177458827,-0.10553716071591432,0.26927753256865844,-3.0424992007673885e-12,-0.08536166932454561,0.001000367051242763,0.07076397965698243,0.0651523064837441,0.00011801818632505737,1.1704029539262015e-08,-0.006336377806018668
PSItot,0.019811719548558402,0.016733503561722773,-0.017534413916103535,-0.003108064035802132,-4.090010444661339e-06,0.043411034337438974,0.04217285646216507,-0.0031297514563359274,0.0021480058432021055,-0.05838976226063258,-0.0029665203141834824,-0.011955530329274718,2.5606089112127262e-05,-3.6430305734694514e-05,0.04029126751396395,-0.003923020176747426,-1.2579047008060447e-09,-0.01753441391640821,-0.0031080640361219017,0.0013847134119436995,0.00018967782548300605,-0.003874749284335405,-0.9702052819795657,-0.04225315144955022,-0.979662594408943,-0.023333368614197637,-0.9703669204452415,-0.04177418051151822,-0.06758684900150518,-0.35581152763644297,-0.031023786835477615,0.005878062996942373,-0.00041534256365580695,0.007643050706962949,-0.11049938482800369,-0.006216128139299008,0.004038455269110461,-0.03376685051473607,-0.05050035413869275,-0.07959828484325701,0.0,0.9440847517641177,0.8180769288785059,1.0507328907354307,-0.0002802939152434691,0.004099076453356508,-0.033227258393265686,-0.0499607620156915,-0.07857972178159954,-0.026618855915039534,0.9458800549727897,0.8151009971426828,1.048880058506566,0.11455925915755828,4.715873761189452e-11,-0.013217832735959398,-0.0004588425175142501,-0.0207908278137571,-0.020628856060189882,-5.4139003983862344e-05,-3.6374538251230775e-09,0.0029082912385398328
k_Q,0.2643682260154876,0.22329240586793273,0.031072480612412193,-0.002990321452716058,1.0430028693456158e-05,-0.01672395684603781,-0.12684212168557973,0.014907763268129592,-0.17632916231523785,0.13769710109147296,-0.0028543413243135793,-0.32664934032343973,0.0006996098860991849,9.400338792111224e-05,-0.11961629284833823,0.01179915812099684,-1.1140600602926544e-08,0.03107248061194905,-0.0029903214531929742,-0.002453830595543752,0.00018249227669698344,0.00914887141516628,1.7438432850845628e-10,3.901121983141736e-10,2.658270805753487e-10,3.9874269899846723e-10,1.7548490500052333e-10,3.907982806911575e-10,-0.9018810712838573,0.13707520966351885,0.09330937657323712,-0.027998635947967025,0.034095347781558975,-0.01802415158114434,-1.4745073627345824,-0.005980642924214322,0.012139323451998078,0.07149152028548682,-0.15180089466982033,0.02374279779412887,0.0,0.07821311482985012,0.1578789510019455,-0.07075924440476987,0.062358187887691895,0.012430715615935301,0.07178291245019705,-0.15150950229766283,0.024034190165208937,0.06591305831848464,0.0783666236144889,0.1581710816605191,-0.07054632438607583,0.22693936582926796,4.084555177030219e-10,0.03273245075011102,-0.00044146022566135925,0.058365909192320875,0.05247212378917448,-5.2140780675855414e-05,9.386207542941983e-09,0.0028126305915045294
k_FN_fwd,0.06876759433832771,0.058082931585728984,0.1230390465020991,0.2211181474476275,9.517125324110866e-06,0.002591337509002354,0.29247992053160715,0.39041972772532024,-0.7806901307555044,-0.4028885140930324,0.21105215922391832,-0.5559211470099809,0.0011906588147487524,8.817520322503579e-05,-0.3058878385251682,-0.027207183109027658,0.0,0.12303904650229651,0.22111814744758262,-0.009716539087768013,-0.013494319647612548,-0.026342902481745697,0.0,0.0,0.0,0.0,0.0,0.0,-0.23459775247720216,-0.021239479127189518,-0.21515817208349952,-0.7332568693826018,0.15095575325231853,0.052736939201632325,-0.38354958800332134,0.44223629873892467,0.0031576871058247866,0.01859640998942286,-0.03948652736601771,0.006175985106713658,0.0,-0.011626254322642483,-0.4668927597927744,0.011458859884315421,0.016220642468411796,0.003233484178641812,0.01867220706343373,-0.039410730143008055,0.006251782328841766,0.01714533716740335,-0.011648303113062143,-0.4666176830416015,0.011427608006126312,-0.4018639311237481,0.0,0.008511919183843414,0.03264360275765595,-0.28380928254654597,0.06699628146003682,0.003852663416606805,8.804392584344763e-09,-0.2071899753138721
k_SDH,2.8550950309421937e-05,2.4114617735370807e-05,0.0001327296838597978,0.0001285286391304221,-3.170531348418297e-09,-5.400853145881588e-06,-6.21024265068473e-05,2.311473772295155e-05,0.0013923340013604778,1.6606082479296054e-05,0.00012267775429737794,-0.8948785489443456,0.0019166298059199785,-3.746037464861238e-08,0.00013199706721451012,5.776907649079751e-06,-4.2191811337488246e-11,0.00013272968347497418,0.00012852863863020014,-1.0481820378840749e-05,-7.843800045737878e-06,1.1283523149049544e-06,1.038001955407478e-12,9.03037496097624e-13,1.8654531970199907e-12,2.1729847356864697e-12,1.020261075584438e-12,8.801763078629672e-13,-9.739926977024102e-05,4.426722002149802e-05,4.5684656579252825e-05,-4.34123560253489e-05,-0.00026922439488685865,-2.173688363788511e-06,-0.00015924223224104687,0.0002570572922387896,1.3109906011537294e-06,7.72084628597717e-06,-1.63937778812362e-05,2.5643998658679413e-06,0.0,2.5220055555878273e-05,8.52672222745102e-05,-2.288941410618018e-05,6.734522980125051e-06,1.342459990584711e-06,7.75231462819255e-06,-1.636230594350354e-05,2.5958681858082813e-06,7.11843885242009e-06,2.5269494844386528e-05,8.533674031714402e-05,-2.282078868909276e-05,0.00010170146059005467,1.521249600383694e-12,3.535432329587925e-06,1.8974643627518132e-05,4.107682899605544e-05,1.715867147023786e-05,2.2394580892664493e-06,-3.3310016713581298e-12,-0.00012044146648264539
k_NDH,-0.01152264621263805,-0.009732331735697743,-0.03892841253108201,-0.036763341687788643,-6.270522381578154e-07,-0.00047530653988401916,-0.02074420138079202,0.007679920510798467,-0.6179870335745814,-0.008924487614397889,-0.035089780021395296,0.10881006708246313,-0.00023304685774961574,-1.6179096871109345e-06,-0.08088027634575638,0.00192967533647121,-1.481619421386215e-10,-0.038928412530930184,-0.03676334168758869,0.003074222830628709,0.0022435801596455873,-0.0005815127737913526,3.1140058662224335e-12,6.321262472683368e-12,3.730906394039982e-12,5.432461839216174e-12,3.060783226753314e-12,6.16123415504077e-12,0.03930902055429685,0.003895773243667475,0.015260139712496179,-0.014423847134121395,0.11949516777367317,0.00116818957190551,0.06426727952445092,-0.07352668337393303,-0.0005290996388201884,-0.003116000383893547,0.006616332338329964,-0.0010348437830625511,0.0,0.0021919204606759917,0.03228100165930602,-0.002042116287568806,-0.002717918659054446,-0.0005418001383273803,-0.0031287008852520187,0.006603631813176061,-0.0010475443093360534,-0.002872859886680814,0.0021961741671654446,0.03226917996812111,-0.0020361742317675656,0.029486324437899336,6.084998401534777e-12,-0.0014264529977076035,-0.005427360652680839,0.001944745542792765,0.0009920470506090716,-0.0006405516193152003,-1.615535810608693e-10,0.03444860136657406
vNQ_max,-0.12172790823715789,-0.10281461516910995,-0.010032176770623631,-0.19091460793783813,1.2480272505550681e-05,-0.039311550419305924,0.45660557485237435,-0.22173292752801138,0.4945627137186725,0.7384422188439852,-0.18222386889182846,0.3460107332668148,-0.0007410776455188788,0.00010934107098870719,-0.15652342162465338,-0.04247454469343951,8.987837019799821e-10,-0.010032176770458116,-0.19091460793759316,0.0007922528812701406,0.011651068921823467,0.04858291161821468,-1.3494025420297213e-11,-3.070327486731922e-11,-2.0519985167219904e-11,-3.150827866745381e-11,-1.4283655058182134e-11,-3.080617077520386e-11,0.4152696322650486,0.32221077018630384,-0.3358945826761845,0.4164420512905464,-0.09562960262749669,-0.09665994695028705,0.6789344530966965,-0.38182921467556125,-0.005589531423674402,-0.03291815124081822,0.0698964711010389,-0.010932328866372673,0.0,0.18521175127167996,-0.8528520136056186,-0.164958527088043,-0.02871272319717405,-0.005723702457556891,-0.03305232227600337,0.06976229988632161,-0.011066500078965862,-0.030349557351960082,0.18557739644933835,-0.8512791149439941,-0.164453222056716,-0.4810148549057375,-3.2706866408249424e-11,-0.015073613328819636,-0.028184664030950594,-0.16836757032704996,0.12812093653225545,-0.0033264865138482127,1.0917913144821495e-08,0.17890986380017407
kRespiration,0.013497132704937378,0.011400036309924559,0.06385208852091447,0.06197148253448462,-1.6667415976938003e-06,-0.002766054984695117,-0.03346857481903947,0.012538435134475098,0.7297823870291608,0.007393532354847839,0.05915041658488945,0.7302654400129525,-0.001564065319532121,-1.964665867667978e-05,0.07500242375067148,0.0031133270267570986,0.0,0.06385208852078976,0.06197148253384321,-0.005042475084461807,-0.0037819736595904796,0.0005051088518057313,0.0,0.0,0.0,0.0,0.0,0.0,-0.04604490206420481,0.02267152268201011,0.02462062136557829,-0.023548742649936984,-0.1411121334879445,-0.0009677919640821813,-0.07527993000214024,0.12394296390013404,0.0006197646859849429,0.0036499490793583814,-0.007750088744254042,0.0012121702370679157,0.0,0.012913485837636402,0.04636610026259691,-0.01172586385401095,0.003183652968476687,0.0006346415069327589,0.0036648258997990612,-0.0077352118853618234,0.0012270470957072503,0.0033651442969173757,0.012938795869520868,0.04639975240094233,-0.011690727631063933,0.05432154953077344,0.0,0.0016713602535409152,0.009148830693830686,0.021023038992402713,0.008781235722799598,0.0010797794120511665,-1.9614048174847123e-09,-0.05807230494443125
kATPsynth,0.0004935398880578092,0.00041685725262705217,-0.005775801445988099,0.0017876079901189463,5.4453635474452165e-09,-1.7011824197694682e-05,0.00040083446658367803,-0.00017835548826725353,-0.0016031609010450129,0.0004509369441615893,0.0017062315340238027,-6.573359849891105e-05,1.4080297842847698e-07,4.738884410006069e-08,-0.002238521600638144,-3.728656795073052e-05,7.496405549265352e-10,-0.005775801445988759,0.0017876079900244004,0.00045612187760674463,-0.00010909350514117545,-0.00203144355944443,-1.1418021509482257e-11,-2.6188087386831097e-11,-1.7721805371689915e-11,-2.7162309196080875e-11,-1.2243132907013258e-11,-2.640528923588902e-11,-0.0016836921260729844,0.00013943466789143193,-0.00029486745955496833,0.00033497381837237027,0.0003099902919906671,-5.9026339486696317e-05,-0.002752706744349105,0.00357521598215718,2.2662514174202758e-05,0.00013346504995832503,-0.00028339224686172923,4.432416717222376e-05,0.0,8.051623691128909e-05,-0.000698653633726624,-7.101609606062824e-05,0.00011641428951155359,2.3206506093384154e-05,0.00013400904188126282,-0.00028284825471181006,4.486816032235434e-05,0.00012305074064535322,8.067576157056161e-05,-0.0006977343342972453,-7.079613372076722e-05,-0.0004813289603992819,-2.7382492806906497e-11,6.110219784015287e-05,0.00026390400788962567,0.0001345966054843823,5.6415344273075394e-05,3.114674309430412e-05,4.441335561810839e-12,-0.0016750793377561593
vCBB_max,-0.017061243406248133,-0.014410378010594194,-0.544129706379792,-0.1170647344506956,2.566818709097972e-05,0.010473845757480274,0.6958227372979994,-0.361982689752955,0.8231819041223722,-1.7537531717326849,-0.11173600561894159,0.6915268098630302,-0.0014810958496770579,0.00022438735351707316,1.5641549132964687,-0.06472709791206524,-9.81204914825308e-13,-0.5441297063800754,-0.11706473445102406,0.04297056674892931,0.0071441849891913985,-0.11470466948906147,0.0,0.0,0.0,0.0,0.0,0.0,0.0582037132310126,-0.08584718415666735,-0.511870859300464,0.6798485706790053,-0.15917204471350535,0.22956120901391447,0.09515867091549018,-0.23412947038914986,-0.0007834223945770277,-0.004613770271598888,0.009796610244384418,-0.0015322612559996926,0.0,-0.0478700538177433,-1.0984390284167587,0.04543302312235346,-0.004024342042275938,-0.0008022276531079439,-0.004632575529242545,0.009777804921383141,-0.0015510665788698755,-0.004253758895155592,-0.04796226858057578,-1.0978982489454328,0.04530360615802818,-0.9705974153446488,0.0,-0.00211752472912143,-0.017282230071195552,-0.22058835287936354,-0.7557477399035653,-0.0020397959870058734,2.240487240850001e-08,0.10972187649447226
vOxy_max,0.00037219140376079863,0.0003143625808126474,0.0013189127610844652,0.0016343141526320444,-1.8798141274878878e-07,-6.25950989344853e-05,0.001094911966544001,-0.0007493271929752911,0.030633482728557152,-0.0013033158379565687,0.0015599190112357427,-0.004332102982336334,9.278384232698608e-06,-1.8702095165301436e-06,1.0055368338783282,-0.00010185133704725602,0.0,0.0013189127608753536,0.0016343141531604461,-0.00010415610328075536,-9.973834417278833e-05,-8.471313480956997e-05,0.0,0.0,0.0,0.0,0.0,0.0,-0.0012697147493791452,0.0005130506129227474,-0.0008054544634786171,0.0014073297854735448,-0.005923349454948478,0.0001706002673588987,-0.0020758885190675933,0.003268628312420032,1.7090365687477025e-05,0.00010064948969862977,-0.00021371313127215995,3.3426452631329276e-05,0.0,0.00029557376725708077,-0.0019545346565544054,-0.0002619933174310755,8.779112812315182e-05,1.750060190772749e-05,0.00010105972614546984,-0.00021330289315045047,3.3836689433459526e-05,9.279585262483411e-05,0.00029615831756484387,-0.0019515982247824831,-0.00026118638675464345,-0.0012603548766187483,0.0,4.6074017002484754e-05,0.00024127328891315958,-1.4445811846747948e-06,-0.0008056777032476556,2.8476510750500426e-05,-1.8653609359605528e-10,-0.0015316304846008065
k_O2,-0.013240609528814219,-0.011183369246680584,-0.04588037675722599,-0.0729989027858596,-6.64730781409697e-06,0.004927353070129938,0.2855464033274625,-0.09078892179949379,0.19608491221875277,0.11210259881732525,-0.06967571675910406,0.12131560115236628,-0.00025983090691796267,-5.996393891537741e-05,0.048861373877145765,-0.02656221068190237,-1.9624098296506156e-12,-0.04588037675728469,-0.07299890278622037,0.0036232276717083466,0.004454951105073318,0.007283719811829333,0.0,0.0,0.0,0.0,0.0,0.0,0.0451697808420976,-0.04038625316916328,-0.21005764112960892,0.17051290148984252,-0.03791535778306657,-0.014673905389035891,0.07384917821473178,-0.14599780579580623,-0.0006079855469556087,-0.003580579006781939,0.007602791895050101,-0.0011891326059618535,0.0,-0.0225956400968398,-0.4489701133335103,0.02129785265552759,-0.003123145324604779,-0.0006225796221561573,-0.0035951730817979097,0.007588197776252,-0.001203726724463804,-0.003301187392120941,-0.022639288060839625,-0.44876478577754925,0.021236702767092257,-0.4004301680248246,0.0,-0.0016414492101044934,-0.010776805202578387,-0.11881730350656826,-0.009575272748555594,-0.0012718873091391927,-5.9869203373210115e-09,0.06839718196033208
k_ox1,0.001966815632587391,0.0016612244235070356,-0.0056681476982241175,-0.0066571048060993345,-9.901405905560523e-07,0.0023493666313269424,0.029419934198561048,-0.008347217000642079,0.016827025211268026,0.004210125230485849,-0.006354042898942348,0.008269742474900197,-1.7711923336104935e-05,-8.882368310031332e-06,0.008022888134463302,-0.002736712784429747,-1.9624098296506157e-11,-0.005668147698484426,-0.006657104805973512,0.00044762033544153753,0.00040626742844511915,0.0002656223479384975,0.0,0.0,0.0,1.0864923678432349e-12,0.0,0.0,-0.0067097080928115675,-0.019256203931303034,-0.021642303695976632,0.015677113043463385,-0.003253706131338276,-0.00055109319510027,-0.010969866443865635,-0.01331420963087729,9.031269027126938e-05,0.0005318741821165727,-0.0011293501882172605,0.0001766391232324787,0.0,-0.010966358889924224,-0.04099194880188255,0.009961239593543779,0.0004639251431017995,9.248055517747822e-05,0.000534042046485008,-0.0011271823242034345,0.00017880698773375248,0.0004903722490468891,-0.010987849805581217,-0.04101936530506158,0.009931402748006041,-0.047473278395645746,7.606248001918471e-13,0.00024325644459085617,-0.0009827863056819156,-0.012542736497009559,-0.002868260748834855,-0.00011598783057155364,-8.871567784717152e-10,0.006237064934200134
k_aa,-0.0005024021858104959,-0.00042434136571375155,-0.0021905595929545964,-0.003761693665166877,-2.852888347279087e-07,0.0009666548660514715,0.013989837976891725,-0.004582529085259007,0.009796915190391355,0.00647839249118883,-0.0035904479483136083,0.005846383697367289,-1.2521633026209436e-05,-2.5780916215043475e-06,0.0020058261031819123,-0.001301368234724343,-9.812049148253082e-13,-0.002190559592669741,-0.003761693665193748,0.00017299108543902787,0.00022956730566182993,0.0004219882894801028,0.0,0.0,0.0,0.0,0.0,0.0,0.001713920560855644,-0.007923030396222214,-0.010291400385277288,0.008606560304954122,-0.0018943504651053212,-0.0008480028071861595,0.0028021359949214385,-0.00752338730712532,-2.3069369515566957e-05,-0.00013586156700427733,0.000288479878276642,-4.5121235391002524e-05,0.0,-0.004508741690865931,-0.019922944669442076,0.004102004861314723,-0.00011850483922559259,-2.3623124096382303e-05,-0.00013641532018667698,0.0002879261220794057,-4.567499062408481e-05,-0.00012526041590737086,-0.0045175721988762315,-0.019932012098278825,0.0040897404090125935,-0.02206650741612968,0.0,-6.23199399617053e-05,-0.0005553376620838165,-0.005791374845221798,-0.00021591504715078052,-6.554161232065378e-05,-2.575974625850287e-10,0.0035246210681012503
