,PSII,Q_ox,Hi,Ho,O2,PC_ox,Fd_ox,NADPH,NADH,ATP,CO2,succinate,fumarate,3PGA,PG,CBBa,OCP,Hi_mol,Ho_mol,pHlumen,pHcytoplasm,dpH,light_ps1,light_ps2,light_ps1_ML,light_ps2_ML,light_ps1_tot,light_ps2_tot,Q_red,PC_red,Fd_red,NADP,NAD,ADP,PSIIq,Keq_PQred,B0,B1,B2,B3,Keq_vSDH,Y0,Y1,Y2,FPS2_old,B0_tot,B1_tot,B2_tot,B3_tot,FPS2,Y0_tot,Y1_tot,Y2_tot,FPS1,FPBS,Fluo,dG0_FNR,dG_FNR,f_CBB_energy,f_CBB_gas,f_oxy_carbon,f_oxy_gas
PSIItot,0.3408900177252317,-1.1347749500879842,0.026994821472720858,0.054001993644448826,-2.25674841528312e-06,-0.5915741819988205,-0.18884618070028392,0.005001604325965348,0.4763364769333354,-0.09230509773734953,0.051270621677671546,1.2607561082258583,-0.006775563874287857,-2.41998730635314e-05,0.13056880231929371,2.5703702899241948e-06,-9.738702723631683e-13,0.026994821472466447,0.05400199364492154,-0.0021857073025181744,-0.0033180225963590415,-0.006881258755230836,-0.04309476595773756,-0.8539724918077858,-0.02191994976536225,-0.9738321913952601,-0.04303800004568764,-0.8551200022212403,0.4916296232990196,0.27626175356859056,3.3383657777627846e-05,-0.013358520224761293,-0.10837719180603551,0.03018877528754632,1.3135427718620438,0.10800398686232231,0.9286214017554248,0.025267714220738497,1.160042679816638,0.18820448317969193,0.0,-0.008770346054885633,0.019165030621437665,-0.39944748989016005,0.9632551919640349,0.9285019580526135,0.024000760130160552,1.1587757255763091,0.18579001854187627,-0.01801579375957434,-0.008900592125897373,0.01917101283814053,-0.39936377302960835,0.039701928914022966,0.0,-0.009694603602897069,0.007844147541367006,0.017831909775457472,-0.014685476655740708,0.0008439038545962432,-2.414976084754903e-09,-0.050428974971037974
PSItot,0.16268176098134327,0.28008555344614533,-0.00663104042491628,-0.013329278679632866,5.695686733297595e-07,0.14607825620854592,-0.9530501312450732,-0.001189545432349534,-0.11768556788729007,0.022891748945098826,-0.01265509597662808,-0.31125940974489025,0.0016727724051749378,6.085742086395913e-06,-0.03235149457117424,1.2971887179774864e-05,3.1358622770094023e-09,-0.006631040425494455,-0.013329278679587742,0.000536899766182422,0.0008189854590512547,0.0017066692571929831,-0.9569052428568735,-0.14602751837708944,-0.9780800599403163,-0.026167819064879423,-0.9569620087718971,-0.14488000796584447,-0.12134419703325591,-0.06821770869504282,0.00016847732559276918,0.0031770939244072788,0.026776096270870617,-0.007486843974738,-0.07738873881705442,-0.026658557464603057,0.12766965765757593,-0.006169573717019949,-0.28625512655353236,-0.4031909893153091,0.0,0.9795820723751949,1.0376353483419998,0.22473866199611178,-0.06485797972825413,0.1281642829058732,-0.0045274380595982855,-0.28461299091134706,-0.40040134325567633,-0.09979366869850158,0.9797389306547684,1.0376105182800948,0.22451276591202132,0.9523939601963171,-5.210987735486753e-10,-0.05348955172479382,-0.0019361660728437196,0.0818469122951584,0.0036664675971256346,-0.00020830030468321683,6.073526061429571e-10,0.012447365174371092
k_Q,0.02915795792532211,0.05020059872665885,0.022970186785192095,0.006120085527761672,1.9914923031189264e-06,-0.9673069570843641,-0.20969868935093838,-0.0034221738573612204,-0.034937635389360566,0.05757115729451464,0.005810508038521028,-0.05931752652997497,0.00031878461883252484,1.7956100624273063e-05,-0.05879423638087973,2.8541918714318686e-06,0.0,0.022970186784722495,0.006120085527754377,-0.0018598420811194079,-0.0003760339328455924,0.004293300549799753,0.0,0.0,0.0,0.0,0.0,0.0,-0.021748895178635284,0.4517268067730821,3.706990158724783e-05,0.009140102996329254,0.007949092700139725,-0.01882889215467526,-0.013870624320115432,0.012240171005165893,0.014809916278863364,0.016994460813305703,-0.033206138622489986,-0.027991950606953746,0.0,0.009475918527485694,0.024373977051201184,-0.5671197658288302,-0.006201856671664666,0.014908624420719522,0.01709316895574321,-0.03310743047485107,-0.027893242460241212,-0.007012442854355587,0.00934173000707291,0.024381519829206496,-0.5669636424796768,0.05026826882175175,0.0,-0.0037634800551376766,0.0008889829907330447,0.01889961683812031,0.009013869848481914,9.563284470252212e-05,1.7920788049629485e-09,-0.0057128837426732824
k_FN_fwd,0.2623470849370414,0.4516771167034066,0.14569620234999558,0.12529749712269292,3.7478635522973e-05,0.22009889246770284,0.22834433994997452,0.3112247657228507,-0.9586827760691308,0.06387139162452228,0.11895950582448843,-0.9121890389323623,0.004902292413171589,0.0003401752772661946,-0.5486982862287548,-3.1079756523576642e-06,-1.9477405447263365e-12,0.14569620235014566,0.12529749712240787,-0.011796679278340813,-0.007698603264789825,0.005197462621380432,6.917862604556713e-13,7.538033312865819e-13,0.0,0.0,6.899317046599477e-13,7.465865839116598e-13,-0.19568448415263096,-0.1027849217252705,-4.036602364427108e-05,-0.8312337514929006,0.21812175244736204,-0.020889410621008343,-0.12480016145022665,0.2505949945136888,0.13325140517307035,0.1529067216889164,-0.29877040143270955,-0.25185603846078974,0.0,0.15020906815451365,-0.03219499542554232,0.28288768061381653,-0.0558008678728351,0.134139526237495,0.15379484275391575,-0.2978822803118493,-0.250967917338754,-0.0630940726787068,0.15028399459489192,-0.03215231576192128,0.2828968895420396,0.11432392130434553,8.556630107531616e-13,-0.033959112807216175,0.018200291928370305,-0.06357748184829225,0.16148680963738318,0.001957917412399855,3.394845691557754e-08,-0.11696410959220327
k_SDH,4.279731604546463e-05,7.36805905208787e-05,0.00018181299816041126,0.00015475191557424615,-2.717711835664148e-09,-9.312579344959104e-05,1.0119414037855561e-05,-2.3824725502900908e-07,0.0023426885560025625,9.239518469466234e-05,0.00014692467170394967,-0.6125164525416152,0.003291789992430523,-4.3529845320124734e-08,0.0003133403909755986,-1.3712320618016494e-10,9.738702723631685e-12,0.0001818129975193947,0.00015475191596624007,-1.4720971162266541e-05,-9.508359562851704e-06,6.894992254632253e-06,0.0,-1.5076066625731638e-12,-1.0053057479390367e-12,-1.8277130636510184e-12,0.0,-1.4931731678233196e-12,-3.1921361111648e-05,4.3489211976715305e-05,-1.7886486922387651e-09,6.363219813843646e-07,-0.0005330139919704263,-3.0218239048549138e-05,-2.0358952431006974e-05,0.00030950383824578543,2.1736826244756875e-05,2.4943242870067324e-05,-4.873734927880185e-05,-4.108409767101283e-05,0.0,2.6477541588857353e-05,-2.1248561832237325e-06,-2.8784656423043354e-05,-9.102393616885534e-06,2.1881702571682617e-05,2.5088120178139763e-05,-4.85924729507683e-05,-4.0939222879154845e-05,-1.029207908824381e-05,2.6472075308314455e-05,-2.1166815042981613e-06,-2.87621174711688e-05,2.5938745990972657e-05,-1.711326021506323e-12,-5.537403435056181e-06,2.2478742195604008e-05,5.839745819094617e-06,1.6992742832606098e-05,2.4183379417511887e-06,-4.441335328284879e-12,-0.00014450905049847993
k_NDH,-0.020034480548191715,-0.03449292152207481,-0.033695156739392544,-0.024058270545632577,-1.904107513498492e-06,-0.0003332654042053899,-0.010855617496588322,0.0022708914405842316,-0.41564705006726926,-0.032916500278356825,-0.022841390769021325,0.10078691034771571,-0.0005416496959848054,-1.3551573219775299e-05,-0.046462299032695574,1.4775446458212445e-07,0.0,-0.03369515673938848,-0.02405827054576885,0.0027282176926449755,0.001478202553399338,-0.002455418380208915,0.0,0.0,0.0,0.0,0.0,0.0,0.014943704928258448,0.00015563303328302504,1.919023709083506e-06,-0.006065203734689016,0.09456899114395612,0.010765481588566592,0.009530528641914372,-0.04811654117581926,-0.010175920231777697,-0.01167692435777283,0.022815997834316107,0.019233320751852967,0.0,-0.009092736304690026,0.0015993073125766236,-0.009379822153358001,0.004261307574699128,-0.010243742773906236,-0.011744746899934787,0.022748175285892902,0.019165498203081676,0.004818262829258152,-0.009095432768261405,0.0015966595327872508,-0.009382438857880421,-0.007490497844345106,0.0,0.0025936902322976703,-0.003494623253965956,-0.00046064761454024845,-0.0050025933443016085,-0.0003759556192065665,-1.3523866074627456e-09,0.022463530984578265
vNQ_max,0.09635260377104991,0.1658881177634797,0.10245338537936252,-0.1016107776725736,2.397479599435742e-05,0.4128029330379035,0.3857200428510576,-0.04097461081142554,-0.07069639871181042,0.6973049935503309,-0.09647163443700638,-0.25525632744198673,0.0013718002456970715,0.00021481490985068705,-0.4681081041957063,-5.250003718471143e-06,-9.738702723631685e-13,0.10245338537882283,-0.10161077767255772,-0.008295409954452816,0.006243229767587197,0.05199427370399739,0.0,0.0,0.0,0.0,0.0,0.0,-0.07186932778147485,-0.1927766045747695,-6.818642461184784e-05,0.10943691894710325,0.016085010353875072,-0.22805656754525946,-0.04583554076814469,-0.20322155567608083,0.04893943787210034,0.05615827519164601,-0.10972984097001402,-0.09249953320710502,0.0,0.24583247580321124,-0.054105616972968215,0.49432678950936676,-0.020494065179619613,0.04926561940344001,0.05648445672082911,-0.10940365945473904,-0.09217335169124652,-0.02317265160932599,0.24596254597095935,-0.054036027309829565,0.4943335243107067,0.1847950957694148,0.0,-0.012431053357537592,-0.014759638913942386,-0.031176681344529493,0.10940487171747246,-0.001587963911616253,2.1437770462715077e-08,0.09490764500229705
kRespiration,0.012795960881522864,0.02203051393879152,0.054718008757645,0.046609445944971704,-8.348215798890508e-07,-0.028158069727625145,0.0029742458797901244,-5.2645987102442247e-05,0.710247031855964,0.02768511038096876,0.04425197164868554,0.4821549341574937,-0.002591200258960002,-1.3291621291564423e-05,0.09554081527480639,-4.048201811926791e-08,0.0,0.05471800875784003,0.046609445945007225,-0.004430388635499073,-0.0028638052679998997,0.0020660111279488143,0.0,0.0,0.0,0.0,0.0,0.0,-0.009544494499567787,0.013149657231137372,-5.257781297843907e-07,0.00014060938003622667,-0.16159706956934494,-0.00905453324373609,-0.0060871192229126955,0.09321889207994437,0.00649932641146268,0.00745801311462137,-0.014572501946359359,-0.012284257154380107,0.0,0.007933768472062102,-0.0006298670277887206,-0.008776340371974766,-0.002721682366676575,0.006542644443132045,0.007501331146282826,-0.014529183902564437,-0.012240939110439024,-0.0030774074113267174,0.007932093510999539,-0.0006274161038640038,-0.008769547366510984,0.007784133645352757,0.0,-0.0016557161277982275,0.006770330941323354,0.001762186907249767,0.00510068491585972,0.0007283748887213724,-1.3268489293251077e-09,-0.04352443140464361
kATPsynth,0.002018443168353875,0.003475108962716755,-0.008915554010379217,0.003309350982241486,1.3389939898611199e-07,-0.0006981196421010777,0.0010850626700946706,-0.0002307810574047875,-0.004884788478195224,0.0036672220675114066,0.0031419632250873587,-0.003709084234145963,1.9933385334752917e-05,1.2044877889714956e-06,-0.007069945676782584,-1.476840987263215e-08,0.0,-0.008915554010089935,0.003309350982283815,0.0007218714672454225,-0.0002033351095193137,-0.003114829413876395,0.0,0.0,0.0,0.0,0.0,0.0,-0.0015055553613096354,0.0003260178729846378,-1.918145128797329e-07,0.0006163809093872353,0.0011113985249258476,-0.0011993805930235785,-0.0009601861351272503,0.006618701954245641,0.001025208372388617,0.0011764322350716957,-0.0022986768242133624,-0.0019377276050900295,0.0,0.0010497729536451381,-0.00016482030614456978,0.0006437748466248265,-0.00042932021487602953,0.0010320413905969266,0.0011832652529528145,-0.0022918438023888745,-0.0019308945856241807,-0.0004854325043072698,0.0010499799751576937,-0.00016451097428325174,0.0006441937137828656,0.0008971133030981438,0.0,-0.00026126920861769816,0.0004807051654817359,8.566559817156557e-05,0.0005680225414785344,5.171522853440665e-05,1.1991605386369172e-10,-0.003090114099942309
vCBB_max,0.8666435945735961,1.4920809150235383,-0.32107867381983185,-0.128137368410132,0.00015978667617509213,1.292951416467019,0.9283912963206822,-0.27531705116928273,0.1633067663221604,-0.6911955763406309,-0.1216582155116092,-1.1656976823959455,0.006264700240444777,0.0014225328695530262,0.863100095445907,-1.2636257083033927e-05,6.622317852069545e-11,-0.3210786738201371,-0.12813736841013332,0.025996985959474937,0.007873092301330676,-0.04916023893911328,-6.917862604556713e-13,-8.2918366441524e-12,-6.031834487634222e-12,-1.035704069402244e-11,-6.899317046599478e-13,-8.212452423028256e-12,-0.6464287726181537,-0.6038009035253349,-0.0001641182115319322,0.7353297375350967,-0.03715593827880902,0.2260584566304795,-0.4122678189793699,-0.2562747377649846,0.4401858511006463,0.5051156910944764,-0.9869652276363582,-0.8319872070881029,0.0,0.5340178981980596,-0.12819565670623956,1.3100397585706212,-0.18433390838552974,0.44311969131885715,0.5080495313155095,-0.9840313873282691,-0.8290533667767206,-0.20842645509544067,0.5343565444635467,-0.12804644688078964,1.3099915771061792,0.38404038583836575,-1.026795612903794e-11,-0.11217949930175503,-0.01861280200087929,-0.042039096070019794,-0.260371026636608,-0.00200294449265117,1.4196395276712994e-07,0.11981505688303504
vOxy_max,0.0028080762543327025,0.004834608511563286,0.003772076329579622,0.002911735071762211,3.894104722491265e-08,0.000944239408261688,0.0022659325399013645,-0.0006144727771375752,0.051017882135519395,0.002901697626124903,0.0027644604089510118,-0.012291337320660338,6.605619943093922e-05,-7.067678314602656e-08,1.0068432988775051,-3.0841294456688764e-08,9.738702723631685e-13,0.003772076329371446,0.0029117350716030177,-0.00030541615854743037,-0.0001789045550226488,0.0002192095768347868,0.0,0.0,0.0,0.0,0.0,0.0,-0.0020945446148569196,-0.00044095439312005465,-4.0056469494417737e-07,0.0016411628121689224,-0.011607708133559606,-0.000949012564558182,-0.0013358195689095246,0.0058234701514419465,0.0014262808354058678,0.001636664829966543,-0.003197943742179853,-0.0026957879531007466,0.0,0.0017294450628507305,-0.000327894149384008,0.0023091942517032863,-0.0005972753104174942,0.0014357870012652921,0.0016461709970027323,-0.0031884375743365693,-0.002686281784559785,-0.0006753394693521273,0.0017300826329525502,-0.00032739489444429354,0.0023095523031158678,0.0013860437482646935,0.0,-0.0003634410624196003,0.00042294881454517033,2.7377757205248704e-05,0.00024177437339883864,4.550195288606185e-05,-7.2171699084629284e-12,-0.0027189194910596094
k_O2,0.3730735462739901,0.6423124035532809,0.08894381990444133,-0.12147427189842913,2.433481748086773e-05,0.6232977021647594,0.41734443867894055,-0.04207200488697845,-0.27107109231139936,0.7190247910527652,-0.11533044548951916,-0.7827473218401895,0.0042066458720908285,0.00021972535121944666,-0.5122781055162959,-5.680441281099103e-06,0.0,0.08894381990487103,-0.12147427189832204,-0.0072015721717916285,0.007463694378798993,0.053613215043934,0.0,0.0,0.0,0.0,0.0,0.0,-0.2782752694484014,-0.2910764557272086,-7.377689024454935e-05,0.11236789069085018,0.06167473033751766,-0.23516011981003496,-0.1774734368354698,-0.24294854435832872,0.1894916213208405,0.21744267955819938,-0.42486972423440234,-0.3581546406004884,0.0,0.2319544350918282,-0.057342973042914205,0.6058063241975574,-0.07935223606802091,0.19075458363977552,0.2187056418778617,-0.4236067619052369,-0.35689167827282614,-0.0897236191666381,0.23211026315928968,-0.05727846768342654,0.6057756160785438,0.1641033691617622,0.0,-0.04829148909353692,-0.017644943099054098,-0.03458842129919234,0.11289866192105967,-0.0018983745995290277,2.1927427682658483e-08,0.11345640524658743
k_ox1,0.06289441858000444,0.10828392412031203,0.010535972149260778,-0.016076702654547647,3.0563852757710733e-06,0.07392997536883099,0.030955386334400377,-0.005310653550945121,-0.045873035938250914,0.09093912425508725,-0.01526358639121346,-0.12878692591168547,0.000692127548569299,2.7694780051252232e-05,-0.06676668190098568,-4.2133089776839864e-07,1.752966490253703e-11,0.010535972149368328,-0.01607670265507153,-0.0008530729216782721,0.0009877943202876633,0.006780743294778385,-6.917862604556712e-13,-2.2614099938597456e-12,-3.0159172438171104e-12,-2.436950751534691e-12,-6.899317046599477e-13,-2.239759751734979e-12,-0.04691290094143929,-0.03452487491492379,-5.4721999589016004e-06,0.014183943439649904,0.010437140667036451,-0.029742027843090577,-0.029919271239914218,-0.03215340524013532,0.03194535308482843,0.03665746834514677,-0.07162645641509047,-0.06037932711504476,0.0,0.011868186718519955,-0.0040653109608043605,0.05605904650369607,-0.013377558766542598,0.03215826897418533,0.036870384234523226,-0.07141354052177262,-0.060166411222621174,-0.015126013431932888,0.011882111514894,-0.004062218286079218,0.056050811203329845,0.006551814669545907,-3.4226520430126464e-12,-0.00814728283192585,-0.002335247626158711,-0.0025235422641521634,0.014283946900962874,-0.00025124282210808467,2.7641760749413015e-09,0.015015400031267598
k_aa,0.045049960532645,0.07756151473510807,0.01153109304953089,-0.015311599946229033,3.1082173425476963e-06,0.07592359119064164,0.03002316716358113,-0.005367649347723738,-0.03276743754411424,0.09172470035529538,-0.014537182857719691,-0.09502591245203053,0.0005106888653414295,2.8048955965419248e-05,-0.06510978423448197,-4.086421898561657e-07,0.0,0.011531093049432995,-0.015311599946183647,-0.0009336455181775639,0.0009407844207560531,0.0068393504579809875,0.0,0.0,0.0,0.0,0.0,0.0,-0.033602731774527314,-0.035455882081805654,-5.30740472253887e-06,0.014336170496084759,0.007455324199501785,-0.02999895385130394,-0.0214305501022782,-0.030623199938073137,0.02288178944011979,0.026256979353983786,-0.05130453527517749,-0.04324845112608997,0.0,0.01069775039933085,-0.003914249659269673,0.0560657824423019,-0.009582065847530522,0.02303429664996231,0.026409486561962837,-0.05115202806737563,-0.04309594391830557,-0.010834447343016966,0.010711616430126351,-0.003911507879681513,0.05605688748062293,0.005498255995328423,0.0,-0.005835496334826157,-0.002224111374924919,-0.0024010789365720327,0.014401991139871742,-0.0002392866254132092,2.799151590651545e-09,0.014301004402104444
