,PSII,Q_ox,Hi,Ho,O2,PC_ox,Fd_ox,NADPH,NADH,ATP,CO2,succinate,fumarate,3PGA,PG,CBBa,OCP,Hi_mol,Ho_mol,pHlumen,pHcytoplasm,dpH,light_ps1,light_ps2,light_ps1_ML,light_ps2_ML,light_ps1_tot,light_ps2_tot,Q_red,PC_red,Fd_red,NADP,NAD,ADP,PSIIq,Keq_PQred,B0,B1,B2,B3,Keq_vSDH,Y0,Y1,Y2,FPS2_old,B0_tot,B1_tot,B2_tot,B3_tot,FPS2,Y0_tot,Y1_tot,Y2_tot,FPS1,FPBS,Fluo,dG0_FNR,dG_FNR,f_CBB_energy,f_CBB_gas,f_oxy_carbon,f_oxy_gas
PSIItot,0.25221225494435445,-1.536948386855264,0.026374207937366716,0.07400121432723156,-4.477340583029694e-06,-0.6844210291417109,-0.20308813739539644,0.009155916655244914,0.5899343264283257,-0.1636035852251171,0.07023194396076728,1.6722340817383603,-0.010660298658874504,-4.537670789454841e-05,0.20403757261846878,2.4960889184267686e-06,-1.6950968767114325e-09,0.026374207936914165,0.0740012143271354,-0.002136003621247826,-0.004548893611820439,-0.0121481838403798,-0.05453245235415017,-0.6058812641712104,-0.02006038362097765,-0.9771402812058538,-0.05447746177268953,-0.6096056316794057,0.537257875249227,0.2871084763883359,3.241942048400309e-05,-0.024526503193880347,-0.14492671416702138,0.05248819079368589,1.3158000872256492,0.14800243055662007,0.6823811463071406,0.025199346945555208,1.5621476938546413,0.8348096108557436,0.0,-0.025625538426769536,0.017396794840641657,-0.41203743021182615,1.0943620071515676,0.6816853450135345,0.020779178138523344,1.5577275250743152,0.8266650746029764,0.11248685178293052,-0.025707324155247444,0.017397034290583542,-0.4120032764213565,0.019905431602113503,2.5323232877657436e-11,0.06170369140886637,0.010737631458710008,0.019090540618269206,-0.026250926278365207,0.0011480524588350339,-4.528496535876132e-09,-0.06908836717033676
PSItot,0.30736763337869094,0.6317410095612442,-0.010762721114364708,-0.03037977517757111,1.853296812314968e-06,0.2813551170882749,-0.9318322107603471,-0.003724793786377505,-0.24262526191935435,0.0673851891437367,-0.028832373951746877,-0.6874155612479669,0.004382194638865058,1.876761979642921e-05,-0.08405622832849992,1.1452841634185748e-05,-2.3340404498608364e-12,-0.010762721113895864,-0.030379775177237573,0.0008716550505353439,0.001867460795542136,0.005003706914155085,-0.945467556102883,-0.3941187451267477,-0.9799396257955355,-0.022859728728251063,-0.9455225466861942,-0.3903943776253609,-0.22083229040667526,-0.11802594536288774,0.00014875049208528646,0.009977828560267715,0.0596047397292607,-0.02161888237115329,-0.12980518345389294,-0.06075955050227799,0.36274993671635986,-0.010282442435843324,-0.6420234496430246,-0.9862190768574299,0.0,0.9889420464298816,1.0298042977250612,0.23755223474859635,-0.17462165145611017,0.3637368966537864,-0.005571115013888278,-0.6373121222703347,-0.9777833819201098,-0.20255289086801154,0.9890342397627786,1.0297981938614642,0.23746617048554866,0.9658561652446845,0.0,-0.11102285771360382,-0.004408128106449798,0.07897185636531082,0.01083453582372677,-0.0004713109137323306,1.873133175437792e-09,0.02836291618092452
k_Q,0.0207047753328918,0.04255508468114964,0.02166283853035752,0.005653108221965535,1.92279884071926e-06,-0.9745348973738329,-0.15892697172804646,-0.003300563369532059,-0.028631414688886025,0.05498058746520193,0.005365136730969008,-0.049274097742627324,0.0003141166710543939,1.7312080377852963e-05,-0.05527295878658871,1.953318696836844e-06,1.1670202249304182e-12,0.02166283853008663,0.005653108222148074,-0.001754437588725441,-0.0003474995400340749,0.004083589571936329,0.0,0.0,0.0,0.0,0.0,0.0,-0.014875616235640333,0.40880863921200844,2.5369873617446705e-05,0.008841417093728135,0.0070337606527746035,-0.01763917068719231,-0.008743884745244597,0.011306216540177515,0.014850707096418407,0.016271118308352286,-0.026283966240665313,-0.0229210649916569,0.0,0.00900005861176526,0.017247162523748576,-0.4677239851600802,-0.006155733775376956,0.01494651434315476,0.016366925555304897,-0.026188158991351223,-0.02282525774150586,-0.006225573123769876,0.008957388834380256,0.017247328695543466,-0.4676663508044025,0.018988088706888884,0.0,-0.0034132639770724288,0.0008202702263091263,0.014351243876855218,0.008714388464272515,8.769474176923446e-05,1.7276794433794927e-09,-0.005275519100260289
k_FN_fwd,0.1967693905945098,0.4044254527698227,0.14579122390675667,0.12391307511452221,3.746614462947451e-05,0.1680179625705393,0.1970924944065245,0.31013780152243725,-0.9106357719219736,0.06934073765395696,0.11760095076846316,-0.8323479014794775,0.005306121502517474,0.0003401420042526284,-0.5567671789048279,-2.4223991249665392e-06,0.0,0.14579122390663501,0.12391307511449964,-0.011807391009780663,-0.007617002042242564,0.005580442540516138,0.0,0.0,0.0,0.0,0.0,0.0,-0.1413715394154502,-0.07048202668508753,-3.1462322763722384e-05,-0.8307847336318523,0.22371210542410022,-0.022246272065173857,-0.08309816672422089,0.24782615125943167,0.14113481535953634,0.15463380015195868,-0.24979165626051336,-0.2178320709301362,0.0,0.1506198339180855,-0.018828915086205423,0.23440338649781414,-0.05850148075994973,0.14204532674570425,0.15554431153885098,-0.2488811448320473,-0.2169215595005156,-0.05916520478096545,0.15064171616172634,-0.018814417482962482,0.23440809645486896,0.133057613522041,0.0,-0.032442271130862434,0.017979879886805963,-0.06033158343477198,0.16206709905960232,0.001922236537509671,3.394512592737651e-08,-0.11564124719647312
k_SDH,8.097416520266065e-05,0.00016643032385442902,0.00032560717216614777,0.00026351458843653665,1.2117191111654462e-09,-0.00013969198349820375,4.2995370558237406e-05,-7.224917948320004e-06,0.0025457977936478656,0.00021313191580371843,0.00025009219867447335,-0.5949328451781447,0.003792627995157565,-1.2516007226944571e-08,0.00020996418029551169,-5.286453471605584e-10,-8.869353709471178e-11,0.0003256071721374416,0.00026351458874989244,-2.6370388003818565e-05,-1.619838120781842e-05,1.58379039737281e-05,0.0,0.0,0.0,1.0644378510578994e-12,0.0,0.0,-5.8177621465520364e-05,5.859953279941463e-05,-6.86367506367611e-09,1.935382111997327e-05,-0.0006254155637056785,-6.837813859543854e-05,-3.419639968832656e-05,0.0005270291890431753,5.808023233628013e-05,6.363530835391773e-05,-0.00010279502289540364,-8.96430741489752e-05,0.0,6.027502225473456e-05,-3.6736301402689363e-06,-7.44242899730085e-06,-2.4074824464546225e-05,5.8454926493200844e-05,6.4010002846681e-05,-0.00010242032915447375,-8.92683802837415e-05,-2.4348170875976358e-05,6.027454710698701e-05,-3.667976422982499e-06,-7.428478293608145e-06,5.5558470364871285e-05,7.448009669899245e-13,-1.3350851122278981e-05,3.823616483652385e-05,8.724847419267438e-06,3.645849421229009e-05,4.088101234940657e-06,-1.1103338325061008e-12,-0.0002460028876679316
k_NDH,-0.014907937372424301,-0.030640687986123485,-0.032905053862181656,-0.02328637617234338,-1.9052276313649157e-06,0.0031600445923504732,-0.009527261960320206,0.0022858640725418595,-0.38225050028101565,-0.03302326512569109,-0.022100239866902707,0.0931935584608248,-0.0005940981366029123,-1.360032201867709e-05,-0.04651960864387917,1.170964479380067e-07,5.835101124652091e-13,-0.032905053862116555,-0.023286376172614,0.002664926086528338,0.001431425813092089,-0.002453428702229129,0.0,0.0,0.0,0.0,0.0,0.0,0.01071080269473581,-0.001325610332567169,1.5208581462741017e-06,-0.006123281216617254,0.09390589174540898,0.0105947032765548,0.006295807805804221,-0.04657275266356296,-0.01069286770185241,-0.01171559801458334,0.01892509035918636,0.016503720387904815,0.0,-0.009034891218323456,0.0008824147722010502,-0.007583294122660115,0.004432277055912868,-0.010761851232448475,-0.011784581546070486,0.01885610682199925,0.016434736850991307,0.00448256291831067,-0.009035612489843397,0.0008815545498127988,-0.007584347800500558,-0.008129846785324753,0.0,0.0024581070500350644,-0.0033788705910203333,-0.0005402755683996739,-0.0050883151553312795,-0.000361253327289973,-1.3573831102387083e-09,0.021737081027360772
vNQ_max,0.07165075085348066,0.1472657247094481,0.10079637881305031,-0.09689580690612,2.3585255319760477e-05,0.38165873682105345,0.3332888928403786,-0.0402740182383419,-0.05423636829441672,0.6789940320369141,-0.09196060681550262,-0.22432078722483373,0.0014300190322292345,0.00021126726262119276,-0.4537130090181245,-4.09634349054007e-06,4.084570787256464e-12,0.1007963788135479,-0.0968958069061996,-0.008163332632361946,0.005956236316389427,0.050425193775263465,0.0,0.0,0.0,0.0,0.0,0.0,-0.051478417252032026,-0.16010241322724936,-5.3203662727730216e-05,0.10788442863197574,0.01332402318937781,-0.21783855318571124,-0.030259005338091213,-0.19379161479588577,0.05139221624830396,0.056307677920126704,-0.09095804450392145,-0.07932042000827341,0.0,0.2395377615308631,-0.03208018745493882,0.4287814355935113,-0.021302473763472888,0.05172376590821987,0.056639227581522254,-0.09062649486085039,-0.07898887036498863,-0.02154415962378915,0.23957767402520194,-0.03205704985399596,0.4287822590582657,0.2103247003491325,0.0,-0.011799524850504527,-0.014059654039156802,-0.02630941560911133,0.10785419980863697,-0.00150329610090938,2.108412914545835e-08,0.090480895060806
kRespiration,0.01131929229636289,0.023264846715106466,0.05726701022573666,0.048042991438820015,-5.78820909130717e-07,-0.02994995828334328,0.004769923250297945,-0.0003563052387141824,0.6987859204025263,0.03165768118478264,0.045595884426773474,0.4604795536164189,-0.0029355038391727937,-1.1350229743325805e-05,0.10127522211170041,-5.862550602487381e-08,0.0,0.05726701022552884,0.04804299143896336,-0.004637960827261277,-0.0029532280191364745,0.002352763392215813,0.0,0.0,0.0,0.0,0.0,0.0,-0.008132493075696133,0.012563738582668507,-7.614338973851513e-07,0.0009544562171515239,-0.17166783286359744,-0.010156589220595777,-0.004780278251409022,0.09608598287058599,0.00811887569671247,0.00889541392696104,-0.014369433947394601,-0.012530937178970379,0.0,0.008933964507793985,-0.0003719964600212154,-0.005626396697163262,-0.003365337235645444,0.00817125347663882,0.008947791706187723,-0.014317056154787516,-0.01247855938646946,-0.0034035182279328713,0.00893347956828262,-0.0003711649230281248,-0.005623792148247171,0.008339737829670957,0.0,-0.0018662047785596933,0.006971074021564729,0.0017019887287917244,0.005759958611374968,0.0007453299125204469,-1.132540509156223e-09,-0.04485113333430934
kATPsynth,0.0015294967466229653,0.0031436158479865974,-0.008824935369827883,0.003258399710852512,1.376609078467373e-07,-0.001039863532589978,0.0010023600277146623,-0.0002367281623244499,-0.004512153171649822,0.0037397484832032966,0.0030924277946166204,-0.003239894390643257,2.0653956293767122e-05,1.2361895980712432e-06,-0.007066383603798217,-1.231942126420578e-08,0.0,-0.008824935369987411,0.00325839971124897,0.0007147169737285808,-0.00020029554808869007,-0.0030820869862492406,0.0,0.0,0.0,0.0,0.0,0.0,-0.001098886849308077,0.00043621341560928784,-1.6000876893069674e-07,0.0006341379293799106,0.001108481916618479,-0.0011998064196776848,-0.0006459255439667065,0.006516799470546784,0.0010970467956844543,0.0012019749717018268,-0.0019416409422995766,-0.0016932177427131784,0.0,0.0010605418239300064,-9.109814736802988e-05,0.0005628574150466635,-0.0004547344352780019,0.001104124237784188,0.0012090524149904653,-0.0019345634993257945,-0.0016861403006444937,-0.0004598936313726624,0.0010605966108027031,-9.09976480900887e-05,0.0005630200655413364,0.0009617990935295751,0.0,-0.0002521813468695723,0.0004727962359746022,9.08111485770863e-05,0.0005868711799259966,5.054961082857312e-05,1.232470554081772e-10,-0.0030417404917694544
vCBB_max,0.653733708126078,1.3436365746530854,-0.3041716972411225,-0.11780186703396736,0.0001601763703426746,1.111480437449836,0.7927786298649088,-0.27542837431116,0.25467566218543447,-0.6719548067780402,-0.11180348847652899,-0.9932263333452469,0.006331702888553775,0.0014251445205418077,0.8617883926118176,-9.743780542991394e-06,0.0,-0.3041716972404226,-0.11780186703432761,0.024634364759199084,0.007241342895951316,-0.0475372096310668,0.0,0.0,0.0,0.0,0.0,0.0,-0.46968352182818557,-0.4662560636563076,-0.00012655305328836372,0.7378065087954035,-0.06256511147985656,0.21558019070463671,-0.27607989488244444,-0.23560373388501937,0.4688970436662434,0.5137451846959602,-0.8298913974852548,-0.7237109686253984,0.0,0.5381148070865998,-0.0768086688470261,1.0875683382165566,-0.19436147777293622,0.47192206692840993,0.5167702079605793,-0.8268663741417521,-0.7206859452844734,-0.19656659245076535,0.5382158188610758,-0.0767565101999114,1.0875553867090422,0.46963998990013567,0.0,-0.10778171023661089,-0.017093139105452626,-0.0295137935107217,-0.25828589387824946,-0.001828073196699181,1.4222488127337148e-07,0.11013559182034426
vOxy_max,0.0022022344095639027,0.004526316754288585,0.003912778510901905,0.0029799201418684446,5.6257746182887163e-08,0.00042622207863504333,0.0020652776178150933,-0.0006297044532586504,0.050731360416163496,0.003166120838370194,0.002828134535566666,-0.012137906200524193,7.737776760138996e-05,5.5312457485651644e-08,1.0074351810161406,-2.5383396498587637e-08,0.0,0.003912778510360375,0.0029799201420713556,-0.00031688948716548866,-0.00018317726203893287,0.00023794347277004442,0.0,0.0,0.0,0.0,0.0,0.0,-0.0015822257554425929,-0.00017879633423653735,-3.296848423632411e-07,0.0016868270939536898,-0.012462962470728976,-0.0010157720833310357,-0.000930031046123011,0.005959840266150475,0.0015795764228595409,0.0017306564694327309,-0.0027956603774012064,-0.0024379700948758683,0.0,0.0017857708627317616,-0.00019401996468264838,0.002012998381292196,-0.000654747034429412,0.0015897668378059811,0.00174084688426596,-0.0027854699631060563,-0.0024277796807237123,-0.0006621755156719441,0.0017859603634320076,-0.0001938491920595326,0.002013145436665021,0.001595107553275216,0.0,-0.0003630840281977238,0.0004323886426815652,4.981415906393864e-05,0.00029050493554335765,4.622961982670455e-05,5.551669162530504e-12,-0.00278184866568016
k_O2,0.2857760977413533,0.5873633486301706,0.096096464523165,-0.1196791737170039,2.5401824861703897e-05,0.5547567844359864,0.36123915329138245,-0.04380284090775518,-0.22351790116912063,0.741109983511414,-0.11358350251623453,-0.7045720671721077,0.004491565342879571,0.00022903629952381272,-0.5226744109885382,-4.439871550844297e-06,4.2829642254946343e-10,0.09609646452377511,-0.11967917371664523,-0.007782694366042013,0.007356741914245064,0.05503772639351673,-7.526310321210875e-13,-4.1419587965643e-12,-4.600106111892546e-12,-6.386627106347397e-12,-7.514304189966711e-13,-4.10040781449383e-12,-0.20531957181026986,-0.23271548997471617,-5.766542690046704e-05,0.11733729760522299,0.05491071382424096,-0.23776693010808475,-0.12068680877752923,-0.2393583477031642,0.20497576613633947,0.22458088449362962,-0.36278246431144745,-0.316366273403587,0.0,0.2376893822692632,-0.035117623570874563,0.5116067337765028,-0.0849640521222112,0.2062981384439287,0.22590325680226486,-0.361460091999624,-0.3150439010926368,-0.08592800651391513,0.23773684995341388,-0.035094539328223665,0.5115972960936988,0.20672824729766856,-6.703208702909321e-12,-0.047116060524316744,-0.017365537679549868,-0.029118581439501592,0.11779571757249238,-0.0018567579665679614,2.2857332275970594e-08,0.11175214615621229
k_ox1,0.05108365029672275,0.10499360796900743,0.012433707117006532,-0.016666246970308565,3.4061013897278073e-06,0.065615987561907,0.02601396056272774,-0.005898198228516702,-0.04034587769505338,0.09994786024843301,-0.015817376267606854,-0.12276099880076148,0.0007825871558029437,3.080241970630744e-05,-0.07250875483419011,-3.1972879559679076e-07,4.0845707872564634e-12,0.012433707117056181,-0.016666246970412135,-0.001006985458126673,0.001024482990431945,0.007422502954489471,0.0,0.0,0.0,0.0,0.0,0.0,-0.036701715695183976,-0.027525317623894957,-4.152667885950502e-06,0.01579985741864365,0.009911604092657988,-0.032065815372263703,-0.02157326236859314,-0.03333249395372836,0.0366402590156002,0.04014475438166236,-0.06484885364385101,-0.05655176902783594,0.0,0.013126245467597645,-0.0025920767057900952,0.04536804137133767,-0.015187672775902581,0.03687663848890117,0.04038113385406004,-0.064612474168251,-0.05631538955372652,-0.015359983685331438,0.013130429259915968,-0.002590777019859224,0.04536548254698845,0.011024297050132062,0.0,-0.00842440959528124,-0.0024182849124676073,-0.0020094498792277253,0.015890613136907657,-0.0002585674259453354,3.07395921529314e-09,0.015562214937888074
k_aa,0.035680935116892125,0.07333598852792318,0.012841318999707049,-0.015590627001862367,3.3506373516187955e-06,0.06992942724011708,0.02496721241647003,-0.005772349166189706,-0.027930901265189347,0.09765316786515575,-0.014796543326755304,-0.08846042227837417,0.0005639249342170643,3.019662135533115e-05,-0.06866359186712072,-3.0686388931566277e-07,-1.7505303373956274e-12,0.012841318999853161,-0.015590627001684745,-0.0010399972573384019,0.0009583640508850882,0.007252114541809868,0.0,0.0,0.0,0.0,0.0,0.0,-0.02563543298776168,-0.029334766838529047,-3.985572559281128e-06,0.015462737985895017,0.006861668430860816,-0.0313296196993299,-0.015068503725256316,-0.031181254349582497,0.025592506253037463,0.028040328053039288,-0.045295659389794046,-0.03950030740464845,0.0,0.011516932330201195,-0.0025048851208732733,0.045852358112900934,-0.010608293011655839,0.02575761270784295,0.028205434508085544,-0.04513055294002736,-0.039335200954812,-0.01072864876707517,0.011521155167736209,-0.002503735992200162,0.04584939312557357,0.009534150722385056,0.0,-0.005884128604161706,-0.002262211618898562,-0.0018937471263148495,0.015521183153935875,-0.00024188031705179108,3.0134460214215577e-09,0.014558013314976553
