,PSII,Q_ox,Hi,Ho,O2,PC_ox,Fd_ox,NADPH,NADH,ATP,CO2,succinate,fumarate,3PGA,PG,CBBa,OCP,Hi_mol,Ho_mol,pHlumen,pHcytoplasm,dpH,light_ps1,light_ps2,light_ps1_ML,light_ps2_ML,light_ps1_tot,light_ps2_tot,Q_red,PC_red,Fd_red,NADP,NAD,ADP,PSIIq,Keq_PQred,B0,B1,B2,B3,Keq_vSDH,Y0,Y1,Y2,FPS2_old,B0_tot,B1_tot,B2_tot,B3_tot,FPS2,Y0_tot,Y1_tot,Y2_tot,FPS1,FPBS,Fluo,dG0_FNR,dG_FNR,f_CBB_energy,f_CBB_gas,f_oxy_carbon,f_oxy_gas
PSIItot,0.724071683482605,-1.0168678707508418,-0.0019975766836120915,0.04901854448179263,-5.8895050207071185e-06,-0.30298153028001396,-0.13376535405945086,0.010874396271540453,0.2704653333139607,-0.1796464198714044,0.046461097702419275,1.0534612968009367,-0.011746760883841644,-5.56651217856628e-05,0.174977440986578,1.7670868050824128e-06,-4.273014128794443e-10,-0.0019975766840299642,0.04901854448216814,0.00016182943578606026,-0.0030178941450893573,-0.013084694828995855,-0.029931073859614347,-0.9567288117800551,-0.02134220533191861,-0.9748932067728947,-0.029897764440927902,-0.9568284392967109,0.18436469129862929,0.09810912271487374,2.2950829706583185e-05,-0.029606500414343907,-0.08247380012602577,0.052252619465342334,1.0895102396873955,0.09803708827031217,0.9726456656683736,0.0004865620161901916,1.017354437166358,0.024676970141964474,0.0,-0.043346647067361195,0.016550628743809432,-0.2098717892802348,0.9762284448888598,0.9726483951683175,0.00038966400709310715,1.0172575391094032,0.02448044457764435,-0.004266167925739202,-0.04344974595850251,0.01653475647015137,-0.2098205984139615,-0.011519325686236906,5.084115821795683e-11,-0.0025042566243260213,0.007086585178037127,0.011872571313155722,-0.030544914094230987,0.000741750566592212,-5.555555343269535e-09,-0.04572523725936441
PSItot,0.007409364386220742,0.02730544207721772,0.00014845208511454915,-0.0012680664070116013,1.7247739185160492e-07,0.008167811061157711,-0.9923406487835487,-0.0002534289615014458,-0.00740934448859803,0.004986667893616825,-0.0012019077705745238,-0.02834735909387704,0.0003160910095263125,1.6233374317254608e-06,-0.004925494929256634,1.3109169323613605e-05,-4.022436139760201e-11,0.00014845208577647062,-0.0012680664073782073,-1.2026530513793082e-05,7.807025337426087e-05,0.00036331088596167993,-0.9700689352500125,-0.04327119809300145,-0.9786578040301825,-0.025106803129055045,-0.9701022446698871,-0.043171570576177196,-0.004950652433844323,-0.002644837052715818,0.00017026113795874122,0.0006899826405384816,0.002259353495672102,-0.0014504405932131222,-0.002403573473217026,-0.002536132812723684,0.04292856899911767,7.17132714362034e-05,-0.027233728709637566,-0.06953961552219289,0.0,0.9818929743584056,1.0386671251925856,0.14130793590185864,-0.011369920554634844,0.04295906934962589,0.00020184113733977925,-0.02710360084638453,-0.06930986014005579,-0.032231241299793885,0.9820440257104028,1.0386281309582117,0.14097605593552281,0.9697062185512811,4.100093404673938e-12,-0.01843154410522867,-0.0001833236934150093,0.08533952091199061,0.0008710967394996311,-1.9188495885464906e-05,1.6210873990553654e-10,0.0011828917684037763
k_Q,0.006500600709565732,0.023956409749135904,0.01874538959705943,0.0047738011350155025,1.8169327414058313e-06,-0.9859415275870017,-0.15354783314659484,-0.003090605637201301,-0.01475887556797292,0.04919065646673174,0.00452470780935463,-0.026362312552452916,0.0002939564940736723,1.6279759633744716e-05,-0.046739550094143226,2.0284206775475177e-06,0.0,0.018745389596592187,0.0047738011347263345,-0.001518617957174083,-0.0002939056351312155,0.0035834549364866307,0.0,0.0,0.0,0.0,0.0,0.0,-0.004343451313067041,0.319259917365493,2.6345014665270903e-05,0.008414445712066357,0.00450046791151137,-0.014307775548684684,-0.0021087735210248352,0.009547602234633122,0.01443522108990135,0.014798743932999323,-0.009157665975636336,-0.008310750713758606,0.0,0.008098955322344661,0.01695395075727473,-0.4475417672078347,-0.0033647636334573077,0.01446601828982744,0.014829541133486418,-0.009126868775184909,-0.008279953513479803,-0.001896315116936483,0.007922454057420652,0.016973322679877476,-0.44726391903088325,0.05121299872959616,0.0,-0.0010871125617592386,0.0006901459161263867,0.013906969611746119,0.008309600868303079,7.222973924530851e-05,1.6249735674777582e-09,-0.004450661174726879
k_FN_fwd,0.06817663263698112,0.2512486864609055,0.14169961335675801,0.12053222907313697,3.6505059505802884e-05,0.07320835573210739,0.19435648125786942,0.3058842569564574,-0.780957821504812,0.06889619186689828,0.11424305683567974,-0.6070671536597175,0.006769183390070687,0.00033172239523850155,-0.564894912915305,-2.5675173396851216e-06,1.424338042931481e-10,0.1416996133572014,0.1205322290730471,-0.011479493491449283,-0.0074207325402739265,0.005429044014157307,-7.80452577105654e-12,-1.568018403632508e-11,-1.0766897803878013e-11,-1.5782450025439974e-11,-7.774258196476526e-12,-1.5594181843461654e-11,-0.045553004329264256,-0.023705760379287906,-3.3346770434941087e-05,-0.8327967966390607,0.2381397959166275,-0.020039400166861933,-0.022116275724820812,0.24106445660079465,0.1513929006760047,0.1552054349799255,-0.09604325467883634,-0.08716102467547351,0.0,0.14753269835707847,-0.03444350056510618,0.18284901934552922,-0.035288779228750324,0.1517158937970345,0.1555284281013384,-0.09572026154059121,-0.08683803153955412,-0.019888069638231934,0.14762961143178338,-0.03436112789371393,0.18291273952814802,0.11123173047444862,-1.6400373618695754e-11,-0.011598156680576106,0.017425280906842328,-0.060496183007553155,0.1604106947090319,0.0018237360565433393,3.310571362344847e-08,-0.11238281707796566
k_SDH,3.7175814528966054e-05,0.00013700352448330034,0.00040386947885366376,0.00032547496290466894,1.724620049069292e-09,-0.00021750519371678583,5.747251090465685e-05,-8.716495540154405e-06,0.004118687361939814,0.00027588586756889814,0.00030849348013655504,-0.5517648472406919,0.006152527637879642,-2.9451652001245743e-08,0.0007359241041660577,-7.58988670634852e-10,-8.74649064881628e-09,0.00040386947898221896,0.0003254749628950761,-3.271862955235641e-05,-2.003831300704242e-05,2.0106754959958027e-05,4.497357975571332e-10,9.812494115363432e-10,6.518867215802506e-10,1.001308773836247e-09,4.499351931210789e-10,9.807919633124567e-10,-2.4839621385479655e-05,7.043084019630718e-05,-9.860669553314922e-09,2.3731425853644293e-05,-0.0012559236109847079,-8.024517996278178e-05,-1.2059711699423806e-05,0.0006509498838537562,8.255252157629353e-05,8.463242865156991e-05,-5.237110229107588e-05,-4.752675772884505e-05,0.0,7.574693262443868e-05,-1.282825855073454e-05,-2.4029097374386074e-05,-1.9242498525647568e-05,8.272864616869721e-05,8.480855387905542e-05,-5.219497954943313e-05,-4.735063373660973e-05,-1.0843650004673668e-05,7.574983935010573e-05,-1.2782139481556344e-05,-2.392568643192998e-05,6.873284593099317e-05,1.0283034258922236e-09,-6.319546864147297e-06,4.7053740656455416e-05,1.0446898724011232e-05,5.073704078754416e-05,4.9249713132171546e-06,-2.775834587423571e-12,-0.0003035667871191564
k_NDH,-0.004737079470538681,-0.017457377794915047,-0.028018659504509567,-0.0194853550831855,-1.7557728419333537e-06,0.007862523971821985,-0.008676616230694345,0.002141747170983113,-0.27699816026739005,-0.0300363331760348,-0.01846869735531316,0.06678386416137336,-0.0007446824045847687,-1.264502829210774e-05,-0.04335090868312519,1.1462172328178598e-07,-6.594157606164265e-13,-0.028018659504139568,-0.0194853550838527,0.002269872240406618,0.0011996426964425951,-0.0021886353192671257,0.0,0.0,0.0,5.845351861274065e-13,0.0,0.0,0.003165134980182265,-0.002545981362032282,1.4886931462180669e-06,-0.005831095071556457,0.08446587451854445,0.008736478515649595,0.001536693022971202,-0.038970709974921414,-0.010519151870294015,-0.010784056096931479,0.006673322046428262,0.00605616294524809,0.0,-0.008081252019836335,0.0016606723650400845,-0.004527993133587263,0.0024519514680079357,-0.01054159422760285,-0.010806498453076484,0.0066508796872373314,0.006033720586222319,0.0013818723008536598,-0.008084379941170942,0.0016559822225941042,-0.004534773744281599,-0.006633796818471867,8.200186809347877e-13,0.0008063745642342779,-0.002816987522379872,-0.0004343729589817569,-0.004951832876323268,-0.0002948401782792108,-1.2618944034427551e-09,0.018172101565088764
vNQ_max,0.02436504316394638,0.08979154704616196,0.09065038413528552,-0.08021500753018528,2.200445797996445e-05,0.3046155811674735,0.314432484672476,-0.03741631034434696,-0.0071900117685075385,0.6016413168080845,-0.0760300903264017,-0.13501032866933194,0.0015054507148138773,0.00019682245996693312,-0.3897659765010002,-4.1537639677681735e-06,-2.8862627842180987e-09,0.09065038413531838,-0.08021500752960586,-0.007343848485791372,0.004938547304277111,0.0438238237110492,1.4926155537145637e-10,3.2350695485470695e-10,2.1435914718629863e-10,3.3026238016198467e-10,1.4965447028217313e-10,3.241948330614397e-10,-0.016279785534738023,-0.09863824836569157,-5.3948846196620945e-05,0.1018691962341192,0.002192471716718594,-0.17499560973287065,-0.007903939984190271,-0.16043001453908398,0.054104969087886666,0.05546749730298559,-0.03432404889454012,-0.03114970702725988,0.0,0.21367460849186296,-0.053665488903463426,0.35661456665422897,-0.012611544568877186,0.054220400746990624,0.055582928963219445,-0.034208617239731766,-0.031034275372350317,-0.007107621162162443,0.21385144311506488,-0.05354916580218867,0.35665181913887184,0.1520507318652577,3.394877339070021e-10,-0.00409306938871264,-0.011596641380113832,-0.024505096404187167,0.10181740129572822,-0.0012138559034618496,1.9642915874444156e-08,0.07483823936826382
kRespiration,0.0059007710385377814,0.021745880876491087,0.06448107630802809,0.05202358183039211,2.483888834092259e-07,-0.03486639712612182,0.009077976087121816,-0.0013579871981437431,0.6670742673700228,0.04384028883664221,0.04930927943480949,0.41061494245834834,-0.004578616756185771,-5.038762868586537e-06,0.12048419265446494,-1.1992261562962716e-07,2.7036046185273484e-11,0.06448107630757136,0.05202358183061432,-0.005223797558528203,-0.0032029033960209174,0.0031951177588965987,-9.755657213820675e-13,-3.3010913760684375e-12,-9.788088912616375e-13,-2.9226759306370322e-12,-9.717822745595657e-13,-3.2829856512550853e-12,-0.003942668197746551,0.011290165546388174,-1.5575560714343328e-06,0.0036972396021412446,-0.20341294435949991,-0.012751547909470954,-0.0019141907458944116,0.10404716315426132,0.01310324091533846,0.01343322042644954,-0.008312661286788512,-0.0075438934073212595,0.0,0.012033135375339241,-0.002031921312216131,-0.003962263371864359,-0.0030542870490422405,0.013131196364804872,0.013461175876295852,-0.008284705834740199,-0.0075159379528738635,-0.0017213364151323401,0.01203353942711166,-0.002024590205550345,-0.003945748803866026,0.010933066216578552,-3.2800747237391502e-12,-0.0010032310304125222,0.0075210218263625115,0.0016735007088573388,0.00807549828624421,0.0007872023275839688,-5.02981227241151e-10,-0.048521829150259474
kATPsynth,0.0005540049343406609,0.0020416540621883013,-0.008370889487832926,0.0030875353888929298,1.490026843807231e-07,-0.0015744140106802266,0.0010719097698905862,-0.0002539627439143445,-0.0034323410015860466,0.003866092568461147,0.002926442669012723,-0.001843290345026029,2.0553849855256475e-05,1.3302875087815097e-06,-0.006890570683812308,-1.4160972455442336e-08,-6.594157606164265e-13,-0.008370889488172644,0.0030875353887705064,0.0006781498487988836,-0.00019008836428034088,-0.002938874796468688,0.0,0.0,0.0,0.0,0.0,0.0,-0.00037016502551697383,0.0005098145004995822,-1.8391312536487023e-07,0.0006914359101117097,0.0010466339701362688,-0.0011245059263757934,-0.00017971738104429844,0.0061750707407777754,0.0012302230999467099,0.0012612038442799723,-0.0007804502708799008,-0.0007082730585804814,0.0,0.0010793582447455507,-0.0002118248565530212,0.00036244549338478217,-0.000286757682838131,0.0012328477493748751,0.001263828495420928,-0.0007778256222299153,-0.0007056484089454362,-0.0001616113230521692,0.0010796797286704153,-0.00021119056093287016,0.00036349642448451757,0.0009099204923730366,0.0,-9.424433422693007e-05,0.00044636336454884784,8.121376946768263e-05,0.0006477811757356557,4.6719050782356725e-05,1.326848932788467e-10,-0.002879574642733097
vCBB_max,0.22973634765382978,0.8466384092611796,-0.26881307612966443,-0.08203796135471976,0.0001574595056084315,0.758006577460533,0.7851377492356458,-0.26861888667008343,0.48065370150165715,-0.6892147699346803,-0.07775956957853859,-0.47196257328546615,0.005262681718731209,0.0013980966721374233,0.9150474134902191,-1.0371945845961979e-05,6.594157606164265e-13,-0.2688130761296822,-0.08203796135520385,0.021777320841466264,0.0050507799597963475,-0.04790437444410528,0.0,0.0,0.0,0.0,0.0,0.0,-0.1535009940377869,-0.2454517945646799,-0.00013471023961359631,0.7313385479901986,-0.14656716564061656,0.20046754691260343,-0.07452571669066406,-0.1640759222931178,0.5101520932300008,0.5229992767715907,-0.3236391349632389,-0.2937084827649104,0.0,0.5338970612414945,-0.13403163625256875,0.8896113216981163,-0.11891340010515365,0.5112404905109158,0.5240876740507341,-0.3225507376715064,-0.2926200854733031,-0.06701727958807646,0.5343383352630892,-0.13374093928178077,0.8897052670239123,0.3800629981242511,0.0,-0.039080149003708896,-0.01186018484493627,-0.028062086402305807,-0.2660183429332758,-0.0012418707870133676,1.3952843587068078e-07,0.07667515868325246
vOxy_max,0.0009134789495018461,0.003366407168563218,0.0045428887054157555,0.003369135041820375,1.1873207634473549e-07,-0.0006996390159045157,0.0023588127744115085,-0.0006874460508334748,0.049282267997077946,0.004096104681200109,0.003193351070339809,-0.011500672431496342,0.00012823978076432598,5.263784246812387e-07,1.0089625305444332,-3.116063470913863e-08,1.3188315212328527e-12,0.004542888705397964,0.003369135042355288,-0.0003680324877163745,-0.00020742543513234537,0.00030104618061357007,0.0,0.0,0.0,0.0,0.0,0.0,-0.0006103512917157013,0.00022655166402978991,-4.0471408262081513e-07,0.0018716323445105792,-0.015027788850800753,-0.00119140809723222,-0.00029632957077516467,0.0067382700917188315,0.0020284688970832188,0.0020795519400914762,-0.0012868552893827876,-0.0011678448622760508,0.0,0.0020038382792325906,-0.0004355767273120852,0.0017005252773738078,-0.00047282392564612554,0.0020327965873847436,0.002083879630111825,-0.0012825275986629609,-0.0011635171710039605,-0.00026647417317653924,0.002004843460367963,-0.0004344325031373394,0.0017018602031265255,0.0015879720808040483,0.0,-0.0001553550539107415,0.0004870740800521265,5.20189771466191e-05,0.0004856764788442051,5.0980227380488356e-05,5.2740857161047846e-11,-0.003142252130774319
k_O2,0.1084844198847372,0.39979340778812267,0.11418108444005154,-0.11378278572780351,2.9166412035537293e-05,0.43466952271445286,0.3881159810887604,-0.049834911131485554,-0.08574809980429848,0.8026961924727151,-0.10784657179489526,-0.4666091197912101,0.0052029873098316266,0.00026172744965262417,-0.5369766238135838,-5.127149496754797e-06,1.5911702303674367e-09,0.11418108444021514,-0.11378278572837994,-0.009250138254565174,0.0070051937625109405,0.0584685311578883,-8.097195487471161e-11,-1.7825893430769563e-10,-1.174570669513965e-10,-1.817904428856234e-10,-8.065792878844397e-11,-1.7810197158058837e-10,-0.07248511859833262,-0.1407513042300895,-6.659111301826203e-05,0.13567992927795985,0.02614742362006131,-0.2334751715142814,-0.03519198953212721,-0.2275655703998471,0.2409002961077189,0.24696689908580396,-0.1528265089525326,-0.13869287518210627,0.0,0.25586656056498264,-0.06559291763032436,0.4593427179404564,-0.056152417496470174,0.24141425112763956,0.24748085410607676,-0.15231255393408927,-0.13817892016300526,-0.031646410690722014,0.2560911518567332,-0.06545467411284363,0.45936795333673563,0.17888933611166735,-1.8696425925313156e-10,-0.01845441143194113,-0.01644951740982581,-0.030298350719859125,0.13588327071121908,-0.0017218147859426763,2.6120048300738317e-08,0.10615392437515477
k_ox1,0.021975466581509614,0.08098533081371943,0.017686228773648366,-0.017467057896413906,4.4859335722965385e-06,0.047610318019076836,0.02799631216590032,-0.007679581348853435,-0.018932710527249586,0.1237801080237451,-0.01655577623193606,-0.09165983004281279,0.0010220651867725516,4.0312519287924316e-05,-0.08462172014823541,-3.698409857513721e-07,0.0,0.017686228773018505,-0.0174670578967426,-0.00143281234262945,0.001075383481687991,0.009016170407782596,0.0,0.0,0.0,0.0,0.0,0.0,-0.014683161838653955,-0.015416802894662011,-4.803475358141424e-06,0.020908335755784324,0.005773207844740239,-0.0360031382007794,-0.00712876918790736,-0.034934114703148125,0.048798679655792966,0.05002757899928827,-0.030957752955719106,-0.02809473166286754,0.0,0.01627330223424508,-0.004551809530713327,0.03844276481742627,-0.011374680223767223,0.04890279047156894,0.05013168981477337,-0.0308536421366223,-0.027990620843901384,-0.00641054818675267,0.016291253278356826,-0.004543316627946748,0.038438836843676105,0.010467802578578435,0.0,-0.003750180091968935,-0.002525203427706039,-0.001929843485517667,0.02095644816641507,-0.0002643198010408193,4.022739484094239e-09,0.016295943326942952
k_aa,0.014549899308733653,0.05362017412336432,0.01623703169386033,-0.015965581063659823,4.1223778958484785e-06,0.059026070100046193,0.026693865499462073,-0.007039387123082538,-0.01137072237008382,0.11339031410173922,-0.015132633764029313,-0.06298863413417148,0.0007023631819210603,3.6983805764471084e-05,-0.07572813068269718,-3.526356387707684e-07,4.8137350524999124e-11,0.016237031693585608,-0.015965581063605454,-0.0013154086699244643,0.0009829429679124911,0.008259376673909276,-2.926697164146203e-12,-4.951637064102657e-12,-3.915235565046551e-12,-5.260816675146658e-12,-2.9153468236786976e-12,-4.924478476882628e-12,-0.009721682761525076,-0.019113362947988648,-4.580007803189608e-06,0.01916535066150822,0.003467308259266352,-0.03298112446691145,-0.004719939551947387,-0.03193116187480535,0.032309476740292824,0.033123127811331005,-0.020497046354794907,-0.018601447422585203,0.0,0.013685485895671735,-0.004189402040335211,0.041105612553174485,-0.007531145589486185,0.03237840823538822,0.03319205930652864,-0.02042811485965193,-0.018532515928595693,-0.004244407385586158,0.013704069560709402,-0.004182544511849515,0.04109704734971943,0.007938067296636491,-4.9201120856087256e-12,-0.0024825190468397286,-0.002308135650338395,-0.0018557291597606567,0.019195299689826188,-0.00024159879903241428,3.69074966743838e-09,0.014895157546447805
