,PSII,Q_ox,Hi,Ho,O2,PC_ox,Fd_ox,NADPH,NADH,ATP,CO2,succinate,fumarate,3PGA,PG,CBBa,OCP,Hi_mol,Ho_mol,pHlumen,pHcytoplasm,dpH,light_ps1,light_ps2,light_ps1_ML,light_ps2_ML,light_ps1_tot,light_ps2_tot,Q_red,PC_red,Fd_red,NADP,NAD,ADP,PSIIq,Keq_PQred,B0,B1,B2,B3,Keq_vSDH,Y0,Y1,Y2,FPS2_old,B0_tot,B1_tot,B2_tot,B3_tot,FPS2,Y0_tot,Y1_tot,Y2_tot,FPS1,FPBS,Fluo,dG0_FNR,dG_FNR,f_CBB_energy,f_CBB_gas,f_oxy_carbon,f_oxy_gas
PSIItot,0.9512610790795826,-0.04092176393658188,0.10623642134730156,0.014616044254330008,2.704424458084683e-05,-0.010754412163476838,-0.3238723676154634,0.03703326482963035,-0.0689007025255846,0.3744979178571911,0.013957082466863256,-0.027765107562387946,6.248902845696098e-05,0.0002412427302989919,-0.2917982768002513,3.959414333781458e-06,8.73809109497975e-12,0.10623642134724413,0.014616044253813194,-0.008370243530559185,-0.0008913996591661263,0.0247316428309127,-0.0426815901317108,-0.861499247596485,-0.02107577763797602,-0.9753721461933106,-0.04254570923162538,-0.8639795119720234,0.1623560484461084,0.2330520848618707,0.21546720024467314,-0.06407687699505006,0.014404431951248846,-0.044838278533332776,1.2644463767141045,0.02923208882122663,1.0676811231144943,0.19529637436076788,0.2362181456175768,-0.6574170244082672,0.0,0.2088025467195678,0.4885215911652639,-0.05099574330805817,0.8799800291821777,1.0692689518684686,0.1944039387732832,0.2353257098774655,-0.6607897245195049,-0.16600321223621284,0.20891486172905313,0.4886651234415321,-0.05086552801589147,0.6398355893404686,-1.6079118867768297e-12,-0.08326788411130132,0.0021611818180735085,0.14113983855735063,0.14780612495173012,0.00025726230265571583,2.4084252080473652e-08,-0.013672775632189698
PSItot,0.03588644015121662,0.03013066959757312,-0.06456919443192473,-0.009336434048581194,-1.6171505654419857e-05,0.02955861680568902,0.19043201496056625,-0.020905398894006774,0.03658575641196948,-0.22578577491023388,-0.008915518148053669,0.007846963286450303,-1.7660601277875228e-05,-0.0001442213134951812,0.17469269047125957,-2.328075658181097e-06,0.0,-0.06456919443187399,-0.009336434049041366,0.005087331391672859,0.0005694081106133977,-0.014909313224953154,-0.9573184186163006,-0.13850076216180093,-0.9789242317656884,-0.02462786376368457,-0.9574542995206555,-0.13602049778995381,-0.11954265853442772,-0.6405461467799911,-0.12669142910320172,0.03617160624714758,-0.007648645360414959,0.027033115490891615,-0.1947117189321327,-0.01867286834021241,0.013074180550435827,-0.11741158711635104,-0.1475422561056214,-0.26238135692977305,0.0,0.8587257098949828,0.6084894550462144,1.034639300570573,-0.008971235282163932,0.013135094243016609,-0.11487040905131007,-0.14500107807069354,-0.25735991450752893,-0.043994852355430984,0.8599529257255509,0.6079475217140908,1.0342417361487815,0.037174755941608205,0.0,-0.022068262722565023,-0.0013805193238097069,-0.08343142032190269,-0.08837979049473867,-0.00016433806082790715,-1.439880968971381e-08,0.008735008389454171
k_Q,0.27364991622288626,0.22975963324893126,0.037406359244633446,-0.0026130789794843426,1.183361339145323e-05,-0.004563861197145423,-0.15229169108789764,0.019611305666358044,-0.18419781454852818,0.16353167774433758,-0.0024955049960544468,-0.33392833933403826,0.0007515494614975692,0.00010660257709635998,-0.15287303775943345,1.8618009400158157e-06,6.354975341803455e-12,0.03740635924454587,-0.002613078979105959,-0.0029472033198003457,0.00015936580800548743,0.010802689044717102,0.0,0.0,-9.66589824772068e-13,-5.73384546518386e-13,0.0,0.0,-0.9115654497331384,0.09890055828686715,0.10131727056685777,-0.03393249897562694,0.0385085316713972,-0.019579491811027257,-1.4847626387257,-0.005226158090220027,0.013727419879526862,0.07484528442702466,-0.15491435586548044,0.025516240565328495,0.0,0.08124213238190585,0.23365489608034187,-0.019938879250676264,0.0646165911763635,0.014007685860634318,0.07512555040776345,-0.1546340897174151,0.025796506713490208,0.0687194963595823,0.08128562855984509,0.23370476655280661,-0.01988818552463456,0.2862291377472253,-8.03955943388415e-13,0.03447108703657988,-0.00038637942430046895,0.0641641224247665,0.06631531612367719,-4.605558847582875e-05,1.0642550190924343e-08,0.002461282931172032
k_FN_fwd,0.0726217838953328,0.06097408762177371,0.11339174633308163,0.23219370699273292,1.0821202736901501e-05,0.0005831652627014583,0.3484665642990698,0.41252628376178235,-0.7609206484411871,-0.49298799437073454,0.22173118339796258,-0.5300024822481635,0.001192839992934268,9.977197360355924e-05,-0.2530882581092909,-4.260084094137486e-06,0.0,0.11339174633304108,0.23219370699241082,-0.008934003220792198,-0.014160971871025965,-0.03206893226200855,0.0,0.0,0.0,0.0,0.0,0.0,-0.2419131281637719,-0.012637406696495554,-0.2318293330832569,-0.7137743880652798,0.15907863489962026,0.059024982386463566,-0.3940293970255709,0.46438741876999545,0.0036430114043293224,0.019862597408693096,-0.041111495824156324,0.006771551109185334,0.0,-0.009444992417385637,-0.5530941361707187,0.0034905535419475398,0.017148085096437646,0.003717388969845438,0.019936974974820568,-0.04103711813402118,0.00684592880149139,0.018236922895357336,-0.00944978054198165,-0.5530331754637974,0.0034848471662757715,-0.4888283937490881,0.0,0.009146872107936072,0.0343330116988087,-0.2922840403274765,0.04316480271389199,0.004088478590045686,9.960805191735241e-09,-0.21763187943153234
k_SDH,2.915611558331167e-05,2.4479798060128308e-05,0.0001308385544052956,0.0001250981747269975,-3.46412749289164e-09,-1.483486011493506e-06,-7.837939767219687e-05,2.884722597091638e-05,0.00145277835769494,2.3095479097381588e-05,0.00011946146797459088,-0.8980430471859426,0.002021163467554358,-4.094954618509147e-08,0.00015732068480896698,9.58126871874294e-10,1.1915578765881478e-11,0.00013083855415184337,0.0001250981744775742,-1.030861698613886e-05,-7.629455810795684e-06,1.549537869787842e-06,0.0,-8.17085416527183e-13,-9.66589824772068e-13,-1.146769093036772e-12,0.0,-7.992884878829171e-13,-9.712297069990672e-05,3.2147689951489674e-05,5.2144581412287436e-05,-4.991296767083534e-05,-0.0003037189199299082,-2.7651995928839683e-06,-0.0001581944979409749,0.00025019633027489164,1.4625928093507109e-06,7.974412868138864e-06,-1.6505387633700666e-05,2.7186451496492443e-06,0.0,2.6325649375103545e-05,0.00012187418974866901,-6.5638953393852425e-06,6.8845980413458504e-06,1.4924515377921077e-06,8.004271830824614e-06,-1.647552836705621e-05,2.7485060481350907e-06,7.3216747589636345e-06,2.633972051436675e-05,0.00012188449101736515,-6.547485182238125e-06,0.00013273395030715727,-1.6079118867768297e-12,3.6729053843938352e-06,1.84974734743192e-05,4.372611905863622e-05,2.2805710832826875e-05,2.2027691299631773e-06,-3.886168562152864e-12,-0.00011726215996826715
k_NDH,-0.012132117337984737,-0.01018626499374747,-0.04019117681481363,-0.038380044272953766,-7.629703937032235e-07,-0.00011414265927852898,-0.025799725398342695,0.009747660733771809,-0.6103232650921184,-0.007541164737277348,-0.036650681974381094,0.1144178856061227,-0.0002575124468434995,-2.645855681522403e-06,-0.09139486458547848,3.1540859382945513e-07,-7.943719177254319e-13,-0.040191176814421324,-0.03838004427264536,0.0031666158877272435,0.0023407125772961293,-0.0004888899628530852,0.0,0.0,0.0,0.0,0.0,0.0,0.04041374500309239,0.0024735135972266224,0.01716415216096114,-0.016865908547378006,0.12759463428582815,0.0009028964612603208,0.06582612851013736,-0.0767600889628926,-0.0006085975225576369,-0.0033182241638748354,0.006868041776416866,-0.0011312486935691145,0.0,0.001969309368402469,0.040817075428123226,-0.0005616894759798363,-0.0028647407901959835,-0.00062102295918744,-0.003330649599821199,0.00685561631922545,-0.0011436741501447212,-0.0030466409431158504,0.0019703457621529823,0.04081382213425267,-0.0005604731679292238,0.03738740152068674,0.0,-0.001528155835384172,-0.005675013906582864,0.0029779136664163193,0.002431831217989323,-0.0006758017162169602,-2.637042952889444e-10,0.035974116942093515
vNQ_max,-0.11716966386831106,-0.09837700288952739,-0.047090544140587776,-0.20795757473301416,1.4945489192046683e-05,-0.009578437954685807,0.5452697316106785,-0.26045194353269513,0.5416555735897762,0.6627902316574289,-0.1985874658283646,0.36886408513795144,-0.0008301769285243077,0.00013099143461605992,-0.0005898290469253108,-6.666048361541964e-06,0.0,-0.04709054414086016,-0.20795757473330445,0.0037102089556047073,0.01268286466133313,0.04342381103623099,0.0,0.0,0.0,0.0,0.0,0.0,0.3903082348030664,0.20756828928694498,-0.36275938979620276,0.45064747128407084,-0.11323891579052774,-0.0793552423107687,0.635736132153682,-0.4159151544524298,-0.005877718641217563,-0.03204677342033226,0.06633023578805812,-0.01092537835144554,0.0,0.17296819558601265,-0.8851025599239696,-0.039368479973461684,-0.027667116846735965,-0.005997721126866809,-0.03216677590590588,0.06621023315574952,-0.011045380983387322,-0.029423872716889603,0.17306150708036386,-0.884820888693949,-0.039260058771789695,-0.5881602895618395,0.0,-0.014760545777591902,-0.030749368387844783,-0.1867643654859501,0.09357560144380869,-0.00366181889971797,1.3077512378581839e-08,0.19494058803281952
kRespiration,0.015511629073243178,0.013023744007323866,0.06876651739704441,0.06570339574279968,-1.6922612228924771e-06,-0.0007436440308838272,-0.03765172198512636,0.01377011881120804,0.7142228305565883,0.01234575309501672,0.06274291224075981,0.7227696092037001,-0.0016266876500261977,-2.0063367813465497e-05,0.07295320399008931,4.603005806246609e-07,0.0,0.06876651739696556,0.06570339574291967,-0.005418033562005192,-0.004007102298697682,0.000826846949607049,0.0,0.0,0.0,0.0,0.0,0.0,-0.05167137018530503,0.016115040892809893,0.02504909937280888,-0.023825774295952343,-0.14931595447174703,-0.0014781452432141514,-0.08416259588752857,0.13140679310390938,0.0007781281000184764,0.004242545916901743,-0.008781199536333802,0.0014463661202859196,0.0,0.013201222194900775,0.05848760707350319,-0.003285663192275713,0.003662740122045252,0.0007940147563696388,0.0042584325717856175,-0.008765312849481005,0.0014622528086162814,0.003895309950172926,0.013208279509901253,0.05849310589101392,-0.0032774331521929264,0.06428454755559428,0.0,0.0019540628539987306,0.009715144650630995,0.02183691051309252,0.011340339910543035,0.0011569265260298865,-2.0030423103210762e-09,-0.061587676548863296
kATPsynth,0.0005168023034425312,0.00043391209292371923,-0.00628612066605121,0.0018209201956949188,8.754888194602139e-09,-5.058452176570848e-06,0.0004957705616127338,-0.00022319272213192794,-0.0015792931537978966,0.000436618751962792,0.0017388716262086463,-9.07389857581163e-06,2.043235271075925e-08,7.643979610603699e-08,-0.0022153615297349056,-6.060735334370535e-09,-4.464370177616927e-10,-0.006286120666329764,0.001820920196069809,0.0004952761031519233,-0.00011105382678127061,-0.002188382599094698,7.047295028587254e-12,3.595175832719605e-11,2.7064515093617908e-11,4.185707189584219e-11,7.002973955557207e-12,3.596798195473127e-11,-0.0017215350953407621,0.0001096185275404935,-0.0003298283703348791,0.0003861796325015152,0.0003301681979610952,-5.227594693895841e-05,-0.002804052573266157,0.0036418404348112906,2.592486674170645e-05,0.00014134921545995235,-0.0002925629204740506,4.8189815823627785e-05,0.0,9.193715734761923e-05,-0.0007979203555318182,-2.0195330677836942e-05,0.00012203197967070835,2.645416089205143e-05,0.00014187850970640242,-0.00029203362464042616,4.8719111836810794e-05,0.00012978063074638608,9.198692182222047e-05,-0.0007977290729990646,-2.013758556454539e-05,-0.0005962672809444277,4.260966499958599e-11,6.509831874490813e-05,0.0002692479271255614,0.00011082740825249742,3.504056857193007e-05,3.206313828737182e-05,7.77233712430573e-12,-0.0017067996987606138
vCBB_max,-0.02028982719958739,-0.017035573976218712,-0.5671541283952388,-0.11417185974571488,2.550543529391978e-05,0.002569510637123378,0.7392914159546623,-0.37192551288748205,0.7763109007631174,-1.8789450814515862,-0.10902776624778085,0.6577022399761892,-0.0014802449973862078,0.00022295249809699765,1.6826976123567703,-9.038008006819903e-06,-7.943719177254319e-13,-0.5671541283952038,-0.11417185974574155,0.04468541095176524,0.0069630848815667,-0.12227624413002652,0.0,0.0,9.66589824772068e-13,5.733845465183861e-13,0.0,0.0,0.06758820265119914,-0.055682244826923105,-0.4918389695703255,0.6435248269427284,-0.16229613246029762,0.2249643025867346,0.11008801971498046,-0.22834372232766909,-0.0010178224533602006,-0.005549418617704151,0.011486157702229226,-0.0018919045819580462,0.0,-0.04388095364469923,-1.1709264375872728,0.013098614020588971,-0.004791009652896673,-0.0010386028291556903,-0.0055701989944236365,0.011465377274186417,-0.0019126850099241363,-0.005095220363256314,-0.04390391344521153,-1.1708207627644422,0.013071604780627915,-1.059522366219542,8.03955943388415e-13,-0.002557955074186255,-0.016881869187369992,-0.22205211850299228,-0.8375028272656183,-0.002010458113518838,2.2258308023199255e-08,0.1070428110437926
vOxy_max,0.0004748286081248903,0.0003986669187129508,0.0016037662356719995,0.001932857919681209,-2.0603127474703868e-07,-1.8245410485808e-05,0.001323105279130982,-0.0008648926358268275,0.03164906985188232,-0.0013746905961205317,0.0018457689243677304,-0.005004548037278157,1.1263389372441301e-05,-2.050064217703682e-06,1.0061259431937026,-1.6175468667175584e-08,1.0497577230426519e-06,0.0016037662355445693,0.0019328579199397824,-0.00012635886780969417,-0.00011788065610498736,-8.883370947991733e-05,-1.5940981354664366e-08,-8.569918682703706e-08,-6.403077635220087e-08,-9.784692609426955e-08,-1.6243009035806298e-08,-8.596347687180774e-08,-0.0015817007709816489,0.0003953847860991319,-0.0008802411637913096,0.0014964821301809443,-0.006616578007205981,0.00016459039398320668,-0.0025763127826713412,0.0038657159016116205,2.382597921214524e-05,0.0001297900516576194,-0.00026887691072180416,4.411480592916914e-05,0.0,0.00033029280509702555,-0.002138363685302724,-7.417715440927166e-05,0.00011211043816276126,2.4312443741347473e-05,0.00013027625172541942,-0.00026839070769549923,4.460074474370229e-05,0.00011912524467035733,0.0003304713586248768,-0.00213776897842014,-7.396999334599567e-05,-0.0015114142737436744,-1.0047439402496715e-07,5.9701513431665825e-05,0.0002857994482387572,-1.5997638523659764e-05,-0.0009182534247525506,3.403496482461941e-05,-2.0430143298175056e-10,-0.0018119399373320315
k_O2,-0.018077130038934977,-0.015177767658176359,-0.06689368968471758,-0.08645508938837926,-6.674831907983851e-06,0.0014366589381949997,0.3568696012190878,-0.11656591521858803,0.23655083742209235,0.08196387960315592,-0.08255943283468727,0.1490195215784254,-0.00033538795210528256,-6.041602999442132e-05,0.13317699747497957,-4.3628135025436605e-06,-7.943719177254319e-13,-0.06689368968503989,-0.0864550893882965,0.005270475664164724,0.005272701420877288,0.005280327019138104,0.0,0.0,0.0,0.0,0.0,0.0,0.06021740375203603,-0.03113292997257993,-0.23741974158749488,0.2016883967870098,-0.04945349344707968,-0.009813457132986442,0.0980824246821091,-0.1729101806506661,-0.0009068242940592814,-0.004944229458141462,0.01023354005149456,-0.0016855842089452471,0.0,-0.024695310916379568,-0.5648603056489457,0.007161817260030424,-0.0042685284912586125,-0.0009253384756600655,-0.004962743640974158,0.01021502582844758,-0.0017040984311760955,-0.004539563651336287,-0.024708280294501096,-0.5648127802033123,0.007146583521145031,-0.5147582283961648,0.0,-0.002278134730027622,-0.012783566072638863,-0.1361033414480389,-0.03190462181170423,-0.0015222958044054681,-6.031333608461245e-09,0.08103046056909673
k_ox1,0.0011623893184256335,0.000975954729957918,-0.007065936099691417,-0.0071730378231072735,-9.57282748902775e-07,0.0005889560209667913,0.03339895489926942,-0.009823938689178422,0.018940654658915385,0.0005969134078656323,-0.00684981588812945,0.01027881467437414,-2.3133801272214076e-05,-8.602240195712505e-06,0.01505094904674986,-4.0830970775907416e-07,0.0,-0.007065936100109705,-0.007173037823764601,0.0005567168519535605,0.00043746744148656956,2.8910615878787987e-05,0.0,0.0,0.0,0.0,0.0,0.0,-0.003872075350021962,-0.012762894567534213,-0.022219800212897177,0.01699788862497875,-0.0039597473047487935,-7.146787293416083e-05,-0.00630686190397551,-0.014346075813424803,5.83102171606993e-05,0.0003179220394317563,-0.0006580326044649743,0.00010838677085785125,0.0,-0.010445006272822067,-0.05201375413770127,0.002612457493209106,0.00027447355852410984,5.950070867197391e-05,0.000319112529880564,-0.0006568421166073703,0.00010957725807587852,0.0002919015823012883,-0.010450587194660124,-0.05201737660380773,0.002605947803857812,-0.05583261526128994,0.0,0.0001463089151168398,-0.0010606316383360906,-0.01302863554257914,-0.00485797031772726,-0.00012630090506278574,-8.58843252235783e-10,0.006722557571970488
k_aa,-0.000319350134652237,-0.00026813067257089166,-0.0011710814161256737,-0.001606473616035611,-1.0468999771919517e-07,9.768236053981933e-05,0.006439883625911793,-0.002155257020095309,0.004347139230100267,0.0018172475164620503,-0.0015340863672268052,0.0027104329060218865,-6.100194207586128e-06,-9.500503574596613e-07,0.0022662583984317036,-7.87290519140045e-08,-1.588743835450864e-12,-0.0011710814159780483,-0.0016064736155632848,9.226813710680344e-05,9.797521189948286e-05,0.00011752804953341584,0.0,0.0,9.665898247720682e-13,5.733845465183862e-13,0.0,0.0,0.0010638015637173316,-0.002116812842206897,-0.004284353448620988,0.0037291375633419616,-0.0009088161509585862,-0.00021757731132636814,0.0017327217020503786,-0.0032129472405200213,-1.6019983627515735e-05,-8.734468517158388e-05,0.00018078602043191582,-2.9776935431181117e-05,0.0,-0.0017298135149153846,-0.010058854362196877,0.0004358740931480421,-7.540764341782427e-05,-1.6347053780014677e-05,-8.767175476745013e-05,0.00018045894967228394,-3.0104006603099247e-05,-8.019560093860003e-05,-0.0017307370429942655,-0.010059270893848418,0.0004347965249330477,-0.010497968624158405,8.039559433884151e-13,-4.024818765759338e-05,-0.00023753906887193047,-0.0024425374370838655,-0.0004861821223957307,-2.8286759364939855e-05,-9.493354630401999e-11,0.0015056948873730309
