,PSII,Q_ox,Hi,Ho,O2,PC_ox,Fd_ox,NADPH,NADH,ATP,CO2,succinate,fumarate,3PGA,PG,CBBa,OCP,Hi_mol,Ho_mol,pHlumen,pHcytoplasm,dpH,light_ps1,light_ps2,light_ps1_ML,light_ps2_ML,light_ps1_tot,light_ps2_tot,Q_red,PC_red,Fd_red,NADP,NAD,ADP,PSIIq,Keq_PQred,B0,B1,B2,B3,Keq_vSDH,Y0,Y1,Y2,FPS2_old,B0_tot,B1_tot,B2_tot,B3_tot,FPS2,Y0_tot,Y1_tot,Y2_tot,FPS1,FPBS,Fluo,dG0_FNR,dG_FNR,f_CBB_energy,f_CBB_gas,f_oxy_carbon,f_oxy_gas
PSIItot,-1.335243381583454,-2.01901013437737,0.16437761105089715,0.11046471723641822,8.131518557017971e-06,-2.7230668340405657,-1.616061003943945,-0.011714350972992489,1.0966542783316173,0.18367829542352762,0.10503657632942516,2.5703720133787837,-0.006580034968958542,6.572365399549104e-05,-0.07341538101446028,2.3947364559396732e-05,0.0,0.1643776110502684,0.11046471723624167,-0.013278847340709108,-0.00677457388469799,0.013729213419834697,-0.052508990497765314,-0.3161000505787069,-0.022365389748492132,-0.9729924772548352,-0.05247916870773619,-0.324086052684211,2.6240256738503542,3.1170036550513194,0.00031102101395866135,0.031268870299662146,-0.17360075185108606,-0.060657222857157835,3.823143766146872,0.22092943426318168,0.7766260355849889,0.14709994165249296,2.1661101640608877,1.0399363120234313,0.0,0.029462647762153696,0.20223169014380496,-3.3700897805184793,0.7588566820628657,0.7756205631162308,0.13810846717205916,2.157118689001652,1.0229588346874252,-0.20658890394596932,0.029278022455760534,0.20222869217831274,-3.370042201257856,0.1325211773781302,0.0,-0.10590415666744366,0.0161169635316674,0.14733195775639638,0.02817361331158071,0.0017786916549192683,6.559297113159891e-09,-0.10324975337076513
PSItot,1.82450683222995,1.5774363590712461,-0.12840327174976113,-0.08631515167481209,-6.339384882385801e-06,2.127589386815263,0.24290862619181272,0.009202793396744284,-0.8569343863039616,-0.14339351450065627,-0.08207369982057244,-2.008321681542127,0.005141211800198246,-5.122656298752486e-05,0.05724485824849015,-3.5995053465490427e-06,0.0,-0.12840327174955893,-0.0863151516751093,0.010372747505447918,0.005293530736352501,-0.010717970165550868,-0.9474910179843121,-0.6838999582294005,-0.977634619619044,-0.02700753269707039,-0.9475208397749992,-0.6759139561386275,-2.050130127922537,-2.435380510037374,-4.6749279236523324e-05,-0.024564822565144154,0.13565300996749666,0.0473537297665828,-2.2056994702678243,-0.17263030204679752,0.32416695286796177,-0.11485575646190539,-1.692292209027465,-1.7432880685404293,0.0,0.9758940492453073,0.8973030009351086,2.7184699326038677,0.02979992559792839,0.32621140171081403,-0.10482530559025083,-1.6822617575575918,-1.7252716145920377,-0.07212219902215106,0.9760759091776512,0.8973035216757104,2.718387832309433,0.9094115773886742,0.0,-0.03692963658078936,-0.012593506732967072,-0.0263665545676472,-0.02196677525240321,-0.001389837870156279,-5.11197696301111e-09,0.080677523701784
k_Q,0.09582907868974974,0.08285213099701656,0.034192592284646536,0.010993517781418296,2.729645148276119e-06,-0.879623583321877,-0.500824802665286,-0.004676377110284307,-0.07064784060473818,0.07905596502324047,0.010453279598905628,-0.11332945859019224,0.00029011819720062894,2.4636109440223464e-05,-0.08352743720383696,7.421399542409203e-06,3.838505093986661e-11,0.03419259228492509,0.01099351778179055,-0.0027621657259517913,-0.0006742098213628933,0.005907771096024404,0.0,-1.9810318760362864e-12,-4.1029391234436316e-12,-7.545454386145286e-12,0.0,-1.9569479863628707e-12,-0.10767955800104427,1.0068757365809058,9.63868552515167e-05,0.01248255491669249,0.01118357762169975,-0.026107141715341994,-0.11585056540670431,0.02198703584986592,0.011251681315584995,0.02411343679376641,-0.05873869400513759,-0.025496496218576144,0.0,0.01285205874023153,0.0640197787770281,-1.0695853366400399,0.007685445028180646,0.011367663776576019,0.024229419254798084,-0.05862271152922655,-0.025380513741811137,0.006370686367187271,0.012800897162403303,0.06401856099991722,-1.0695689890657196,0.03570328645809164,-7.071451459123066e-12,0.0032677808257056307,0.0016039702692006762,0.044814695998340606,0.01230184003479921,0.00017700997526676245,2.458279104280321e-09,-0.01027353970277467
k_FN_fwd,0.5385150436308767,0.4655905875585204,0.13542626162857002,0.1369601502962468,3.535171637113917e-05,0.5973686404975456,0.5008601670782239,0.3155287845864949,-1.0814948570586904,-0.01107045905821316,0.13022970151722663,-1.1133575226564205,0.002850144403358481,0.0003200148229473566,-0.4539503514141132,-7.4219239791640846e-06,0.0,0.135426261629276,0.1369601502963453,-0.010940082694135074,-0.00839948432811003,-0.0003906131028268139,0.0,0.0,0.0,0.0,0.0,0.0,-0.6051092237996062,-0.6837879307872137,-9.639366111400077e-05,-0.8422343383591459,0.1712010102165952,0.0036558663648508585,-0.6510265269964063,0.2739202991805752,0.06322923795868059,0.13550634655582625,-0.33008425640602906,-0.14327849659747896,0.0,0.13501615715968165,-0.058968639843881406,0.8715585900010973,0.04318864262070693,0.0638810056651494,0.13615811425900598,-0.329432488578458,-0.14262672877511515,0.03580030853988085,0.13505708346615025,-0.05896163064507106,0.8715537407122034,0.10401350401795287,0.0,0.018358654083970537,0.019982685983136066,-0.08800763450504277,0.1497054980368165,0.0022052325674873753,3.193597684591813e-08,-0.12798911852371714
k_SDH,1.5267539828178383e-05,1.3199499243271508e-05,8.404519380266264e-05,7.702458735179045e-05,-3.4082000915620893e-09,-5.0624611919834806e-05,-2.0970260037755825e-05,1.983160222600232e-06,0.001430520064230212,2.3891224003939928e-05,7.323978741445708e-05,-0.7291622182882523,0.0018666219879948116,-3.869673769257264e-08,0.0001339257928747718,3.103318411909361e-10,0.0,8.404519421799302e-05,7.702458689113321e-05,-6.78938725771137e-06,-4.723760061491924e-06,1.7878328117443272e-06,0.0,0.0,0.0,0.0,0.0,0.0,-1.7154854404430163e-05,5.794830241295832e-05,4.036099343041089e-09,-5.2936078086530725e-06,-0.00022645182120656192,-7.889746880818434e-06,-1.8457373749676207e-05,0.0001540491997972847,1.7925344441583706e-06,3.841676812450876e-06,-9.357822279257803e-06,-4.06165934195134e-06,0.0,7.762736956585688e-06,2.927612448378716e-06,-5.4464013305862616e-05,1.2245404479331258e-06,1.8110128407582799e-06,3.860155649458898e-06,-9.339345385795756e-06,-4.04318024343899e-06,1.0152143339210112e-06,7.760100473849604e-06,2.9278436361042533e-06,-5.446276108329007e-05,8.303329725359768e-06,0.0,5.208734318203062e-07,1.1238000601481299e-05,4.859870015201148e-06,5.351077305829368e-06,1.240272230940554e-06,-3.886168412367264e-12,-7.20029220028926e-05
k_NDH,-0.038932121638066,-0.03366012182406459,-0.032505130386755815,-0.024906114652961,-1.6403501631428815e-06,-0.026477550920524586,-0.024098460432620473,0.0018538683799755897,-0.5615003881541788,-0.02588526432462722,-0.023682254681147707,0.11273825461808595,-0.00028860478088872963,-1.1359962118962537e-05,-0.04544717879166034,3.570987293747508e-07,9.040773878641979e-07,-0.03250513038699508,-0.02490611465335812,0.0026258482679804578,0.0015274407866677586,-0.0019351309398836709,-2.5837773574606082e-09,-5.069361519183055e-08,-1.1384117465384784e-07,-1.7976667802271834e-07,-2.693448171401518e-09,-5.226323139780001e-08,0.04374669663484086,0.030307968193943016,4.637898610758098e-06,-0.0049484918165545785,0.0888857058004791,0.008548251405168567,0.04706617621624879,-0.04981222902685433,-0.0045711860474988665,-0.009796534011735619,0.023863589002706985,0.010358354701893429,0.0,-0.007682173612129151,0.0027966767142179596,-0.04034541433105804,-0.0031223290566161506,-0.004618305630696635,-0.009843655163761851,0.023816467837715,0.010311231968318494,-0.002588363561642063,-0.007684060530233637,0.0027962930183378356,-0.04034527324790917,-0.006125252713885869,-1.8507314365673648e-07,-0.0013273527749419923,-0.003633838508496221,0.0007178098193103239,-0.0038728027367314582,-0.0004010364282627537,-1.1336508425791365e-09,0.023279578148305627
vNQ_max,0.21490678940929492,0.18580460763049161,0.09918176978937113,-0.12035846381371672,2.5600753329794282e-05,0.6176201239762823,0.6578342802667573,-0.043715018026161276,-0.10053566158580289,0.7482480529069863,-0.1144445880612076,-0.33362692999959964,0.0008540696888655367,0.00022918229530373215,-0.4912286589545858,-9.748021707575418e-06,0.0,0.09918176978930793,-0.12035846381424743,-0.008012159135882081,0.0073813370171462046,0.05590712135407931,0.0,0.0,0.0,0.0,0.0,0.0,-0.24148272088414047,-0.7069691275299204,-0.0001266043080069476,0.1166875767986524,0.015914830028474262,-0.24709859590940997,-0.2598070794712695,-0.2407169271196766,0.025233077397880558,0.0540769167363494,-0.13172769210558596,-0.05717856598138506,0.0,0.26478486361956843,-0.07445990461460478,1.0275504079917397,0.017235420626567653,0.025493180255479846,0.05433701959483389,-0.13146758924105775,-0.05691846311842158,0.014286936575538724,0.2648325611053006,-0.0744472735362757,1.0275508399773163,0.21924559312610392,0.0,0.007335202121570498,-0.01756047561646099,-0.055512967486754154,0.1166968629154973,-0.0019381162736852337,2.287176660752951e-08,0.11253207297873752
kRespiration,0.007113017061866494,0.006149781693868411,0.04379776970721867,0.04027520475018587,-1.8525619085354967e-06,-0.02758551861011854,-0.011786427334827005,0.0011114403273943946,0.7666393554727394,0.011986620177697447,0.03829618094496198,0.6271743654241203,-0.001605537731682241,-2.0962944953232057e-05,0.07335260543355641,1.74656083342512e-07,8.167032114865235e-13,0.04379776970674017,0.040275204749950236,-0.0035380967714119136,-0.002469995458396221,0.0008970404280679607,0.0,0.0,0.0,0.0,0.0,0.0,-0.007992622116412544,0.03157622180232715,2.2683711830013162e-06,-0.002966744254396486,-0.12135927533235064,-0.003958415934083991,-0.008599133578573278,0.08055040951922703,0.0008351671731499138,0.0017898448845409534,-0.004359937652126943,-0.0018924995317905955,0.0,0.0039083145813301355,0.0016299280775391096,-0.030002467985304815,0.0005704615864424588,0.0008437760839520686,0.0017984537959756122,-0.004351328730609156,-0.0018838906093459095,0.00047287282176086557,0.003906860875992046,0.0016300406423852116,-0.030001802829523357,0.004247354182504346,0.0,0.00024263416889988402,0.0058762111679094295,0.0026007626979346957,0.0027407293682896916,0.0006485236121360062,-2.092424106601746e-09,-0.0376495098658677
kATPsynth,0.003881149585021749,0.003355578119002187,-0.009099922992056775,0.003401688309567474,1.084648780079899e-07,0.0018729817443169801,0.0021016597607440824,-0.00018692431568855777,-0.005526429216798762,0.002919594357935473,0.0032345337981471278,-0.004219256537591469,1.0801097346697869e-05,9.775788322295208e-07,-0.006339710992884468,-3.114324366742296e-08,-1.0535471428176155e-10,-0.009099922992095302,0.003401688309980595,0.0007351152514441527,-0.00020861854808454925,-0.0031836037218324347,0.0,5.9430956281088585e-12,1.2308817370330892e-11,2.137878742741164e-11,0.0,5.870843959088612e-12,-0.004361108934001252,-0.002143939645512738,-4.0447741473503637e-07,0.0004989531384704195,0.0008748356588347638,-0.0009641557549029378,-0.004692034818663658,0.006803376561086302,0.0004557023082492174,0.0009766130549728456,-0.002378965213465127,-0.0010326312369732431,0.0,0.0008984213865074566,-0.00023609135083403526,0.003212523617590256,0.0003112654710639809,0.0004603996941226697,0.0009813104386522387,-0.0023742678264320294,-0.0010279338516143602,0.0002580163690417919,0.0008985701430110492,-0.00023604894115911428,0.003212529084282656,0.0007500441442652875,2.2098285809759583e-11,0.00013231266984870853,0.0004963112943242957,-5.071600666566015e-06,0.0004474761826149647,5.4774115588791564e-05,9.77093772252341e-11,-0.003179651266032721
vCBB_max,1.725903278776243,1.4921854667785373,-0.4323840250179754,-0.15636717210408324,0.00014970433184287259,2.532123903920836,2.007814839068767,-0.25884675150186726,0.0478039887079881,-0.9726085508002406,-0.14868548890387906,-1.2767493231440759,0.0032684199529723,0.0013336288779085275,1.0818109558288458,-2.9752511367929574e-05,0.0,-0.4323840250175067,-0.1563671721040551,0.034929096690452986,0.00958967704535249,-0.07028920171600653,0.0,0.0,0.0,0.0,0.0,0.0,-1.9393329970484485,-2.89843766039805,-0.00038641648080705996,0.690934181403748,-0.007567387959486791,0.3211905548410931,-2.0864947614789044,-0.31273434305720577,0.20264531566994942,0.43428842412504604,-1.0578971136825743,-0.4591976301142952,0.0,0.4692606234579108,-0.23885065773151803,3.5902826856716032,0.13841659661441222,0.2047341859046247,0.43637729434868017,-1.0558082431069271,-0.4571087595771463,0.1147374986481055,0.46942967041388955,-0.2388253789711267,3.5902576482352724,0.348946417827983,0.0,0.05883897763523068,-0.022814198773633713,-0.14023104744447212,-0.3034989773189782,-0.0025183538827959267,1.3309183028600595e-07,0.14631684038174264
vOxy_max,0.0043038753222578744,0.0037210502281011357,0.00256081389766622,0.002229643448461574,-5.226227367642341e-08,0.0038871462673915726,0.0037343437035989094,-0.0005100640465512913,0.05321230115128504,0.0010898553805863403,0.002120083732381723,-0.010420293286185756,2.6675463813406584e-05,-7.722945904004027e-07,1.0057147441358507,-5.5337098914378346e-08,8.167032114865236e-13,0.0025608138973531964,0.002229643449096083,-0.00020686915046638841,-0.00013673944665212417,8.433436589009723e-05,0.0,-9.905159380181432e-13,-1.0257347808609077e-12,-6.28787865512107e-13,0.0,-9.784739931814354e-13,-0.004836098227528312,-0.0044494865023934,-7.1869796695458e-07,0.0013615032154068098,-0.008423525691385823,-0.000359909703604499,-0.005203080279398213,0.004459286881992561,0.0005053347835928559,0.0010829819052057296,-0.0026380684246944965,-0.001145094914812642,0.0,0.0013035087127747198,-0.00042951274310959025,0.006100529542924613,0.0003451694268709575,0.0005105437804162493,0.0010881909025122697,-0.0026328594272128736,-0.0011398859159421763,0.00028612137182443427,0.0013037932996648673,-0.00042944885762742256,0.006100516474711624,0.0010559912534300173,0.0,0.00014673615768902963,0.0003253082343444128,-0.0001465802157106284,-4.4703062998031185e-05,3.590222933994153e-05,-7.661303441524036e-11,-0.0020842337712717674
k_O2,0.7293561861434491,0.6305884547865022,0.04521446610459241,-0.12601265125564426,1.9535576609064086e-05,1.1290834548316948,0.883604514080311,-0.03386533989958795,-0.3429238542653566,0.5836009505701479,-0.11982086231789373,-0.8840320228471272,0.0022630816204941054,0.00017654868879690754,-0.39509308171224833,-1.3093564345645353e-05,0.0,0.045214466104259395,-0.12601265125553088,-0.00365254117912393,0.007728096712472975,0.04360392209056412,0.0,0.0,0.0,0.0,0.0,0.0,-0.8195502671430034,-1.2924241195895438,-0.00017005519634600948,0.09039603845023604,0.05428496482885319,-0.19272616199547807,-0.8817399447317665,-0.25202530178298055,0.08563666832020281,0.1835276316423984,-0.4470608360189938,-0.19405409458102604,0.0,0.19879340139352564,-0.1053779863763716,1.5903638912284794,0.058494012101846966,0.0865194120865498,0.1844103754075064,-0.44617809216143295,-0.19317135072935646,0.048487370930650565,0.19886833059494308,-0.10536716399091078,1.5903522723058778,0.1462706872913947,0.0,0.02486493629234543,-0.018385429845539463,-0.0769816105433214,0.09112931862643585,-0.002029140332347929,1.7619332414757124e-08,0.11781125826984284
k_ox1,0.07717620105248743,0.0667251805042589,0.0023810686854078616,-0.010389052274194958,1.4404652543116776e-06,0.10060201426792245,0.0643332239764163,-0.0025167995094290303,-0.03659003433581374,0.043525443742266454,-0.009878571095099787,-0.09119549590205189,0.00023345629534943344,1.3086558382743226e-05,-0.030288307481670294,-9.533123523151961e-07,0.0,0.0023810686848451386,-0.01038905227418549,-0.0001923488690434478,0.0006371392082055097,0.003251981161358675,0.0,0.0,0.0,0.0,0.0,0.0,-0.08672001380987071,-0.11515576564580492,-1.2381329622604303e-05,0.006718039916340837,0.005792215100361149,-0.014373677276198506,-0.09330055814079856,-0.020778104434671794,0.009061571181484991,0.01941981974251949,-0.04730536191491764,-0.020533670034123125,0.0,0.004838413117898746,-0.008001761391395046,0.12869927396849073,0.006189493450679429,0.009154977962357522,0.019513226523574834,-0.04721195512512624,-0.020440263244757374,0.005130649122874212,0.004844535711435135,-0.008001350806155917,0.12869767870263107,0.0015454157284839599,0.0,0.0026303751000757497,-0.0015157779002697605,-0.005649526711597103,0.006800783160650831,-0.00016729092189653492,1.305752586555401e-09,0.009712720722965171
k_aa,0.06027268192128185,0.05211069506227346,0.004266859890128075,-0.010833489000597562,1.7261994921986796e-06,0.09373022166662563,0.06066333752226417,-0.002987594757905824,-0.02838122073075435,0.05146702437074638,-0.010301172584715202,-0.0734618919048708,0.00018805909527802163,1.558786551369292e-05,-0.034808561729857995,-8.989309070745627e-07,0.0,0.004266859890670954,-0.010833488999870217,-0.00034468794493110053,0.0006643955969220936,0.0038453864415707124,0.0,0.0,0.0,0.0,0.0,0.0,-0.06772615916945895,-0.10728985417156683,-1.1675037551947679e-05,0.00797472375621024,0.00449275706497143,-0.01699627470892341,-0.07286540134404772,-0.021666978010460504,0.007076860087989017,0.015166393048844502,-0.03694430258690891,-0.016036281157895536,0.0,0.00515581274847371,-0.007525012561522739,0.12056263337304358,0.004833839789367316,0.0071498084441259935,0.015239341403227706,-0.03687135422498621,-0.015963332795497522,0.004006908896306038,0.005161544987246173,-0.007524602157368916,0.12056117525208497,0.002017953852980645,0.0,0.0020542972622857375,-0.0015806218637440953,-0.005274289711020923,0.008036071759185102,-0.00017444827249112632,1.5555776987790111e-09,0.010128450525692001
