,PSII,Q_ox,Hi,Ho,O2,PC_ox,Fd_ox,NADPH,NADH,ATP,CO2,succinate,fumarate,3PGA,PG,CBBa,OCP,Hi_mol,Ho_mol,pHlumen,pHcytoplasm,dpH,light_ps1,light_ps2,light_ps1_ML,light_ps2_ML,light_ps1_tot,light_ps2_tot,Q_red,PC_red,Fd_red,NADP,NAD,ADP,PSIIq,Keq_PQred,B0,B1,B2,B3,Keq_vSDH,Y0,Y1,Y2,FPS2_old,B0_tot,B1_tot,B2_tot,B3_tot,FPS2,Y0_tot,Y1_tot,Y2_tot,FPS1,FPBS,Fluo,dG0_FNR,dG_FNR,f_CBB_energy,f_CBB_gas,f_oxy_carbon,f_oxy_gas
PSIItot,0.8323688900752518,-0.1363523466074638,0.43247610463982655,0.1064044530120238,9.714851793399993e-05,-0.017410189356658223,-3.2173510970907624,0.19804662142631918,-0.5620675591508154,1.2193285403295595,0.10146367474177752,-0.33024607547345114,0.0006386987802516668,0.0008676666211983983,-1.1263349349602225,0.09083104593491065,-2.2342409725355056e-07,0.4324761046398172,0.10640445301237933,-0.034504320303298724,-0.006501749163191452,0.08510193407864412,-0.05248861105719362,-0.3212713998472529,-0.021989127644716815,-0.9737029580170796,-0.05244567949952909,-0.3325312285170435,0.486295737263869,0.6361760249221415,0.9347230158778181,-0.43959917322988523,0.09166529239190485,-0.26157399775458084,1.7730390158410436,0.21280891111091277,1.0213684419408204,0.6638753241439926,0.8002276693129248,0.37324864785860007,0.0,0.6278663920579608,4.072123450554601,-0.054268378703055925,0.9160077154479432,1.0228121136084478,0.6540591672442276,0.7904115124784448,0.3521726623523527,-0.08858697306040948,0.6278768576179913,4.0721560443030675,-0.05423079839701411,4.475525391330046,3.845271944292861e-08,-0.04513451119601307,0.015661047212345604,0.9178095162010389,0.3914242355769956,0.001816637524437278,8.661048224895672e-08,-0.09954988414282197
PSItot,0.15146522161222464,0.1232028896698125,-0.3735172188539354,-0.0924927597603457,-8.355137413908388e-05,0.037046076622538344,2.7610124724736567,-0.16954274094216537,0.4793552085549333,-1.0509065359542624,-0.08819796871774908,0.2748348913596998,-0.0005315330713484569,-0.000746198985337709,0.9704223081737828,-0.07794786375615205,0.0,-0.3735172188542132,-0.09249275976043637,0.029800393307931515,0.005651687676763075,-0.07334500052982604,-0.9475113968741813,-0.6787285982267235,-0.9780108578321225,-0.02629701456027379,-0.9475543283998494,-0.6674687691163985,-0.4393986723052187,-1.3536800365513781,-0.802144940750097,0.3763298167297078,-0.07817607445294805,0.2254436066937027,-0.6984892356937411,-0.18498552019237474,0.07432662918613706,-0.5716733720087103,-0.6948762599380532,-1.2780913985007258,0.0,0.45321181212882816,-2.5779481898475005,1.0474179565985222,-0.06099899662611713,0.07439853275940729,-0.5603416393419365,-0.6835445273800865,-1.2554998365881325,-0.14000143165258006,0.453416427495551,-2.577990402633591,1.0473737311553777,-3.100401747218328,0.0,-0.07133468030295789,-0.013613466980541637,-0.7879270257877948,-0.33679037566962167,-0.0015791272136255097,-7.448563652106317e-08,0.08653528956675081
k_Q,0.3144931212621329,0.25581094733563703,0.0548321543345093,0.007306138168149822,1.4222699488833065e-05,-0.002730934187883269,-0.4892773554650842,0.030972152263208947,-0.2592986358803294,0.17767296991336018,0.006966780563349974,-0.4296224679608902,0.0008308935982538259,0.00012801939622136677,-0.1858668570300306,0.013813094193633716,7.835130887844217e-10,0.05483215433444562,0.007306138168244853,-0.004374683921532113,-0.00044643506343313994,0.012403887226330075,-2.183505084840189e-12,-3.7846504028352496e-11,-8.370380025236548e-11,-1.310205631071455e-10,-2.180431548407074e-12,-3.989830964520412e-11,-0.9123405378044508,0.09978954394928129,0.1421476212879926,-0.06874811814511154,0.04228795077741666,-0.038114935799707,-1.4503003234875727,0.014612276349600797,0.018152071970055625,0.08610772638584188,-0.16970322856951964,0.028615090488955972,0.0,0.09225520367595988,0.6198241351171155,-0.008080702233424981,0.07243044196689925,0.01843955605677101,0.08639521046956712,-0.16941574436377452,0.028902574691838802,0.07777404546844299,0.09225995744949196,0.6198285664471319,-0.008075355128486113,0.6746692269794227,-1.3416139365487703e-10,0.039627577336832615,0.0010753476381706272,0.1382027488564328,0.05808095701632012,0.00012471014096866414,1.2778832370176437e-08,-0.006827847699212052
k_FN_fwd,0.062276667839530765,0.05065628655390255,0.08330399991214302,0.17215703349403522,1.1648766079105848e-05,0.00038777825570888546,0.8850457918430306,0.30985983937905054,-0.6926658806538005,-0.3383926251852159,0.16416509097588125,-0.5101509849372204,0.0009866364489637088,0.00010653231100665376,-0.19891403637029564,-0.024986279550410988,0.0,0.08330399991247871,0.17215703349420386,-0.006646258462560518,-0.010519502192889175,-0.02318988842336205,0.0,0.0,0.0,0.0,0.0,0.0,-0.1806638230268009,-0.014169589096041407,-0.2571285031623744,-0.6877881997035352,0.11296403687835908,0.07259299594261111,-0.28719188245175364,0.34431406656931485,0.0035945163044107356,0.017051254905431978,-0.033605035421091854,0.005666424754680598,0.0,-0.008300691504716353,-1.1157443796159594,0.005995532183526676,0.014342846115340317,0.0036514445796354713,0.017108183180350924,-0.03354810708014511,0.005723353094815749,0.015400999081026904,-0.008301001540771014,-1.1157397373892926,0.005995138774890589,-1.0582890903357445,0.0,0.007846584409489278,0.02533878443862036,-0.36720371786978495,0.07171717598272188,0.0029397509325751994,1.0633667356779888e-08,-0.1612136916993431
k_SDH,3.173260436222866e-05,2.5812405900202487e-05,0.00011881272787095746,0.00011054143368696654,-2.6921380827200344e-09,-5.237322029416516e-07,-6.133010392766899e-05,7.96870674569795e-06,0.0012455406540486478,3.092214475005118e-05,0.00010540998958045503,-0.8687232951674914,0.0016801184139904472,-3.122936692371876e-08,7.382951013052234e-05,1.7314694246925878e-06,0.0,0.00011881272770490133,0.0001105414336887634,-9.47925852782477e-06,-6.754535362032617e-06,2.1587417992716425e-06,0.0,0.0,0.0,0.0,0.0,0.0,-9.205901673206775e-05,1.9137406501768756e-05,1.7817968452364895e-05,-1.7687940707554512e-05,-0.0002031301154384896,-6.633510382671116e-06,-0.00014633644827253243,0.00022108286948321082,1.8316432215355143e-06,8.688423029585154e-06,-1.7123984315430313e-05,2.8864895046941137e-06,0.0,1.7883741060630573e-05,7.791093706922932e-05,-1.3564902686595828e-06,7.308164325383321e-06,1.8606511401154119e-06,8.717430828790596e-06,-1.7094979114334985e-05,2.9154974269534093e-06,7.847219230466772e-06,1.7884667129563598e-05,7.791199744841726e-05,-1.3554505255905162e-06,9.103489618699709e-05,0.0,3.99833996121967e-06,1.6269946198874118e-05,2.8714324050890888e-05,1.1382960387624538e-05,1.8876411693666838e-06,-3.331001573597125e-12,-0.00010352504136161556
k_NDH,-0.010727050292351333,-0.008725460207521069,-0.033015737393078295,-0.030285900504805393,-4.7164733301029985e-07,-3.265326195747438e-05,-0.05304699225412819,0.006562314624533066,-0.6358987593710634,-0.010398705858575509,-0.028879984047430918,0.09209541398038203,-0.00017811333691739595,-6.35280103923172e-07,-0.06926897889669109,0.0014976027034709221,5.453402318801102e-10,-0.033015737393003806,-0.030285900504737263,0.002634100667074841,0.0018505929562230108,-0.0007124642646051715,-1.455670056560126e-12,-2.6148493692316272e-11,-5.95002917456574e-11,-9.122459767740506e-11,-1.4536210322713827e-12,-2.7049701454375676e-11,0.031119039827003196,0.0011931646444099753,0.015411511857646408,-0.014566207000367188,0.10370611994973043,0.002230761416998535,0.04946831411329128,-0.06057180158694281,-0.0006191494075991695,-0.0029370498125239138,0.005788411018708983,-0.0009760313459025257,0.0,0.0008253580709147429,0.06688562871160574,-0.00037717806140374335,-0.0024705307808122992,-0.000628955208023015,-0.0029468556150383336,0.005778605205796016,-0.0009858371585253138,-0.0026527959090673742,0.0008253937896268165,0.06688537663733675,-0.00037713529776683166,0.06376578965924848,-9.460098270536201e-11,-0.001351616706840214,-0.004457604090865335,0.010095976374872346,0.0007408025731273734,-0.0005171673533082925,-6.328902989834537e-11,0.02836234455231042
vNQ_max,-0.11718266163370447,-0.0953172123782471,0.018689634042002478,-0.16007713764836903,1.1494242225805833e-05,-0.004869362688908981,0.9182527318568449,-0.14748401835443756,0.36035921413886646,0.6753747596731936,-0.15264627968555192,0.2466277985007967,-0.0004769802940388202,0.00010129863728230362,-0.25544922912755014,-0.02592376551353036,0.0,0.01868963404162649,-0.1600771376481794,-0.0014911185310428946,0.009781370880922877,0.04665661152486834,0.0,0.0,0.0,0.0,0.0,0.0,0.3399454077666689,0.17792866785504652,-0.2667759709640485,0.32736661734647465,-0.05876950589444081,-0.144883409210612,0.5403935430843381,-0.32015427600681334,-0.0067636078916163,-0.03208443031120104,0.0632327867666166,-0.01066221099624231,0.0,0.17503137811469066,-1.1513010220377613,-0.003763772214470499,-0.026988163932835933,-0.0068707267696825804,-0.03219154919042766,0.06312566780580832,-0.010769329956810084,-0.02897923378799108,0.17504065561195367,-1.1512815468922213,-0.003753434859690721,-0.9102636490073694,0.0,-0.014765863910464949,-0.02356081530198556,-0.24268386436013462,0.08967154212594552,-0.0027335550569692908,1.0111810443583006e-08,0.14992421822632843
kRespiration,0.01358578778629404,0.011050776301318843,0.052819883912775645,0.04945122908395551,-1.6200343226806127e-06,-0.0002877660396862432,-0.05187783273475665,0.006819885981030552,0.7550796180582943,0.012521367470099893,0.047155659967013895,0.7299234499080642,-0.0014116783260047716,-1.873399007300343e-05,0.06533888682828472,0.0014645954389101365,1.6728807806374265e-10,0.05281988391308208,0.04945122908405724,-0.004214138607417,-0.003021673318705425,0.0008791903569006352,-7.278350282800631e-13,-8.257419060731454e-12,-1.714415185891823e-11,-2.8163298611816324e-11,-7.268105161356913e-13,-8.791152972672096e-12,-0.0394121959943869,0.010515098456707454,0.015071841029374849,-0.015137931751582496,-0.12314283726579875,-0.0026861211217306157,-0.06265152109598204,0.09890245769252666,0.0007841513542120732,0.0037197675438731316,-0.007331009757691872,0.001236142947239594,0.0,0.009719293489617952,0.06571749807396922,-0.0008533959544472949,0.003128922489308765,0.0007965703780138987,0.003732186566165383,-0.007318590716771999,0.0012485619885858148,0.003359760810689607,0.009719794266114629,0.06571796293667698,-0.000852832656930746,0.07147094857656654,-2.9240303745293714e-11,0.001711891550861457,0.007278436514604807,0.01905693818878791,0.006385543052659822,0.0008444464398439118,-1.8698022166458528e-09,-0.04631283399730449
kATPsynth,0.0007988450087102892,0.0006497856615154836,-0.007606033983115352,0.0024607246020555617,3.069127173608194e-09,-3.5618365294438594e-06,0.002335849464491467,-0.00031551795626173274,-0.0022386691715528175,0.0008870316526890732,0.002346494137816243,-0.0001887679695206858,3.6508045767638577e-07,2.6148842110096863e-08,-0.0032494656529789053,-6.594475356696099e-05,-2.1737998844441137e-11,-0.007606033983347356,0.0024607246016639145,0.000606833616658668,-0.0001503603839603824,-0.002627338624218503,0.0,1.376236510121909e-12,2.016959042225674e-12,2.448982487984028e-12,0.0,1.352485072718784e-12,-0.002317437177959547,0.00013015108327110158,-0.0006786241818806562,0.0007003473814040447,0.00036509537183454776,-0.0001902886778248043,-0.0036839126080067436,0.004921449206579847,4.6108086200728995e-05,0.0002187224662252526,-0.00043106324374224007,7.268576919087735e-05,0.0,0.00013782422763009724,-0.002939233626112368,7.139423677934105e-06,0.00018398087915400425,4.6838324374356125e-05,0.00021945270549535,-0.00043033300486612484,7.341601155364615e-05,0.00019755430493170807,0.0001378317576206181,-0.0029392086241004653,7.147730346630179e-06,-0.002629792073691457,3.4400357347404373e-12,0.00010065619471914733,0.0003621796257944798,-0.00030137731408440293,5.7556381331456614e-05,4.2019884821762014e-05,2.775834644664271e-12,-0.0023044711751180765
vCBB_max,-0.037719082752667554,-0.030680970779928,-0.6650115391943905,-0.17063783461797843,4.3791596482515976e-05,0.0021419913670777,2.631846801441954,-0.45085122549571777,1.2960951666079095,-1.8815992872774518,-0.16271716678360007,1.0809199836097598,-0.0020905086912947307,0.000383995437117698,1.9535506190608398,-0.07430130663905692,0.0,-0.6650115391942523,-0.17063783461716991,0.0530567386891367,0.01042667289321438,-0.12902734453289105,0.0,0.0,0.0,0.0,0.0,0.0,0.10942257817057328,-0.07826931260824574,-0.7646190003306597,1.0007432823151374,-0.21137484361197573,0.40364629504371563,0.1739433845112688,-0.341275669029722,-0.002177089177711492,-0.010327426287314884,0.0203535476967832,-0.0034319807764346872,0.0,-0.05913139888385152,-3.319054957533282,0.019701664662011776,-0.00868702542039409,-0.0022115688997765537,-0.010361906008675419,0.020319067921190096,-0.003466460553618285,-0.009327916496623147,-0.059134121436302166,-3.3190439026919827,0.01969847915039964,-3.182232878295858,0.0,-0.004754238543915259,-0.02511518244937807,-0.6508431537579661,-0.6758203844848343,-0.0029140078688862947,3.8330390274311056e-08,0.15984695074418623
vOxy_max,0.0004940700244548396,0.00040188124235973914,0.0014419397342975554,0.0017521408114031592,-2.1275392167031456e-07,-8.14064167112661e-06,0.004343689247235292,-0.0008553970080017797,0.04306395193567402,-0.001191260906800974,0.0016708071626636962,-0.004815387198410004,9.3129858356652e-06,-2.13468694259581e-06,1.0065964467983013,-0.00012262937145239358,-2.778683330550302e-10,0.00144193973408773,0.0017521408117200992,-0.00011504254595770597,-0.00010706300523838995,-8.09598550379919e-05,1.455670056560126e-12,1.3074246846158136e-11,2.924590611227228e-11,4.6530667271696536e-11,1.4536210322713827e-12,1.3524850727187838e-11,-0.0014332949883764682,0.00029746264974839546,-0.0012619531376608525,0.0018987035213867453,-0.007023123255562672,0.0002555528454382644,-0.0022784279459489853,0.003504281597143104,2.8517095255702257e-05,0.00013527572923405278,-0.00026660554998906823,4.495338093859951e-05,0.0,0.00030914525345160783,-0.005463913183121817,1.0402938123697307e-05,0.00011378836476957501,2.8968736446858036e-05,0.00013572737055062866,-0.0002661539088920553,4.5405022183202096e-05,0.00012218314161374413,0.0003091620212462507,-0.005463862472646993,1.042148070715784e-05,-0.004836286569930651,4.7300491352681004e-11,6.225222934868398e-05,0.00025788733745790693,-0.0007917182876179623,-0.0007096229111428914,2.9920729497770843e-05,-2.13184100710216e-10,-0.0016410992266059177
k_O2,-0.029744871725495045,-0.024194690739525584,-0.0764860236373641,-0.11963061436466546,-1.2658752551628621e-05,0.0011293741763498757,1.2122759426862764,-0.1301676216904823,0.32996819978906217,0.1655420699349141,-0.11407701319858704,0.2086832938204158,-0.00040359532941965055,-0.00011386755377919026,0.07173850900199531,-0.03422451800437912,-7.561043076327351e-12,-0.07648602363728463,-0.11963061436422183,0.0061022985909647345,0.007309922119590711,0.011260372334971113,0.0,6.881182550609544e-13,0.0,1.836736865988021e-12,0.0,6.76242536359392e-13,0.08628949382822614,-0.041267832270027054,-0.35219725514171735,0.2889298411875463,-0.05381316003951615,-0.03551257892989992,0.1371699225485605,-0.2392612289838331,-0.0017168295979101372,-0.008144099674783493,0.016050593362862478,-0.002706424086776826,0.0,-0.03220925391790256,-1.5289869006233692,0.009345270125067463,-0.006850496857680955,-0.0017440199454025979,-0.008171290022999619,0.016023402977019294,-0.0027336144770365076,-0.007355896961590283,-0.032210767879072295,-1.5289822054596351,0.00934351187703236,-1.470876426941425,8.600089336851092e-13,-0.003748653282443435,-0.017607728715337702,-0.33409935903329563,-0.024497233200680937,-0.0020427941968349465,-1.1365932536042323e-08,0.1120215600204476
k_ox1,0.0012304969444991685,0.0010008959600019528,-0.005889489177444332,-0.0066552825000863874,-1.0713651691674775e-06,0.000297761231902075,0.07577235748602308,-0.007488736501230025,0.018267740767587443,0.0030776101496624315,-0.006346319914721491,0.009814169270245624,-1.898068428250511e-05,-9.60397884878282e-06,0.00852163126482195,-0.002139176662266028,0.0,-0.005889489177678444,-0.006655282499795863,0.00046988220308738217,0.00040666510618372155,0.00019986556298259077,0.0,0.0,0.0,0.0,0.0,0.0,-0.0035696594221058635,-0.010880327204191974,-0.022013813343166877,0.01662256266109516,-0.0029792109001939506,-0.0006602181149304476,-0.005674496502485157,-0.01331056506239882,7.10225250254152e-05,0.00033690823172195046,-0.0006639876617684449,0.00011195962921809769,0.0,-0.009926881489420105,-0.09583986901101943,0.0010143658529816234,0.0002833937946058794,7.214734650634946e-05,0.00033803305036109833,-0.0006628628415743464,0.00011308444906541131,0.0003043011454811791,-0.009927389771547394,-0.09584020722696347,0.0010137929034317325,-0.10002585481023343,0.0,0.00015499972371101596,-0.0009795520050856034,-0.021031623669592315,-0.002961134507253549,-0.00011364327204590556,-9.587732862670391e-10,0.006231605212948328
k_aa,-0.0002064721781678242,-0.0001679502832075569,-0.0005126002851950851,-0.0008342608248597111,-7.312177859829006e-08,2.7402506038340408e-05,0.007665056871714283,-0.0008390943131701448,0.0021651823671320547,0.0012306824039664706,-0.0007955322208092158,0.0013268559158508145,-2.566165760349765e-06,-6.583578190041924e-07,0.00040779581533695623,-0.00021639724762526118,4.596953518241658e-07,-0.0005126002851651733,-0.0008342608245425811,4.089688328801393e-05,5.097676439266437e-05,8.395067351000503e-05,-1.1346948090886185e-09,-2.21051108255781e-08,-4.917648688802527e-08,-7.690723380702843e-08,-1.2021445936884334e-09,-2.3051079336882597e-08,0.0005989886410332139,-0.0010012996991161103,-0.002226895623074006,0.0018625168340411493,-0.00035311071037434595,-0.00026400966206816375,0.0009521564910107766,-0.001668521628873312,-1.1915548290466457e-05,-5.655214892830161e-05,0.00011139815148327018,-1.8824625374325534e-05,0.0,-0.0009094836769872649,-0.009691814564069612,9.746310277918719e-05,-4.755480540512727e-05,-1.2104168417589385e-05,-5.674171648996851e-05,0.0001112085826663694,-1.9015137825893222e-05,-5.1141576079210285e-05,-0.0009095300934022474,-0.009691841219111829,9.741068048674458e-05,-0.010021715120688519,-7.911566184542795e-08,-2.6101068468999252e-05,-0.0001227899585793082,-0.0021155513826293204,-0.00011854386322366771,-1.4245766108297743e-05,-6.55096976140768e-11,0.0007812133394082833
