,PSII,Q_ox,Hi,Ho,O2,PC_ox,Fd_ox,NADPH,NADH,ATP,CO2,succinate,fumarate,3PGA,PG,CBBa,OCP,Hi_mol,Ho_mol,pHlumen,pHcytoplasm,dpH,light_ps1,light_ps2,light_ps1_ML,light_ps2_ML,light_ps1_tot,light_ps2_tot,Q_red,PC_red,Fd_red,NADP,NAD,ADP,PSIIq,Keq_PQred,B0,B1,B2,B3,Keq_vSDH,Y0,Y1,Y2,FPS2_old,B0_tot,B1_tot,B2_tot,B3_tot,FPS2,Y0_tot,Y1_tot,Y2_tot,FPS1,FPBS,Fluo,dG0_FNR,dG_FNR,f_CBB_energy,f_CBB_gas,f_oxy_carbon,f_oxy_gas
PSIItot,0.999813870238575,-0.0009247802662287818,0.013185011309632233,0.003973768049051176,9.50199406970277e-07,-0.0005743857691674493,-0.0013354517628207817,0.009239853889897745,-0.010187816975903027,0.042654831348911,0.0038058669373624526,-0.00578916052778238,1.3518870302777583e-05,8.521070803019206e-06,0.00522182552146901,0.01864246033944392,0.0,0.013185011309762802,0.003973768049418653,-0.0009775717191943735,-0.00024135930068150898,0.003094546582252859,-0.0351264017947178,-0.8733507963534675,-0.02109949321713442,-0.9753297736987658,-0.034852218695977134,-0.9138784827251994,0.054843975282173024,0.0893875574716701,0.030093535921981662,-0.009718670719796079,0.0027674677520875966,-0.00017699575532026436,1.0831073252036092,0.007947536118686383,1.0022001788266026,0.12879819131402578,0.12972299139136773,-0.7437925554704898,0.0,0.09329287565254238,0.030084833894985622,-0.004764223884469468,0.9951076747279706,1.0038144766250259,0.08988480318524544,0.09080959591538122,-0.823233637619397,0.01156017435861933,0.09336893262203116,0.03018462745564578,-0.004745956806866725,0.08536007864902923,0.0,0.005187564276309597,0.0005934891350624406,0.11535731605027633,0.04497168561557976,7.475017194261489e-05,8.521813761303847e-10,-0.0037301665677950905
PSItot,0.0001881624875844191,0.0009348798077411522,-0.012619623812889053,-0.003355490213059165,-9.210164761859014e-07,0.0020590047912373267,0.0012589161796521932,-0.007918592498652264,0.008608681777988113,-0.04290446684524811,-0.0032137110279853607,0.004823917516669674,-1.1264833887002766e-05,-8.253670822076012e-06,-0.0057165221042527175,-0.017574049159503866,-7.799988675752937e-13,-0.012619623812461516,-0.0033554902137470175,0.0009356523895829712,0.00020380625075936058,-0.0031123152632406433,-0.9648736070563461,-0.1266492134253383,-0.9789005161852281,-0.024670236256243157,-0.9651477901657117,-0.0861215271234034,-0.055442927298444425,-0.3204282191356227,-0.0283688563899192,0.008328940476297977,-0.0023385038480362966,0.00017803161499319446,-0.08401494196118975,-0.006710980375828719,0.0003216060406062702,-0.12627584839037828,-0.12721072652464505,-0.25369338928714286,0.0,0.9087267303572716,0.8675082786946879,1.0046678395354307,-0.0006548210682028586,0.0003634999063686581,-0.08570626822361277,-0.08664114754757163,-0.17259612384633916,-0.02610325225253737,0.9120441096318506,0.8661980784989982,1.0044777249211059,0.1417937534842443,8.053763617716165e-13,-0.01171364069277459,-0.0005011482650901936,-0.11171943988317057,-0.044453704962182594,-6.311933640914717e-05,-8.255333591569264e-10,0.003149670676558347
k_Q,0.0033620431264780887,0.01670421275389226,0.004596216992511389,0.006059672488095355,1.786680995188702e-07,-0.0001028396855775342,-0.0006568666658228764,0.012925363610101829,-0.025872667867088646,-0.006825567101959773,0.005803655888678805,-0.02953752608352179,6.897611797741619e-05,1.7402160352514383e-06,-0.008658549506159002,0.009169639149518643,-3.3539951305737627e-10,0.004596216992312223,0.0060596724884007455,-0.00034077572233449027,-0.00036805326805530687,-0.0004916525485807457,6.173515179971601e-13,2.9546629972767577e-11,2.0321227137564687e-11,3.273915045039724e-11,1.210568373479685e-12,3.013059031043129e-11,-0.990641198604454,0.01600420622929888,0.014802062608491127,-0.013595166585648744,0.00702817631518923,2.832261609765332e-05,-1.5011592468203687,0.012119344991161986,3.979186136123246e-05,0.0009646094343217997,-0.015739624931798063,-0.01276373138629825,0.0,0.015300924863106578,0.014810310774335655,-0.0007820253484297664,0.0008538296077068161,6.592527931396748e-05,0.000990742852786565,-0.015713482925269234,-0.012737589380020094,0.0007388322381276717,0.015304030440979903,0.01481555689659436,-0.0007785536624971462,0.017716116418920548,3.302043083263628e-11,0.0003315487044732737,0.0009050225720803843,0.025197627866731034,0.000984946569500759,0.00011399295889116286,1.737672773477592e-10,-0.005689484264476561
k_FN_fwd,0.0005936524324363842,0.002949544730489909,0.0796853377820783,0.10350949459935704,1.598908339400159e-08,0.0004782478142921141,0.005091710483701446,0.19025446844822794,-0.2400622312687136,-0.11057402448792832,0.09913634435839294,-0.13733372132043092,0.00032070205096746204,1.153050371654034e-06,-0.3080727831184784,-0.0710785764854106,0.0,0.07968533778201019,0.10350949459869571,-0.005908082358493617,-0.006286974717720265,-0.008003801571437583,0.0,0.0,0.0,0.0,0.0,0.0,-0.1749223725894614,-0.07442629375672141,-0.11473838038294111,-0.20011361151930748,0.06521166262001939,0.0004588257034893248,-0.2650670454911222,0.20701898894150453,7.026252844396362e-06,0.00017032582060312525,-0.0027792271370923414,-0.0022537590328919766,0.0,-0.07115315674994556,-0.11203019060161588,0.0036394424056274237,0.0001507648505981452,1.1640757861694745e-05,0.00017494032606829417,-0.002774609361975409,-0.0022491412589869726,0.00013045919906981665,-0.0711675982221273,-0.1119896119136675,0.0036232983936373407,-0.08955382145207169,0.0,5.852949983719233e-05,0.015459322131327724,-1.2687217042246512,0.005087022766428548,0.0019472053752654117,1.1491957319803883e-10,-0.0971891232546273
k_SDH,6.496836030959239e-07,3.2279325912621777e-06,0.0006180119305833386,0.0007337286172097749,-1.5197773178705286e-10,-3.609627400068984e-06,-3.571274295834129e-05,0.000971916925124666,0.0004386668135654508,-0.0005389614114214631,0.0007027295065798375,-0.9923525507868911,0.0023173442716265787,-1.0026035651274732e-08,-0.00045407109335589957,0.0004985379614254244,7.799988675752936e-13,0.0006180119303344037,0.0007337286166537491,-4.582104462958832e-05,-4.456531525309966e-05,-3.887538812192775e-05,0.0,-1.5152117934752603e-12,0.0,-5.74371060533285e-13,0.0,-9.130481912251905e-13,-0.00019143212902848362,0.0005617405478945952,0.000804763408915107,-0.0010222824597487074,-0.00011916157023046676,2.2364146537168063e-06,-0.00029008507969874683,0.0014674572313480194,7.687951754168113e-09,1.864000017004461e-07,-3.041568380636677e-06,-2.4665062956697927e-06,0.0,0.0005370396334246059,0.0007879871270428847,-2.7465492935088678e-05,1.6499319112243012e-07,1.2737850392892429e-08,1.9144962527394123e-07,-3.0365038960095717e-06,-2.4614395176729934e-06,1.4276965436717554e-07,0.0005371486349741813,0.0007877675345541186,-2.7343642727407204e-05,0.0006663557463967133,-8.053763617716166e-13,6.416416619024403e-08,0.00010958363832846537,0.0010132099471432934,5.0113885423352434e-05,1.3802796590724532e-05,-1.1103340405607616e-12,-0.0006889268618164809
k_NDH,-0.0004001521559840075,-0.00198814427437029,-0.026717485262720712,-0.019743857288871274,-2.424333387317013e-08,-0.0006555927522870478,-0.0051967033949524575,0.08686596482797082,-0.684509184358504,-0.03261323924200696,-0.018909712094311363,0.09662377479605276,-0.00022563609095551822,4.995168878898814e-06,-0.13014685141885174,0.07254424303774602,0.0,-0.02671748526310746,-0.019743857288111438,0.001980905241483509,0.0011992052711728277,-0.0023428125813872843,0.0,0.0,0.0,0.0,0.0,0.0,0.11790664163456868,0.10202522062482508,0.11710432727391071,-0.0913674305871279,0.18594337707775294,0.0001353282790103025,0.17866876970128426,-0.039487714548977294,-4.7360498330235525e-06,-0.00011480832415520514,0.0018733393416381931,0.0015191469162630078,0.0,0.09754059235824346,0.1157961179890302,-0.004986669175648939,-0.00010162324659430043,-7.846464799280523e-06,-0.00011791873916804462,0.0018702275783452824,0.0015160351545110994,-8.793619963500649e-05,0.09756038972548078,0.11579736913405482,-0.0049645379203133435,0.11648912209672099,0.0,-3.944361545281817e-05,-0.0029487792499709366,0.1123490949138159,0.018966819860065647,-0.0003714186302862679,4.990951512320623e-10,0.01853826924666329
vNQ_max,-0.0025905450955780417,-0.012871047468300333,-0.20152912614758722,-0.4434676992250938,-6.832072362892907e-08,-0.002141231690223486,0.025089044394708822,-0.7652554806974116,0.9854128234438152,1.1237607466961648,-0.4247317287996739,0.5456552787269041,-0.0012742156453521413,-4.619546371965973e-06,0.5872098890173495,-0.3502346730797949,0.0,-0.20152912614811708,-0.443467699225457,0.014941904070013102,0.026935405472788873,0.08128003601748834,0.0,0.0,0.0,0.0,0.0,0.0,0.7633158221312071,0.3332246045152537,-0.5653652791963003,0.8049116492576609,-0.26768229323078335,-0.004663032913190048,1.1566837718128473,-0.8869353996013803,-3.066075179042795e-05,-0.0007432576637069693,0.012127825343621583,0.009834818960534848,0.0,0.31863068868592365,-0.5129247005582204,-0.016231303553089313,-0.0006578986830645596,-5.0797257866024346e-05,-0.0007633941692782706,0.012107674714805103,0.009814668331371804,-0.0005692900804059185,0.3186953649000359,-0.5115789409978149,-0.016159004455164067,0.2324860112093273,0.0,-0.00025543088251760285,-0.06623266811953991,-0.13062478501899555,0.6118788426425531,-0.008342449062495406,-4.6189896087327685e-10,0.4163892111889399
kRespiration,0.0002823391710188777,0.0014027939064935274,0.26701273695102223,0.31691550780838323,-6.529848291199918e-08,-0.0015556941994718787,-0.015391325362510996,0.4191179490551675,0.18838053373641808,-0.23242660256141176,0.30352622630596465,0.5025494478258211,-0.0011735547733433443,-4.321400412200354e-06,-0.19662548906129781,0.21485775995643694,0.0,0.26701273695125893,0.31691550780856925,-0.01979703275432924,-0.019248860167634767,-0.01676499530630671,0.0,0.0,0.0,0.0,0.0,0.0,-0.083192513014417,0.24210158421090103,0.3468334952849892,-0.4408369859697553,-0.05117259697679497,0.0009644516423321665,-0.12606502694050079,0.6338310141829004,3.341691668979167e-06,8.100643601998316e-05,-0.0013218029074120064,-0.0010718919823405361,0.0,0.23145586933375942,0.3396036055384047,-0.011837206337846028,7.170321039995718e-05,5.53633615021814e-06,8.320108072523852e-05,-0.0013196021285709124,-0.0010696912019315407,6.204590994987107e-05,0.23150284649678407,0.3395089755361511,-0.011784690968569806,0.28718843464922383,0.0,2.7885026331081844e-05,0.047331879539421334,0.43713366386869423,0.021600030858865214,0.0059617685777942795,-4.3247510879841673e-10,-0.2975645246215746
kATPsynth,3.032823843921534e-07,1.506850039941362e-06,-0.00043061103946535727,8.690752178081662e-05,-6.412562522660459e-13,1.765865164034699e-08,2.1683868864462337e-07,2.6291583665496888e-05,-9.113040362979784e-05,-1.60572642884409e-05,8.323578636672578e-05,-4.887285678168429e-06,1.1413593409904927e-08,2.2167662021640376e-11,-0.00011963119604515485,-3.0269904955136445e-06,0.0,-0.0004306110389819755,8.690752164956911e-05,3.192664392245958e-05,-5.278602308878712e-06,-0.000173862012012629,0.0,0.0,0.0,0.0,0.0,0.0,-8.936354868545686e-05,-2.7480899129197476e-06,-4.8863186583535836e-06,-2.7654035160263908e-05,2.4755102477172143e-05,6.66298596067322e-08,-0.0001354162152598365,0.00017381507802819463,3.5911974180467836e-09,8.701474653894163e-08,-1.4198391529690007e-06,-1.1513934554724078e-06,0.0,-2.6271968874534284e-06,-4.747443294291216e-06,1.3441835495711154e-07,7.702422778650603e-08,5.947822581432845e-09,8.937108420393677e-08,-1.4174825873010933e-06,-1.1490339997123493e-06,6.66452961261334e-08,-2.6277294996105467e-06,-4.74502597212207e-06,1.3382428898740593e-07,-3.4084984398837662e-06,0.0,2.9906635319443266e-08,1.297979083637187e-05,5.4832855725409545e-05,-2.0484888593134734e-08,1.6348910451227614e-06,0.0,-8.160089537054297e-05
vCBB_max,1.3112904919189635e-05,6.51510832311582e-05,-0.2180175971068492,-0.014982008351899005,2.4033001822426866e-08,0.00012561191018573182,0.0030476031674868628,-0.07936142319583131,0.07842425087010108,-0.9435941570542281,-0.014349036572242485,0.0654156552558637,-0.00015275881977053928,-2.550895393005091e-07,0.09195648202294746,-0.042543521684249797,-7.799988675752938e-13,-0.21801759710690463,-0.01498200835235407,0.016164403053803372,0.0009099793984913062,-0.06821045423304149,0.0,1.5152117934752605e-12,0.0,5.74371060533285e-13,0.0,9.130481912251905e-13,-0.0038637766492440224,-0.019548085004139532,-0.06867575299237441,0.0834739974338714,-0.021303541843712092,0.003915433622425451,-0.005854939312672766,-0.029964016694780122,1.551985983500812e-07,3.7622459482084357e-06,-6.138827445555444e-05,-4.978145969127334e-05,0.0,-0.018686226313430525,-0.06565845127066981,0.0009581635666453386,3.3301784818812396e-06,2.5712377917412786e-07,3.864172410842789e-06,-6.128657274234537e-05,-4.967976022732562e-05,2.8816546701405198e-06,-0.018690018717516785,-0.06559324009605158,0.0009539239963172237,-0.02953824858548484,8.053763617716166e-13,1.288770779826797e-06,-0.002237588870728073,0.01061856926824936,-0.9238259612360797,-0.0002818394295949947,-2.5537682932897522e-11,0.014067221189267225
vOxy_max,-5.610187530552078e-07,-2.787404197938445e-06,-8.870669934859961e-05,0.0001349844618355419,-1.9956535826771613e-08,-2.002503044837145e-06,3.37140930554476e-06,-0.00019079781765609234,0.0019390822305916913,-0.0010401755089822244,0.00012928185962580316,-0.0003150677623666223,7.357374909727429e-07,-1.9334066413684438e-07,1.0005069446487194,-4.7063741776141325e-05,7.799988675752937e-13,-8.870669978924194e-05,0.00013498446155905174,6.576949647103876e-06,-8.198706082226374e-06,-7.514975938183107e-05,0.0,0.0,0.0,0.0,0.0,0.0,0.00016530664906656026,0.0003116352556349486,-7.597251347350248e-05,0.00020068511753011897,-0.0005267416517209972,4.316196754662434e-06,0.00025049603979074563,0.00026996895360344056,-6.64063092388636e-09,-1.609619020052953e-07,2.6264409471434966e-06,2.1298571326260104e-06,0.0,0.00029796139238384575,-5.4020281299392364e-05,-1.5206279018090528e-05,-1.424774518723356e-07,-1.100105396159327e-08,-1.653238179119737e-07,2.6220788085386757e-06,2.1254968926984794e-06,-1.2328914783940668e-07,0.0002980218737087915,-5.340260448705841e-05,-1.51386690534892e-05,0.00028810837665006083,0.0,-5.528212370040136e-08,2.0160164255675217e-05,0.0008862170563275102,-0.001077064731254933,2.5393875752323574e-06,-1.943084570981333e-11,-0.000126762428421233
k_O2,-6.53683324586704e-08,-3.247814504348112e-07,-2.6829639255848018e-05,-4.0880335803765696e-05,-6.893504711859992e-10,1.4375001612428753e-07,3.103487251109331e-06,-7.206282276691978e-05,9.158442070439718e-05,6.535628053248651e-05,-3.915318095627046e-05,5.0651074034662576e-05,-1.1829619529564941e-07,-6.524113453445852e-09,4.657904059023316e-05,-4.3323643703145527e-05,-7.799988675752937e-13,-2.68296395568926e-05,-4.088033571487744e-05,1.9892205594482813e-06,2.4829964745088566e-06,4.72038060235224e-06,0.0,1.5152117934752605e-12,0.0,5.74371060533285e-13,0.0,9.130481912251905e-13,1.9261122333841513e-05,-2.237078896729644e-05,-6.993506442898333e-05,7.57971775264152e-05,-2.487843361279626e-05,-2.711950667257114e-07,2.9187096366118146e-05,-8.176067808271701e-05,-7.737568746127684e-10,-1.8754763744134103e-08,3.060296113184864e-07,2.48170010531144e-07,0.0,-2.138496686639124e-05,-6.70000751664424e-05,1.0960118176001366e-06,-1.6601413365560633e-08,-1.281441450471304e-09,-1.926223198837825e-08,3.0552159100443925e-07,2.47660048267517e-07,-1.4363534472836386e-08,-2.1389306889193014e-05,-6.693770141239618e-05,1.0911582925114884e-06,-3.24515081213699e-05,8.053763617716165e-13,-6.44998067042059e-09,-6.105550122119769e-06,-9.421085033981548e-05,1.993410522667864e-05,-7.690314436643843e-07,-5.551670202803808e-13,3.838346018849287e-05
k_ox1,1.9589562700435958e-05,9.733017006530871e-05,-0.005247905626568095,-0.007037075921244587,-1.7199775198279883e-07,8.540765898982015e-05,0.0005973055823703337,-0.012558569110629192,0.01579830949614764,0.008333693178662132,-0.006739765471410589,0.008670908229077765,-2.0248312847567262e-05,-1.5989261783445859e-06,0.007411841366731328,-0.008338186321437145,7.799988675752937e-12,-0.005247905626138367,-0.007037075920731294,0.0003890936465020076,0.00042741894020455586,0.0006010774788444938,0.0,-1.5152117934752603e-12,-9.676774827411755e-13,-1.14874212106657e-12,0.0,-1.826096382450381e-12,-0.0057721532738144775,-0.013291384355742484,-0.01345989237491768,0.013209364493463667,-0.0042915290059053505,-3.4580568707341735e-05,-0.008746780479205874,-0.014074151886607014,2.3185349842816156e-07,5.620470691211746e-06,-9.17095198088651e-05,-7.436993239916365e-05,0.0,-0.012707248312681517,-0.013396922974247714,0.000649535250108794,4.974996995673309e-06,3.8412416384906084e-07,5.772741751206448e-06,-9.155732126091311e-05,-7.42177318743266e-05,4.3049406450920725e-06,-0.012709827453550038,-0.013399628117516767,0.0006466520600277933,-0.014895290757726483,-8.053763617716165e-13,1.9296177373377137e-06,-0.001050999467936554,-0.022610967360991153,0.0006278748451361123,-0.0001323797576808661,-1.598881018407497e-10,0.006607213715502544
k_aa,-4.564486589304161e-06,-2.2678517653395323e-05,-0.001803729986337913,-0.0028134854282443433,-4.414472166224686e-08,2.428638001746054e-05,0.0002100900425997489,-0.0049600408046913645,0.006303478359932882,0.0046960997016783825,-0.0026946184395572545,0.0034859782284936656,-8.140461036121741e-06,-4.1956392867404567e-07,0.0032412479305121886,-0.002932786779528447,7.799988675752938e-13,-0.001803729986112475,-0.00281348542867262,0.0001337333266704033,0.00017088588631949966,0.0003392305640007618,0.0,-1.5152117934752607e-12,0.0,-5.743710605332851e-13,0.0,-9.130481912251907e-13,0.0013449465857346035,-0.0037795159736220703,-0.004734242313980654,0.005217074199652871,-0.0017123072712008974,-1.9486414425609772e-05,0.0020380527532671325,-0.005626970854055872,-5.40261992450593e-08,-1.3096084897346703e-06,2.1369058711973432e-05,1.7328827860257327e-05,0.0,-0.003613360998729117,-0.004662078124570476,0.00018475401373179855,-1.1592059434205655e-06,-8.950478994832797e-08,-1.3450863150755042e-06,2.133352192808007e-05,1.729329248134342e-05,-1.0030749268286846e-06,-0.003614094382633551,-0.004661563760135933,0.00018393416922279362,-0.004377173769779346,-8.053763617716167e-13,-4.5076876200225445e-07,-0.0004201989173773802,-0.006084430583576596,0.0015561348342679152,-5.292670059477133e-05,-4.163752652102857e-11,0.0026416475947136546
