,PSII,Q_ox,Hi,Ho,O2,PC_ox,Fd_ox,NADPH,NADH,ATP,CO2,succinate,fumarate,3PGA,PG,CBBa,OCP,Hi_mol,Ho_mol,pHlumen,pHcytoplasm,dpH,light_ps1,light_ps2,light_ps1_ML,light_ps2_ML,light_ps1_tot,light_ps2_tot,Q_red,PC_red,Fd_red,NADP,NAD,ADP,PSIIq,Keq_PQred,B0,B1,B2,B3,Keq_vSDH,Y0,Y1,Y2,FPS2_old,B0_tot,B1_tot,B2_tot,B3_tot,FPS2,Y0_tot,Y1_tot,Y2_tot,FPS1,FPBS,Fluo,dG0_FNR,dG_FNR,f_CBB_energy,f_CBB_gas,f_oxy_carbon,f_oxy_gas
PSIItot,0.9995976184435768,-0.0016995538494763663,0.015924037498377647,0.0011214521589136747,1.59682856547894e-06,-0.000605436463753977,-0.002677323144016948,0.004696418477596358,-0.004030256086823298,0.0684639510726485,0.0010735224696293763,-0.0021458339551999077,4.919459535695207e-06,1.4263126959396342e-05,0.009327523303800562,0.019127528901677134,-1.7013791289458384e-12,0.015924037498610228,0.0011214521585090622,-0.0011853662433697208,-6.816266716007187e-05,0.004903577677378256,-0.0351484470250566,-0.869201373081955,-0.021603800123949263,-0.9744166502580641,-0.03499193860626069,-0.8989439400831744,0.07915288628789917,0.10698212193939247,0.05172796441635267,-0.00525818192049753,0.0010513548420106444,-0.0003455494625448726,1.1244537137251138,0.0022429043267802673,1.0035403360671358,0.13422842582152647,0.13592799527852809,-0.7336288778470859,0.0,0.11477403341992698,0.05359442253136997,-0.004469030839406048,0.9921433659335577,1.0050965237929408,0.10604204687435716,0.1077416122701034,-0.7915578280602978,0.006913752381943628,0.11482625195577334,0.05365693205379425,-0.00445351999500217,0.11499001550679953,0.0,0.0031150765615027927,0.00016720283289468614,0.1488227191633648,0.06546259007802352,2.0852955607186385e-05,1.425668902299431e-09,-0.0010510726640606274
PSItot,0.00040109365458407156,0.0016941138583710408,-0.014946550030041205,-0.0003990907890391257,-1.5346077531849814e-06,0.00248815558194107,0.0025216653096057453,-0.0033244094886396456,0.002248159613365261,-0.06728871634613977,-0.00038201973540620717,0.0010876930938061497,-2.4936118927611096e-06,-1.3700499273482115e-05,-0.010057687848456743,-0.018015466695059164,-5.671263763152795e-13,-0.014946550029897795,-0.00039909078880687225,0.0011126032607922983,2.425702598115118e-05,-0.004819063385500925,-0.9648515618252761,-0.13079863668908495,-0.9783962092649239,-0.025583359695784534,-0.9650080702505236,-0.10105606973937412,-0.07889953097497415,-0.4396632509064846,-0.04872053405160838,0.0037220596829015814,-0.0005864673228381823,0.0003396178491556058,-0.12405537518149412,-0.0007981816269038998,0.0005401937151897335,-0.13014825099905417,-0.1318423639926607,-0.26228663745385034,0.0,0.8886004282092141,0.8364784624777529,1.0043462423478207,-0.0010680649161090296,0.000582943423809275,-0.10036293434150059,-0.10205704793283606,-0.20275875431320028,-0.02787812733579195,0.8910596379701696,0.8358436259439721,1.0042339841330599,0.2129548148421664,0.0,-0.012560765430690604,-5.950241788274954e-05,-0.14265946228588888,-0.06361489149176039,-7.417144913603298e-06,-1.3701522004964932e-09,0.0003730679823768369
k_Q,0.005028019519110797,0.02123702808279524,0.005130919670794515,0.005812014504428543,2.3734453644350825e-07,-9.74653678009882e-05,-0.0009703699416556081,0.012700492988733587,-0.029246880277394145,-0.003197361502284065,0.005563734066878542,-0.03596913208290045,8.246140614897649e-05,2.2879214191584913e-06,-0.011416381585314456,0.006932587735701078,-3.289332982628621e-11,0.0051309196707162085,0.005812014504209239,-0.0003819395109758134,-0.00035325842407561264,-0.0002256228526332786,0.0,2.8167387442657853e-12,2.9724189163856076e-12,4.169412445528596e-12,0.0,3.3674911190099204e-12,-0.9890666714963589,0.017222371771763903,0.018748301610446827,-0.014219666099462154,0.007629502572931769,1.6137639532508068e-05,-1.5551301815282732,0.011624028903896275,8.102208965183955e-05,0.0014623637930549413,-0.01977468086815324,-0.015332459370367478,0.0,0.0166382445599215,0.018904791839155197,-0.0006487134638231431,0.00124394827349046,0.00011277020646795567,0.0014941119092992993,-0.019742928070498086,-0.015300706569296779,0.0010589042485588576,0.01664044718888951,0.01890609006386741,-0.0006462571091300547,0.020179881984308402,4.180090849583332e-12,0.0004771026584307916,0.0008665419292359198,0.027284170636371854,0.004185961813139935,0.00010810361635187975,2.287288114281018e-10,-0.005455393210913213
k_FN_fwd,0.0013965317966415358,0.005898582095402795,0.1285053995174909,0.17463347774893107,3.1795264721955416e-08,0.0005843837553543538,0.009652944310021795,0.3147375784893787,-0.4204460283995441,-0.21391964499050026,0.1671735139019922,-0.24723474350690755,0.0005668005887158848,2.0655495675545684e-06,-0.46325849821915,-0.06896327403502495,-7.542780804993218e-11,0.1285053995173771,0.1746334777492362,-0.009565787821367508,-0.010614348320015496,-0.015280615637655322,0.0,1.0328042062307881e-11,6.9356441382330845e-12,1.0125715939140878e-11,0.0,1.0102473357029761e-11,-0.27471315369095517,-0.10326205624794414,-0.186502387990667,-0.352385004191754,0.1096798709890478,0.0010796896361767263,-0.43193721467597584,0.34926695606183294,2.2503899158158253e-05,0.00040617139460557596,-0.005492421019547156,-0.004258594542153361,0.0,-0.09975480842309213,-0.18289632533147626,0.003894737526619887,0.00034550642565290543,3.132193463356654e-05,0.00041498943129974976,-0.005483600068121193,-0.004249773589839378,0.000294110482991736,-0.09976801401431605,-0.1828468539905237,0.0038800106530233057,-0.1343065713983528,1.0868236208916668e-11,0.0001325008611859955,0.026036966816153594,-1.317080381457452,-0.019865720078527594,0.003248214995000375,2.0652213070692688e-10,-0.16392526665162388
k_SDH,7.443911396979947e-07,3.1441125688266935e-06,0.0005296027047910355,0.000593465412495474,-1.4171698976568877e-10,-2.598204770840484e-06,-3.9726379959467134e-05,0.0007581709948446989,0.0006525287398175924,-0.00029776482035677487,0.0005681138850665789,-0.9903555961263502,0.002270450068675722,-1.0292766980529664e-08,-0.00041163770198044476,0.00028381612573984724,0.0,0.0005296027046317185,0.0005934654124276732,-3.9422990177279094e-05,-3.6071254592015764e-05,-2.115547792576621e-05,0.0,0.0,0.0,0.0,0.0,0.0,-0.00014642994966789047,0.0004591092150183397,0.000767544542961159,-0.0008488598357994659,-0.00017022224747144097,1.5028705621518675e-06,-0.00023023481189892158,0.0011869308336076396,1.1995214346864394e-08,2.1650090035802065e-07,-2.927633350396731e-06,-2.2699686931538514e-06,0.0,0.0004435198880263486,0.0007552934295081521,-1.7311926980463798e-05,1.84163892192692e-07,1.6695330517794064e-08,2.2120097804242303e-07,-2.9229266692844905e-06,-2.265261791061669e-06,1.5676769394856053e-07,0.000443578601737321,0.0007551211217722165,-1.724645049814516e-05,0.0005860562443284353,0.0,7.069352816264628e-08,8.848268760979333e-05,0.0008945914088940672,0.0001517883756881754,1.1038568236036865e-05,-1.1103340360587465e-12,-0.0005570754616062959
k_NDH,-0.0005325145021635555,-0.0022492008682041854,-0.029192578751247863,-0.027458981186489543,-2.429837183801574e-08,-0.0004503634541369009,-0.005560526252050338,0.067829847723329,-0.6713876983022625,-0.008254884585523961,-0.02628600160231426,0.1013034112898732,-0.00023224419481629718,4.849819482701469e-06,-0.13876439891827608,0.03972592066778086,-5.671263763152795e-13,-0.029192578751528305,-0.02745898118634864,0.002173060558009197,0.0016689766197528631,-0.0005742801207648448,0.0,0.0,0.0,0.0,0.0,0.0,0.10475145616272258,0.0795803372475737,0.10743368978266074,-0.07594333440904306,0.17514189969564065,4.166383761440553e-05,0.1647028956964953,-0.054917962300484735,-8.581003096622501e-06,-0.0001548780656180064,0.00209432544349345,0.0016238524554483976,0.0,0.07687984441867397,0.10688088604386227,-0.002998998180750777,-0.00013174579791811483,-1.19434282069088e-05,-0.00015824049217843608,0.0020909622717667593,0.0016204892826091795,-0.00011214790608196598,0.07689002196387526,0.10687080937549383,-0.0029876482321814246,0.0969837854789649,0.0,-5.0519500021082856e-05,-0.004093994992035423,0.08150816724215719,0.030451460822235363,-0.0005107422291339244,4.852159737576723e-10,0.025775235114936484
vNQ_max,-0.003534318866803147,-0.014928031128630366,-0.2351890016938339,-0.43727356181918925,-7.582820832485385e-08,-0.0015057068695963466,0.03230724916801873,-0.7493639600767638,1.0170044545418744,0.9376631061454417,-0.4185941831017592,0.5836145696847004,-0.001337971675816737,-4.879100071567171e-06,0.6970376972704964,-0.23081182323810137,1.134252752630559e-12,-0.23518900169364595,-0.43727356181904997,0.017507187253270686,0.026577801478522362,0.06694353217769118,0.0,0.0,0.0,0.0,0.0,0.0,0.6952393716684818,0.2660621313248068,-0.6242011686516588,0.8389993450423368,-0.26530139384140944,-0.0047325486980727,1.093139340453953,-0.8745471242200602,-5.695248529068857e-05,-0.0010279316181286964,0.013900125474846172,0.010777578478682907,0.0,0.2570990000476402,-0.565733824334055,-0.009957905296486883,-0.0008744017739599641,-7.92690203399046e-05,-0.0010502481518897095,0.013877801599506964,0.01075525460417936,-0.000744329760739924,0.25713303956403305,-0.5650075851927235,-0.009919945914733785,0.14756362211534962,0.0,-0.00033535058846447864,-0.06519527288160962,-0.2410386996065937,0.44038651090713365,-0.008133369203516195,-4.874366418297898e-10,0.4104607383304764
kRespiration,0.0003685030080670278,0.0015564595513142022,0.24075218661962747,0.26909739789696385,-6.212911306528637e-08,-0.0011426343878654707,-0.017466717957369662,0.33533572398759964,0.2789244874758446,-0.13215679009636253,0.25760215300720746,0.5444120132130473,-0.0012480974970175867,-4.5270384466029095e-06,-0.19151088831726568,0.12478701159191823,-5.671263763152794e-13,0.24075218661927378,0.269097397896784,-0.017921304164074604,-0.016355933413242003,-0.009389775157215927,0.0,0.0,0.0,0.0,0.0,0.0,-0.07248859217661452,0.20190632499538458,0.3374705690601413,-0.37544700277028686,-0.0727617809081438,0.0006670182929965735,-0.11397532321639411,0.538194792827431,5.938136106803061e-06,0.00010717652096783153,-0.0014492931251608003,-0.001123723192062131,0.0,0.19505048075506062,0.3320876348748854,-0.00761340633094832,9.116875576152436e-05,8.26495271313165e-06,0.00010950333798858704,-0.0014469634552829642,-0.0011213935220852943,7.76069033020882e-05,0.1950763017531441,0.33201191912719497,-0.007584610794341555,0.25772115362937004,0.0,3.4993012567653124e-05,0.04012105903477388,0.39921664598915674,0.06671621327770322,0.0050052621125188665,-4.5301628671196867e-10,-0.252596955870796
kATPsynth,5.873650372634478e-07,2.480877115988648e-06,-0.0005662465302522468,0.00011499373518051132,6.41253347356058e-13,4.200933900325287e-09,1.2271055182266082e-07,2.6080493987477142e-05,-0.00011614196643422263,-1.6777441183007477e-05,0.0001100814539649458,-2.2726784541617814e-06,5.209424693583488e-09,1.0799192259653412e-11,-0.00014918510006517205,-8.766778535897784e-07,5.671263763152795e-13,-0.0005662465306832327,0.00011499373494395845,4.215071277016323e-05,-6.989401268430779e-06,-0.0002256710208974801,0.0,0.0,0.0,0.0,0.0,0.0,-0.00011554125473376556,-7.423154198498261e-07,-2.370863252864563e-06,-2.920011975440133e-05,3.0297434235349255e-05,8.467882822888251e-08,-0.0001816677706900402,0.00022998747745511187,9.46414487685365e-09,1.7083126491710397e-07,-2.3100542586800785e-06,-1.7911192457871747e-06,0.0,-7.170334273505792e-07,-2.2817610804086864e-06,2.8071277448994092e-08,1.4531604712423132e-07,1.3172098526649257e-08,1.7453881151772896e-07,-2.3063431759300636e-06,-1.7874090569762263e-06,1.2369550223691593e-07,-7.171299379580239e-07,-2.2806039997429186e-06,2.79634559089435e-08,-1.145299772753255e-06,0.0,5.5732785532547965e-08,1.7144983311064813e-05,8.146307152274014e-05,-7.753941383419927e-07,2.138904986135421e-06,0.0,-0.0001079425487672883
vCBB_max,1.1684352218374303e-05,4.935162688230312e-05,-0.22739514548469303,-0.018296351554591247,3.121108292251405e-08,0.00011979809813045909,0.004159756510469497,-0.08776394857061151,0.09356018277046224,-0.9708819413316652,-0.017514770969551553,0.07784779069997312,-0.00017847076886485263,-2.6725897842044256e-07,0.13032580692093293,-0.029718438251918673,-1.7013791289458386e-12,-0.22739514548489503,-0.018296351554563946,0.016927021929902586,0.0011120654024601557,-0.06926710191220872,0.0,0.0,0.0,0.0,0.0,0.0,-0.002298440683089452,-0.021168620506986917,-0.08036972945724305,0.09826185844529997,-0.024406625542799404,0.0049002099343531886,-0.0036138858883376385,-0.03659270307718008,1.8828094591880393e-07,3.3983079325851445e-06,-4.595275205352989e-05,-3.562970467229244e-05,0.0,-0.0204468329614416,-0.07704604035258684,0.0008013606753041737,2.8907529463328875e-06,2.6205769954448265e-07,3.472084753225127e-06,-4.5879135149595846e-05,-3.555608900006586e-05,2.4607331619432194e-06,-0.020449539548112166,-0.0770033367344691,0.0007983422344273575,-0.035103407376767155,0.0,1.1051142754064888e-06,-0.0027278933284634608,-0.001979069079797695,-0.9401851358180779,-0.00034031564844636594,-2.6648016865409923e-11,0.01717448653783362
vOxy_max,-8.630255987005596e-07,-3.6451946748343853e-06,-6.844250711336609e-05,0.00015061839691124228,-2.581878352459696e-08,-1.864255209896104e-06,2.6475229090359744e-06,-0.0002607133565173571,0.0026345502813120304,-0.0010179472587717997,0.00014418472417047798,-0.0003810113709332195,8.734858205138957e-07,-2.5046850797084145e-07,1.0007252599782313,-1.8914627353201972e-05,0.0,-6.844250697304687e-05,0.00015061839677550827,5.094778524847914e-06,-9.15469428749518e-06,-7.256720063650262e-05,0.0,0.0,0.0,0.0,0.0,0.0,0.0001697667182968738,0.0003294185106635685,-5.115220071067538e-05,0.0002918986594170403,-0.0006872633243316409,5.137757343642975e-06,0.00026692759462638294,0.0003012367603297737,-1.3908458422232024e-08,-2.5100644200208326e-07,3.3941858208556835e-06,2.6317086047327115e-06,0.0,0.00031827297878621216,-2.3026643271577494e-05,-1.2379553996099252e-05,-2.1351741434854385e-07,-1.9356251815420803e-08,-2.564550907354438e-07,3.388739501273991e-06,2.6262616158434487e-06,-1.8175228711370462e-07,0.000318315115673363,-2.2685162369086716e-05,-1.2332564766578962e-05,0.00031236901622340836,0.0,-8.185827518036717e-08,2.24564375362456e-05,0.000886634318776066,-0.001080336680882169,2.8016326471492463e-06,-2.49825158113218e-11,-0.00014140891079633352
k_O2,-1.2246436393999277e-07,-5.172562655348722e-07,-4.492024149384901e-05,-6.094444102086119e-05,-1.2542915474284492e-09,2.141225461274749e-07,6.486851325173816e-06,-0.00010587692457060213,0.0001420802258207613,7.452242940957238e-05,-5.834100905103714e-05,8.095493332702971e-05,-1.8560863600662868e-07,-1.1775098212802092e-08,8.8315964943628e-05,-4.6343843756594344e-05,0.0,-4.492024189638271e-05,-6.0944440952096164e-05,3.3438080627501903e-06,3.704246653670382e-06,5.3082578852547164e-06,0.0,0.0,0.0,0.0,0.0,0.0,2.4090043619506073e-05,-3.783598397385465e-05,-0.00012533101029385386,0.00011854142326344648,-3.7063831706225226e-05,-3.761272150667183e-07,3.787734470816575e-05,-0.00012188888046674698,-1.9730119668059333e-09,-3.561667362659437e-08,4.816436082336157e-07,3.7344551727460225e-07,0.0,-3.654710587981044e-05,-0.00012051395329159096,1.4310425269864074e-06,-3.029718282224186e-08,-2.7470178411293247e-09,-3.639023021263632e-08,4.808684623674956e-07,3.726706312924487e-07,-2.578998870929327e-08,-3.6551945911946796e-05,-0.00012045177522039447,1.4256452931473338e-06,-5.944390503133291e-05,0.0,-1.1625925574694137e-08,-9.08650749759857e-06,-0.00014909718886164475,9.032471441819002e-06,-1.1335730743472128e-06,-1.1103340360587467e-12,5.7206182150920955e-05
k_ox1,3.319596205304425e-05,0.00014021099321782904,-0.005943171765633862,-0.0071470744403385605,-2.2056870762332643e-07,7.958634734259717e-05,0.0008846462577942448,-0.012638505797851179,0.016734053612819155,0.005616154038707514,-0.006841763660163714,0.009458084739882517,-2.1683244096154865e-05,-2.036743006391213e-06,0.00984466734246392,-0.006320154846320665,0.0,-0.005943171765566646,-0.007147074440958425,0.00044240257967911905,0.00043440432402629744,0.00039881076600173674,0.0,0.0,0.0,0.0,0.0,0.0,-0.006530010688336564,-0.014063104596185042,-0.017092053399121017,0.014150264292967448,-0.0043653375636895616,-2.8345705153311878e-05,-0.010267271695613077,-0.014294148878720601,5.349232999221351e-07,9.654810984882191e-06,-0.00013055605595896962,-0.00010122764647676527,0.0,-0.013586010822936458,-0.017110481557103777,0.0005298381847629936,8.212791326277104e-06,7.445306220065341e-07,9.864416886540289e-06,-0.00013034648391086292,-0.00010101807431893112,6.9910902341985435e-06,-0.013587809381771015,-0.01711016383867239,0.0005278324440240567,-0.016798424917770276,0.0,3.1481904037410435e-06,-0.0010655925943037893,-0.02428100192923978,-0.001931473816629367,-0.00013293604700767578,-2.0374629561678e-10,0.006708607054118312
k_aa,-4.200758228926002e-06,-1.7742895977416985e-05,-0.0014750581062348252,-0.0020496974204721194,-3.9377444301093444e-08,1.5909013435879728e-05,0.00021511225828702853,-0.0035860375815901626,0.0048006824076256265,0.002671658887531481,-0.0019621382098458377,0.002744489094628256,-6.291918997838504e-06,-3.711511866080883e-07,0.002995242806488886,-0.0015368208127619662,0.0,-0.0014750581064930405,-0.0020496974204802622,0.00010980155667404328,0.00012458208336476182,0.0001903578671400736,0.0,0.0,0.0,0.0,0.0,0.0,0.0008263353515695942,-0.0028111620578312718,-0.004156136052182962,0.004014982495212535,-0.0012523325037685587,-1.3484327079885518e-05,0.0012992642296387484,-0.004099394846742042,-6.76908305752568e-08,-1.221758700720042e-06,1.6521216271753757e-05,1.2809875272574177e-05,0.0,-0.002715743565273291,-0.004114462956694173,0.00010596432715363356,-1.0392791756259763e-06,-9.421652376167159e-08,-1.2482843065763924e-06,1.6494668045293117e-05,1.2783327226164101e-05,-8.84684186750585e-07,-0.0027161030820077783,-0.00411382798425092,0.00010556339619133586,-0.0034908058215145314,0.0,-3.9896171117154263e-07,-0.0003055995023107145,-0.0047502641568011005,0.00044137622598587866,-3.812459969864524e-05,-3.7196190207968014e-11,0.0019239742352535495
