,PSII,Q_ox,Hi,Ho,O2,PC_ox,Fd_ox,NADPH,NADH,ATP,CO2,succinate,fumarate,3PGA,PG,CBBa,OCP,Hi_mol,Ho_mol,pHlumen,pHcytoplasm,dpH,light_ps1,light_ps2,light_ps1_ML,light_ps2_ML,light_ps1_tot,light_ps2_tot,Q_red,PC_red,Fd_red,NADP,NAD,ADP,PSIIq,Keq_PQred,B0,B1,B2,B3,Keq_vSDH,Y0,Y1,Y2,FPS2_old,B0_tot,B1_tot,B2_tot,B3_tot,FPS2,Y0_tot,Y1_tot,Y2_tot,FPS1,FPBS,Fluo,dG0_FNR,dG_FNR,f_CBB_energy,f_CBB_gas,f_oxy_carbon,f_oxy_gas
PSIItot,0.9999500510980224,-0.000300401291471625,0.006222700243331583,0.0024240637238969434,3.100694231646778e-07,-0.0007782550622303646,-0.00035744865924386144,0.0054412747734882225,-0.005467990614217424,0.01761996118208226,0.0023249153268199165,-0.002907988648663171,7.1036264014252745e-06,2.7893115484641165e-06,0.0025665262151110496,0.009723172747283286,0.0,0.0062227002434685035,0.002424063724035592,-0.00045857270894193936,-0.0001469309491888232,0.0012972308343961213,-0.03509256202599827,-0.8792407103032374,-0.02036847674818358,-0.9766131322354406,-0.03423431152323071,-0.9440475106106058,0.024206560529611957,0.06372190515947544,0.009491318315219441,-0.004930469518889567,0.001648042957153364,-5.839317442695524e-05,1.0348908065928426,0.004848127451447256,1.0007729225580813,0.12151846709772661,0.12181891214757966,-0.7574660763098913,0.0,0.06071800673674127,0.005015001252990094,-0.006977384448427018,0.9982755841248097,1.0024771313530794,0.058415876288055404,0.05871629326825164,-0.8853754960203508,0.016240311319072956,0.06083819858157146,0.005241988626855533,-0.00695114686267154,0.0445789384891225,0.0,0.007254975370658438,0.0003638783104808656,0.058156113091633474,0.019829308988999324,4.713980175311336e-05,2.792490124197439e-10,-0.0022774654537304055
PSItot,5.226203830291412e-05,0.00031431289091260413,-0.005953568368642865,-0.0019186318770047749,-3.002985542237179e-07,0.0018894216755426293,0.0003230278512784949,-0.004360856876912618,0.004323647440766628,-0.018719943740535597,-0.0018401556689663814,0.0022629767936390246,-5.527976329856489e-06,-2.6972043029269415e-06,-0.002834859412236005,-0.008786871943260761,9.221806619376824e-13,-0.005953568368386665,-0.0019186318772096414,0.00043873943380053337,0.00011629496434302988,-0.0013779270567614227,-0.9649074468272587,-0.12075929948540011,-0.9796315326757993,-0.023386877722808532,-0.9657656973632933,-0.05595249929055525,-0.025327567607451314,-0.15470191542364395,-0.008577344135661948,0.003951476961358081,-0.0013031398955027965,6.203855485745035e-05,-0.0365066022063576,-0.0038372637898874866,0.0001064553974640865,-0.12063845325716872,-0.12095276131717453,-0.24166573120996862,0.0,0.9403006106316061,0.903090336712514,1.006865380042689,-0.00022111823882002215,0.0001476482472782774,-0.05579046021347917,-0.05610477254207428,-0.11201094202737776,-0.023929777839950876,0.9448506279410153,0.8981663662046157,1.006306519979035,0.044841453483687385,0.0,-0.010690023841311083,-0.00028800749897445356,-0.05645936207083194,-0.020234469416484213,-3.7310644649237807e-05,-2.6925600601108504e-10,0.0018025447242527711
k_Q,0.0020451648632790072,0.012299973229037583,0.003783449127986619,0.00577614477725673,1.2306408469249878e-07,-0.0001939470485910962,-0.0004150685061689033,0.012409051615482334,-0.02057365411396491,-0.00928460902110901,0.0055398999042128045,-0.021745717518641856,5.312035930496118e-05,1.2124563547480623e-06,-0.004953045496878817,0.011290524336912595,0.0,0.0037834491281955036,0.005776144776969024,-0.0002788156992780622,-0.0003501122621241918,-0.0006805037072402472,0.0,0.0,0.0,0.0,0.0,0.0,-0.9911410334580019,0.015879980787871603,0.0110212955421495,-0.011244139157714494,0.006200863931242799,3.076952207661087e-05,-1.4286090350590726,0.011552289552199398,1.0320992581854014e-05,0.0005734758045662878,-0.011726546285519755,-0.009913524538504756,0.0,0.014400534476109986,0.010247996765024357,-0.0016553287289937477,0.0005438446194942995,3.080615476410985e-05,0.0005939609650127727,-0.01170602860485918,-0.009893006859267365,0.00048688028184402487,0.014408136275677006,0.010280031078911445,-0.0016467189802019575,0.01583158303437655,0.0,0.00021750737930682665,0.000867062106118006,0.024726219443134852,-0.001490828611560727,0.00011232891326949177,1.2158157797201573e-10,-0.005427447922672552
k_FN_fwd,0.00018210148839410765,0.0010951896740344401,0.038426512937463776,0.04755461525578679,6.224063394431729e-09,0.0005440602585443007,0.0019549945064024706,0.09158529198371665,-0.10081411006219756,-0.04239859972673919,0.04560964346141924,-0.053589023720851156,0.0001309070419683325,4.6858059810806857e-07,-0.1637673342734348,-0.05317896366869776,0.0,0.03842651293747805,0.04755461525544182,-0.0028317851530377516,-0.002882450940686959,-0.0031172384554159884,0.0,0.0,0.0,0.0,0.0,0.0,-0.08825120227029647,-0.044546521928999265,-0.05191088198238869,-0.08298762869033292,0.030385199215568426,0.00014051045753359507,-0.12720335474589872,0.09510923056073374,9.189873137952232e-07,5.1062293176464334e-05,-0.0010441363126307422,-0.0008827048495554461,0.0,-0.04039542298737918,-0.048584078305925246,0.004644507272067987,4.842391908360825e-05,2.742986470749438e-06,5.288629240599353e-05,-0.0010423063702660197,-0.0008808749042245422,4.3351815500301936e-05,-0.04041674679528101,-0.04857585134214181,0.004620355965538325,-0.047150117142233244,0.0,1.9349712124238112e-05,0.007138464582395774,-1.1618996846976082,0.013668361666085763,0.0009248006078390194,4.718919692977779e-11,-0.04468483663505851
k_SDH,3.5798416801613763e-07,2.1529768333907296e-06,0.0007407142711769915,0.0009419810664033422,-2.417547805172844e-10,-1.0136986129062874e-05,-3.388454911324536e-05,0.0013409154546660889,0.0002084436567297823,-0.0009373508235343064,0.000903454313010036,-0.994293583440301,0.002428856197131641,-1.1075219990535064e-08,-0.00040299421341901705,0.0009217137060124453,9.221806619376824e-13,0.0007407142704424519,0.0009419810663701594,-5.4585844901583836e-05,-5.7096755367190384e-05,-6.873242620701978e-05,0.0,0.0,0.0,0.0,0.0,0.0,-0.00017348848196029713,0.0008299953319518032,0.0008997349221614725,-0.0012150356399665482,-6.28245595495656e-05,3.1064135263727163e-06,-0.0002500626849299582,0.0018839621786755174,1.8060349858867397e-09,1.0037969088070111e-07,-2.0526958248959516e-06,-1.7353450881050132e-06,0.0,0.0007526547076209092,0.0008414698946822922,-8.653378482912402e-05,9.519311834399669e-08,5.3927168934545204e-09,1.0396677175323506e-07,-2.04904466404465e-06,-1.7316924819956964e-06,8.522394947608547e-08,0.0007530520160580734,0.0008416318665971731,-8.60837947338142e-05,0.0008697016265413216,0.0,3.837836912459285e-08,0.00014140159815008413,0.001253559168212706,-9.883180100095914e-05,1.83188267177771e-05,-1.1103340454065363e-12,-0.0008851357271040801
k_NDH,-0.00031396196225728153,-0.001888221247504964,-0.023634688714338988,-0.007360786336560353,-3.289211659701078e-08,-0.0019236406235654908,-0.0051381365091371905,0.1247999009548816,-0.6955479004492278,-0.07590904192986156,-0.007059741106075906,0.09870324582486942,-0.00024111188506124905,5.158333732114965e-06,-0.11034434818615746,0.13976549562424428,0.0,-0.02363468871415176,-0.007360786335998559,0.0017417234984033825,0.00044616290857154645,-0.005557522520608805,0.0,0.0,0.0,0.0,0.0,0.0,0.15215427902161893,0.15750369168748324,0.13643270968880827,-0.11308418215094437,0.20963693976941222,0.0002515652472561086,0.21931185304372125,-0.01472157267134046,-1.5844201680077257e-06,-8.803671128603185e-05,0.0018001926657441047,0.0015218679810703685,0.0,0.14282874512823618,0.12726755725640052,-0.016419445012699607,-8.348790089448878e-05,-4.729184722057528e-06,-9.11814757572582e-05,0.001797042489712229,0.0015187178053193747,-7.474306275073668e-05,0.14290414168860693,0.12745857672974356,-0.016334051211960354,0.16056228341462292,0.0,-3.333294696960704e-05,-0.0011049340244291537,0.1875710160707302,0.0015013768422580034,-0.0001431462036063208,5.157501640913361e-10,0.006916562002147276
vNQ_max,-0.0018044489107320698,-0.010852266139914732,-0.14968585299459455,-0.4574759529824828,-6.3376945538685e-08,-0.00557183921325812,0.01958872745415077,-0.8126163251079594,0.9198807893362975,1.4310690422949492,-0.43876530224763366,0.4659634853531016,-0.001138253642306951,-4.1515300701422905e-06,0.43066601813610456,-0.5328445766553637,0.0,-0.1496858529947422,-0.4574759529830798,0.011030877999498034,0.027729211632706207,0.10511003280934975,0.0,0.0,0.0,0.0,0.0,0.0,0.8744837144753678,0.45621060130796237,-0.5201386069001348,0.7363311334723063,-0.27725048627954463,-0.004742613370764881,1.2604617180060849,-0.914951906561595,-9.106249300080875e-06,-0.0005059777257308201,0.010346375579101653,0.008746746534334828,0.0,0.4137461982330692,-0.49621758284969647,-0.047516353804061454,-0.0004798340092923714,-2.718030570238769e-05,-0.0005240517823944753,0.010328243508827755,0.008728614464607713,-0.0004295743743674638,0.41396461815830166,-0.49138767477424566,-0.04726897659575902,0.34563620266838097,0.0,-0.0001917797754870141,-0.06867211243526342,0.05947757853150165,0.8748441886627084,-0.008896592633834874,-4.1470976595934127e-10,0.42986864656568624
kRespiration,0.0001480478347656351,0.0008903851440387636,0.30497904165755146,0.3877664328195589,-9.927849233454888e-08,-0.004168488268523832,-0.013933698538266311,0.5515910660987167,0.08531849688554757,-0.3855618508591793,0.37190689790677695,0.47122071295242135,-0.0011510959909800814,-4.554592704457038e-06,-0.1662964207004329,0.3790187903567264,0.0,0.3049790416575587,0.38776643281918977,-0.022474980349307984,-0.023503874758858477,-0.02827181724125926,0.0,0.0,0.0,0.0,0.0,0.0,-0.07174790021126602,0.3413071459426455,0.3699808761760367,-0.49980988858389797,-0.025714848081215835,0.001277765597305597,-0.10341585569195513,0.7755328642928787,7.471616272043003e-07,4.15134832529082e-05,-0.0008489129218864495,-0.0007176697400715482,0.0,0.3095034637519973,0.3460216166276021,-0.035584054565881346,3.9368400771205305e-05,2.230065465692123e-06,4.299638587920539e-05,-0.0008474025548475102,-0.0007161593740554667,3.524479465113428e-05,0.30966684379695275,0.3460882418977114,-0.035399010734794296,0.3576344123530017,0.0,1.5870990649673478e-05,0.05820795598157917,0.5157132085797482,-0.040634794479870354,0.007540943686834288,-4.557921256393832e-10,-0.3643660552685793
kATPsynth,1.24980438780663e-07,7.516563371224904e-07,-0.0002911133414521155,5.7816611267017726e-05,-3.2062968238366625e-12,4.085317844059736e-08,1.608467169234932e-07,2.2545839045393855e-05,-6.0617472764543394e-05,-1.2558393192385324e-05,5.545192837366727e-05,-3.1276374776478576e-06,7.64475101490011e-09,-6.821116807966577e-12,-8.559606885712989e-05,-4.375299750115704e-06,0.0,-0.00029111334208280015,5.7816610622343437e-05,2.1453167743861498e-05,-3.5044667983779848e-06,-0.00011915925594837861,0.0,0.0,0.0,0.0,0.0,0.0,-6.056902929041042e-05,-3.344973246424331e-06,-4.270955704543143e-06,-2.0429325262661315e-05,1.8270001676110598e-05,4.1619373109064756e-08,-8.730258731388364e-05,0.00011563322701877317,6.319114257513277e-10,3.504601044695665e-08,-7.166188285987867e-07,-6.058263894049588e-07,0.0,-3.033254318667333e-06,-4.000582351136768e-06,3.487705828662671e-07,3.323572454464502e-08,1.884969806951089e-09,3.629770163223284e-08,-7.153617602816775e-07,-6.04567024571015e-07,2.97544941769534e-08,-3.0348537659854714e-06,-3.9982216976572674e-06,3.4695830701029296e-07,-3.5891200547599675e-06,0.0,1.329082295814196e-08,8.678902182321165e-06,2.9587457682542954e-05,1.3619229176137252e-06,1.1243681150055905e-06,0.0,-5.432756432711961e-05
vCBB_max,1.4074198022413965e-05,8.464464575258148e-05,-0.20748562400484824,-0.012010154020519666,1.8425946587224535e-08,0.0002492430420281215,0.0021841429843396914,-0.07252108843733038,0.06065911563029012,-0.9092315304463334,-0.0115189415794868,0.049976519217071934,-0.00012208243286885995,-2.129507193335112e-07,0.05079343129673679,-0.05941216717712516,9.221806619376824e-13,-0.20748562400442164,-0.012010154020949487,0.015290346782765443,0.0007279772847470216,-0.06675469103332966,0.0,0.0,0.0,0.0,0.0,0.0,-0.006820728802062967,-0.02040750167465528,-0.05799545130250023,0.0657130968204589,-0.018282553022621065,0.0030132254184215457,-0.009831249703651951,-0.024020308057303676,7.102376502504409e-08,3.9464835096039875e-06,-8.069732520681718e-05,-6.822066427884068e-05,0.0,-0.018504256030886037,-0.05458491348825347,0.0021293216508474202,3.7425739992599114e-06,2.119950639306763e-07,4.0874556385304294e-06,-8.055691127575697e-05,-6.808025059139163e-05,3.350562270135884e-06,-0.018514023581568402,-0.0544212861304862,0.0021182587847768347,-0.02606463765715756,0.0,1.4875808854812646e-06,-0.001802854645011711,0.029028145714073812,-0.9011149640419679,-0.00023356305372662062,-2.1651513885427455e-11,0.011285396932906176
vOxy_max,-3.634166441228989e-07,-2.1856524011148273e-06,-0.00012572758393347854,9.856884373525658e-05,-1.4085261947114457e-08,-3.640744186884428e-06,3.710525310647893e-06,-0.00015636746888614153,0.0012700635855275918,-0.0010436650258924852,9.453764034188449e-05,-0.00023301065920299017,5.691945054128615e-07,-1.3625180823913237e-07,1.0003120562211933,-0.00010093220651695104,0.0,-0.00012572758368172915,9.856884341533692e-05,9.265309047131082e-06,-5.974600947841081e-06,-7.659702208115953e-05,0.0,0.0,0.0,0.0,0.0,0.0,0.0001761215036230136,0.00029809655862911717,-9.852541317272394e-05,0.00014168831223988957,-0.00038279497793317904,3.458742932702903e-06,0.00025385743252620747,0.00019713768413344413,-1.836157882241411e-09,-1.0190438981785698e-07,2.083745791864124e-06,1.7615803885976773e-06,0.0,0.00027033852884105695,-9.62019232152533e-05,-3.105933298984436e-05,-9.664067575679332e-08,-5.475867464803483e-09,-1.0554580050390101e-07,2.0801075352890992e-06,1.7579416390653108e-06,-8.651758208128447e-08,0.00027048124079377835,-9.417359322081635e-05,-3.089770022436854e-05,0.00025733633412253665,0.0,-3.855890969289566e-08,1.4796254364678889e-05,0.0009510635199702202,-0.0010772280666776766,1.916938021621643e-06,-1.3879175567581702e-11,-9.263478784337545e-05
k_O2,-2.800159796220831e-08,-1.68407828639316e-07,-1.530319056572582e-05,-2.6779981666052997e-05,-3.533339099868002e-10,1.7347310670925716e-07,1.4025569039203822e-06,-4.792893995898642e-05,5.384443469032548e-05,5.340848674284008e-05,-2.5684682187051017e-05,2.706504816381943e-05,-6.60977704397183e-08,-3.3594000279235394e-09,2.0083166723678727e-05,-3.8151789690166036e-05,0.0,-1.5303190431684452e-05,-2.677998188376861e-05,1.1277462695967966e-06,1.6232280905658824e-06,3.919312899198388e-06,0.0,0.0,0.0,0.0,0.0,0.0,1.3570428667758181e-05,-1.4203617027260451e-05,-3.724203094921976e-05,4.342956152331539e-05,-1.6228619143261126e-05,-1.7699768727327317e-07,1.955995654099263e-05,-5.35599650958645e-05,-1.4124291401857009e-10,-7.851868549738414e-09,1.6056037816875617e-07,1.357362538113009e-07,0.0,-1.2879101517755699e-05,-3.504047879214278e-05,1.481861978712129e-06,-7.445964216994035e-09,-4.204468406112887e-10,-8.130223876322207e-09,1.602791601753127e-07,1.354551120913874e-07,-6.663624302839012e-09,-1.2885899480256706e-05,-3.494118556006508e-05,1.4741621309395377e-06,-1.7733651830818076e-05,0.0,-2.98313761457344e-09,-4.019965547875902e-06,-6.291161872752528e-05,2.23282871616652e-05,-5.20792784149586e-07,-5.55167022703268e-13,2.5163536424850143e-05
k_ox1,1.2101664005726118e-05,7.278148622921669e-05,-0.004203382577432433,-0.006359374853398904,-1.2205923126790838e-07,0.000161883089099567,0.0003713202976175408,-0.011736135756276913,0.012965304919374206,0.010040605873535,-0.006099276153314223,0.00654748963653178,-1.5994179129829964e-05,-1.1399558410489868e-06,0.004077463401023558,-0.010100503408048583,9.221806619376824e-13,-0.004203382577667792,-0.006359374853299342,0.0003097620753611057,0.000385463870001054,0.0007362693552942231,0.0,0.0,0.0,0.0,0.0,0.0,-0.005864786543399617,-0.013254650501036023,-0.009859651310611605,0.010634393965511534,-0.003907720581936803,-3.327492215557676e-05,-0.008453375494683016,-0.01271874973070168,6.106982127406713e-08,3.3933741469046045e-06,-6.938777971400966e-05,-5.8659754686333976e-05,0.0,-0.012019761004809455,-0.009177782464099987,0.0013816951802723717,3.218041161875402e-06,1.8228549890151657e-07,3.514588295413704e-06,-6.926678783054204e-05,-5.853876072974293e-05,2.880969857419137e-06,-0.01202610602560991,-0.00920143503413977,0.0013745088450400982,-0.013300429378734019,0.0,1.2823071029684915e-06,-0.0009546112802268808,-0.02202925791263211,0.002599314082661452,-0.0001236710672573029,-1.1380923965416994e-10,0.005975483018219613
k_aa,-6.4357200215428005e-06,-3.870552626058507e-05,-0.0034619448217966657,-0.006347042838895848,-7.994516374617859e-08,0.00011669978491256358,0.0003364994488923362,-0.011563948289673255,0.012901341985382115,0.013424915055577724,-0.006087449166949671,0.006552547949966465,-1.6006541612618363e-05,-7.639093767049916e-07,0.004734188493214134,-0.009153320847984281,0.0,-0.003461944821826072,-0.006347042838549835,0.00025512291339482705,0.00038471638254332423,0.0009852582858322744,0.0,0.0,0.0,0.0,0.0,0.0,0.003118920227231569,-0.009555135568303435,-0.008935054866590405,0.010478370774078415,-0.0038884422637473857,-4.4490643143831244e-05,0.004495543579379559,-0.01269408566971064,-3.247917624730341e-08,-1.8046146860251539e-06,3.6901684370508477e-05,3.1196471177961154e-05,0.0,-0.00866483373354249,-0.008342748741475815,0.000996134481754276,-1.7113682154844766e-06,-9.694149594866278e-08,-1.8690747461897401e-06,3.683670831610152e-05,3.113149551285612e-05,-1.532110471066637e-06,-0.008669407726440048,-0.008351261789373477,0.0009909539952334327,-0.009826574414135847,0.0,-6.879017476094562e-07,-0.0009527601092385097,-0.014095398266145214,0.0058960928792998425,-0.00012343141806251735,-7.605788211034774e-11,0.005963937797690973
