,PSII,Q_ox,Hi,Ho,O2,PC_ox,Fd_ox,NADPH,NADH,ATP,CO2,succinate,fumarate,3PGA,PG,CBBa,OCP,Hi_mol,Ho_mol,pHlumen,pHcytoplasm,dpH,light_ps1,light_ps2,light_ps1_ML,light_ps2_ML,light_ps1_tot,light_ps2_tot,Q_red,PC_red,Fd_red,NADP,NAD,ADP,PSIIq,Keq_PQred,B0,B1,B2,B3,Keq_vSDH,Y0,Y1,Y2,FPS2_old,B0_tot,B1_tot,B2_tot,B3_tot,FPS2,Y0_tot,Y1_tot,Y2_tot,FPS1,FPBS,Fluo,dG0_FNR,dG_FNR,f_CBB_energy,f_CBB_gas,f_oxy_carbon,f_oxy_gas
PSIItot,0.6898791715642842,-0.9952249668788965,0.002159733526890749,0.04821972647382793,-5.108394169061099e-06,-0.3216464401315315,-0.16245865465631698,0.009583859504076149,0.291984695862129,-0.1610951076932026,0.045718465047573126,1.0408063873069864,-0.010164554334394473,-4.877939562355107e-05,0.1646569776199796,2.6627458041399964e-06,-2.2164027088175854e-10,0.0021597335269796887,0.04821972647366394,-0.0001749658424018748,-0.0029675986628767835,-0.011795156829534189,-0.018877674449144195,-0.9791123561526369,-0.02016326094699399,-0.9769651424690841,-0.018887085614505604,-0.9790971061983025,0.20979993104367808,0.10972309526979926,3.458226978543217e-05,-0.025968059852747073,-0.08505634019409168,0.04816864997453595,1.1056423895806973,0.09643945279418999,1.001033338211532,0.003892829084830115,0.9991177978484392,-0.022112847700567654,0.0,-0.04845818107060621,0.03253337406546165,-0.2472007748257495,0.9639643782808327,1.0010284836255294,0.003903224454974938,0.9991281931482766,-0.022087202442235776,-0.01688496601885311,-0.04870582598341957,0.03247923897194457,-0.24706460422660012,0.0033687773888834752,5.254551929736009e-12,-0.009728391491108742,0.006977257037547566,0.014793907128671941,-0.02692375597836487,0.0007340598702594713,-4.8682586962573865e-09,-0.04498951372304254
PSItot,0.005489339022296127,0.01761612436013726,3.6520616801699894e-05,-0.0008253820667588083,1.063352549735395e-07,0.005751749249792575,-0.9653723073079032,-0.00012044806435454406,-0.0053206457521759705,0.0030128113562815336,-0.0007825679493538525,-0.018499688731196506,0.00018066866055275278,1.0063332034258482e-06,-0.0031246139306776994,1.5822738233965463e-05,0.0,3.652061625382883e-05,-0.0008253820667802044,-2.9586340199366475e-06,5.079669493843237e-05,0.0002207181717859001,-0.9811223350136942,-0.020887653805351594,-0.9798367484790497,-0.023034867485135262,-0.9811129238486321,-0.020902903760063107,-0.00371359421136397,-0.001962091452256667,0.00020549699673765685,0.0003263614771247464,0.0015499259435183107,-0.0009008532766901328,-0.0018699385474792046,-0.0016507641504202417,0.020589509594597058,2.0965889760518874e-05,-0.017595158203617615,-0.03773729089710209,0.0,0.9906886137564992,1.0462891482675598,0.23178201345037647,-0.006737164816542841,0.020665362788123302,8.156912872191631e-05,-0.01753455496607589,-0.037691937614164,-0.028011046315615448,0.9910464732193404,1.0461308600757535,0.2308623428305245,0.9610133877067801,0.0,-0.014989286581267391,-0.00011943043324483252,0.08459462089494547,0.00053174332946475,-1.2565038807483717e-05,1.004852119993827e-10,0.0007701092347845509
k_Q,0.008580361024157932,0.027535686961889152,0.019356704389951934,0.004964669650928163,1.8321414794006534e-06,-0.9843400629905473,-0.21321114822899953,-0.003116514016477826,-0.017318951381367263,0.050326721508794615,0.0047071120853294564,-0.03064203693876353,0.00029925127514205036,1.643393628201683e-05,-0.04852919723980325,3.4945934158132955e-06,5.086952050445915e-10,0.0193567043894362,0.0049646696508061,-0.001568138864550343,-0.0003055419032816994,0.0036855478078062177,-8.728957842117592e-12,-1.1784601861086586e-11,-7.3979155422653e-12,-1.1798522917936844e-11,-8.665057308654271e-12,-1.1700905186351279e-11,-0.005804702874316285,0.335787451792635,4.538585816079352e-05,0.00844438740753668,0.005045081613979129,-0.015048068606268216,-0.0029228924948257484,0.009929339348811001,0.01457852115602787,0.015077320765188251,-0.01245836631766842,-0.011293045690913054,0.0,0.008344387905158273,0.02751678539216495,-0.5536051816771355,-0.004230495055900945,0.014626388009007783,0.015125187619756057,-0.012410499463302305,-0.011245178836208417,-0.0029227261984962585,0.00783623555382417,0.02765808285818125,-0.5528397549137561,0.10363900741230136,-1.2010404410825164e-11,-0.0015599623862579495,0.0007183735540515132,0.01941119314436767,0.008352304670811803,7.55707428842282e-05,1.6405182401004192e-09,-0.004629709191179799
k_FN_fwd,0.08858117652487377,0.2842704860162471,0.14318783460108886,0.12133362679067154,3.683664789805121e-05,0.08781568494256296,0.236339233717356,0.30703203911231886,-0.8066050121310648,0.07074460357309861,0.11503916238589514,-0.6531973863031388,0.0063791502724984475,0.00033464387829614797,-0.5647142350458273,-3.873669768246284e-06,7.695842738949948e-13,0.14318783460177373,0.12133362679064966,-0.01160003307759095,-0.007467265726485786,0.0055964796802373895,0.0,0.0,0.0,0.0,0.0,0.0,-0.059926077368094376,-0.02995652232699267,-5.0309090982605404e-05,-0.8319222923696489,0.23496735029894714,-0.02115316905541726,-0.030175100483765153,0.24266725157963373,0.15050444696603368,0.15565391057645142,-0.1286165800006927,-0.11658614521499462,0.0,0.14866375891731495,-0.06879566297670948,0.200122994035695,-0.04367441003078394,0.15099861055001756,0.15614807416192014,-0.12812241638930905,-0.11609198160426797,-0.030173380868423725,0.1489869264884388,-0.0685304171372851,0.2003340053103158,0.07410217693395985,0.0,-0.017302694979620684,0.017556630210219498,-0.06530003415410959,0.16118900787524554,0.0018469301586562636,3.3397176233408096e-08,-0.11315539732383166
k_SDH,4.116220540122326e-05,0.00013209764771099028,0.0003602328482668892,0.00029189946850539575,7.994794520131906e-10,-0.00019166862036209775,5.194369674745474e-05,-7.005172180004128e-06,0.003689822466665551,0.00023884001803989606,0.00027675764972680006,-0.5603218127578791,0.005472123893995624,-3.1401993099632125e-08,0.0006140866114663957,-8.510082273012792e-10,-5.895015538035659e-10,0.0003602328487229462,0.0002918994682288626,-2.9183434777385784e-05,-1.7964441696499196e-05,1.7498979511882717e-05,9.601853626329353e-12,1.3748702171267683e-11,9.247394427831625e-12,1.2871115910476557e-11,9.5315630395197e-12,1.4626131482939095e-11,-2.784704795706313e-05,6.538382442525923e-05,-1.1057668391238383e-08,1.8980947119662674e-05,-0.00107486042660853,-7.14149630263601e-05,-1.4021869574111834e-05,0.000583798936474422,6.993792141056199e-05,7.233080421464485e-05,-5.976684623020959e-05,-5.417649004632413e-05,0.0,6.58792162023098e-05,-2.3172489315445612e-05,-4.297207896922701e-05,-2.0295132114678753e-05,7.016755458925368e-05,7.25604400601833e-05,-5.953721302246919e-05,-5.3946854379162336e-05,-1.4021001491877434e-05,6.589975630043316e-05,-2.3025484710546095e-05,-4.2702921450247856e-05,5.602438156724073e-05,1.351170496217831e-11,-8.014255010056406e-06,4.223702079968792e-05,9.375098439321858e-06,4.337439776780575e-05,4.443551058146177e-06,-2.775834585618307e-12,-0.0002723132965858236
k_NDH,-0.0063409898609849335,-0.020349202322384526,-0.029469978825272827,-0.020559620617603896,-1.8108767364460636e-06,0.007485569928425508,-0.010501405851699638,0.0022012134878287414,-0.3009523107539731,-0.03115036602696864,-0.019493102292055486,0.07292957605544141,-0.0007122329859730226,-1.3014514028225623e-05,-0.044580131373977254,1.7212077426118757e-07,-7.695842738949949e-13,-0.02946997882564086,-0.020559620617364684,0.0023874425050835453,0.0012653058535364158,-0.0022817865138683026,0.0,0.0,0.0,0.0,0.0,0.0,0.00428974491767304,-0.0025535488663491796,2.23541426568237e-06,-0.005964324036292417,0.08766864321599337,0.009314193951018223,0.0021600526627142385,-0.04111924151095681,-0.010773701769425341,-0.011142320680735875,0.009206881945399804,0.008345695999804907,0.0,-0.008397995592704457,0.003491479482235006,-0.0041985396532242415,0.0031263864927470113,-0.010809075946790895,-0.01117769485862407,0.00917150776501855,0.00831032182134217,0.0021599297092064584,-0.00840962986215693,0.0034749053881298,-0.00421994068103026,-0.005437604009705372,0.0,0.0012384351013470594,-0.0029749185032283253,-0.00033814922691947783,-0.005039132170421746,-0.0003129710567361162,-1.2985354191522437e-09,0.01917832012946719
vNQ_max,0.03178875792763539,0.1020149650291885,0.09364575232197998,-0.08429322521057205,2.2431332215440232e-05,0.32058185515928617,0.3940679059554941,-0.038203101342437484,-0.01680975029682332,0.622295745448972,-0.07992091159698667,-0.15374732134760716,0.0015015021304404712,0.00020071928129134663,-0.4068987296440697,-6.458890226427238e-06,7.695842738949949e-13,0.09364575232213514,-0.08429322521049813,-0.0075864950320693675,0.005187678930074119,0.045567052421303655,0.0,0.0,0.0,0.0,0.0,0.0,-0.021505421729546666,-0.10935993391169246,-8.388449736034944e-05,0.10351366501137058,0.004896749248060062,-0.18607111272403729,-0.010828812647314145,-0.16858645240053463,0.05401090190294304,0.055858868496119055,-0.04615609456027999,-0.041838782583434486,0.0,0.22046772374854123,-0.10806136238397376,0.40546561473732884,-0.01567325289032772,0.05418824033558472,0.05603620692944953,-0.045978756138641615,-0.04166144416208566,-0.010828195310773165,0.22104824699801878,-0.10769232717114892,0.40563354189863116,0.09075168922913765,0.0,-0.006132156163813911,-0.012196989362373735,-0.032022610045792176,0.1034369995357303,-0.0012832579997801706,2.0031532703655948e-08,0.07866008318332643
kRespiration,0.007058014500330269,0.022650242731933456,0.062983092003759,0.05121733343716096,5.6332848059816365e-08,-0.033963031894221875,0.008710406789275801,-0.0011225450073702,0.6737668262477645,0.04112352562847939,0.04856051753052469,0.42005861263235517,-0.004102308214622537,-6.512297025778796e-06,0.11599746713772892,-1.4276610248284967e-07,2.7705033860219818e-11,0.06298309200431076,0.05121733343691044,-0.005102430250398493,-0.003152081118270278,0.003013004489448018,-8.728957842117592e-13,0.0,-9.247394427831624e-13,0.0,-8.665057308654271e-13,0.0,-0.004774819283292022,0.011585792719588648,-1.8541676674059286e-06,0.003041605099322848,-0.19627104158938322,-0.01229624375333186,-0.0024043064803995796,0.10243466730380965,0.011991967143890865,0.012402268640558699,-0.010247974946965516,-0.00928940806282423,0.0,0.011334055412655983,-0.003955332259783405,-0.00795704121444531,-0.003479911061632954,0.012031341351385606,0.012441642847095582,-0.010208600733498748,-0.009250033847826368,-0.002404169118482208,0.011337063455850178,-0.003929914731655941,-0.007909982245410615,0.009738039418224665,-7.506502756765727e-13,-0.0013740401102959666,0.00741100218226847,0.001663037593364542,0.007508336161230489,0.0007796756548475088,-6.501004599518074e-10,-0.04778078517625234
kATPsynth,0.0006994633258052893,0.0022446806222515053,-0.0085656392806002,0.0030778512717285467,1.4390373687335422e-07,-0.0014846067669275855,0.0011991827031233003,-0.0002458660518329935,-0.0035982717783172593,0.0037832246784798348,0.0029181904402378637,-0.0021005026923699636,2.051358002781488e-05,1.286434965070087e-06,-0.006834454960990689,-1.9654982244829054e-08,-7.695842738949949e-13,-0.008565639281263863,0.0030778512722746125,0.0006939255539850663,-0.00018942096859134871,-0.0029816938202839594,0.0,0.0,0.0,0.0,0.0,0.0,-0.00047319335349230705,0.0005064431914247649,-2.5526796350027736e-07,0.0006661892682214616,0.001048191336657006,-0.0011312126603665628,-0.00023827157088023005,0.0061557025673941975,0.0011884258975554008,0.0012290875940226481,-0.001015593079085746,-0.0009205971889367556,0.0,0.00105811705351819,-0.0004227396775188865,0.0002198506875930094,-0.0003448654239497441,0.0011923279543206518,0.0012329896513521735,-0.0010116910212474978,-0.0009166951312632004,-0.00023825729378684657,0.0010592948810872966,-0.0004205822164717698,0.0002229595986044542,0.0007395651638819707,0.0,-0.0001364410267779014,0.00044535630807579024,6.970905133152806e-05,0.0006223092576709075,4.685332181745743e-05,1.2824355785556577e-10,-0.002871193196092633
vCBB_max,0.2976866248105933,0.9553217090556904,-0.2746601537148326,-0.09022561529044046,0.00015858084351353692,0.8164211153250295,0.9673855107431701,-0.2711267819389745,0.44093555191408845,-0.6766517542680273,-0.0855472235875072,-0.5804344607629796,0.005668544762542209,0.0014086997425900053,0.8980191057326368,-1.5855736303511285e-05,-7.695842738949948e-13,-0.27466015371546765,-0.09022561529094676,0.02225096011954217,0.0055527775055579575,-0.047230451718735765,0.0,0.0,0.0,0.0,0.0,0.0,-0.20138806335715437,-0.2785053420178755,-0.00020592554328581592,0.7346347781996923,-0.12844633584908743,0.2023239685697956,-0.10140668896778869,-0.1804512321202545,0.5057864591463859,0.5230917888339851,-0.43222991677589107,-0.391800339866944,0.0,0.5365868406654701,-0.2641531561737645,1.007497466089672,-0.1467725741480181,0.5074471493313573,0.5247524790183954,-0.4305692265969884,-0.3901396496860223,-0.10140090824139482,0.5380189939318543,-0.26325959928625714,1.0078786233353585,0.21723931105285485,0.0,-0.05818582245830231,-0.013055389332562386,-0.04467457612491851,-0.2625218317484921,-0.0013740015288942707,1.4058602875705902e-07,0.08433180153279443
vOxy_max,0.0011516271850938128,0.0036957492178504286,0.004484351272028392,0.0033403399396448406,1.0686353971167813e-07,-0.0005339582547376027,0.0027493875254737126,-0.0006789783283732428,0.04959012844271549,0.003963738842037956,0.0031670640501919433,-0.011712497759830956,0.00011438468783572034,4.394843650426806e-07,1.008494682544181,-4.5063140957759896e-08,-1.616126975179489e-11,0.004484351272015429,0.0033403399397088558,-0.000363289401150308,-0.0002055753754862289,0.0002929612473880226,0.0,0.0,0.0,0.0,0.0,0.0,-0.0007790881025521628,0.00018214892260987864,-5.852568446046021e-07,0.0018397337588698475,-0.01444580793117782,-0.0011851877538077845,-0.00039230079496853555,0.006680679878130056,0.001956681143676945,0.0020236283510015086,-0.0016721209372571229,-0.001515715522422487,0.0,0.0019742709902378953,-0.0008596872251868126,0.0016869234801088976,-0.0005678032005245093,0.001963105675861841,0.0020300528818365552,-0.0016656964049834976,-0.001509290989185853,-0.0003922786735443451,0.0019776582042983727,-0.0008559474843734899,0.0016910208391918496,0.0011550508201273668,0.0,-0.0002247186233474367,0.0004833376744202942,1.5733808864476764e-05,0.00044978023314409755,5.084928829327147e-05,4.385818645276924e-11,-0.00311610791820627
k_O2,0.13751410138237924,0.4413036893917877,0.11049593830198662,-0.11503002234927895,2.8206687148645856e-05,0.4519434892441508,0.46899866570687715,-0.048319792018904566,-0.11419866265591773,0.7887226508357318,-0.10906335425911047,-0.5171980799391809,0.005050975932841332,0.0002533858571850373,-0.5351882974458716,-7.687027410656203e-06,0.0,0.11049593830173474,-0.11503002234868512,-0.008951574154922837,0.0070793213370499986,0.05775324501991021,0.0,0.0,0.0,0.0,0.0,0.0,-0.09302970351949894,-0.1541712649048574,-9.983486881343136e-05,0.13092546386823936,0.033266539097282465,-0.23583401034794121,-0.04684405863542392,-0.23006004562123544,0.2336442564453759,0.24163832353845593,-0.19966536409120025,-0.18098922452282612,0.0,0.25130780656429996,-0.12592170605677916,0.5115823217881654,-0.06780048829290657,0.23441139981099937,0.24240546690323822,-0.19889822073678382,-0.18022208116666913,-0.04684138789191113,0.25201556331436387,-0.12551210363426182,0.5117078343691485,0.09474641649295674,0.0,-0.026885247797042756,-0.016644516401515153,-0.03829243643492904,0.13114837613447258,-0.0017511793110538067,2.5287853074982772e-08,0.10734038081988684
k_ox1,0.027201878318721166,0.08729497173539492,0.01634129621134935,-0.017560706204164327,4.226150321780274e-06,0.05069917262165375,0.03422831472563983,-0.007255899615179492,-0.02364354536460923,0.11856413882372371,-0.016649822192043664,-0.09936016194181957,0.0009703550818564073,3.803064412918403e-05,-0.08209105195564537,-5.610122887221311e-07,-7.695842738949948e-13,0.016341296211633893,-0.017560706204789108,-0.0013238525042350198,0.001080742918518483,0.008681708504114136,0.0,0.0,0.0,0.0,0.0,0.0,-0.018402350885493975,-0.0172949843485889,-7.286116831163421e-06,0.019660308606607512,0.006887461797358157,-0.035451570096476835,-0.00926629611237383,-0.0351214125838266,0.046217535111964164,0.0477988539631192,-0.03949611737206934,-0.03580176115505418,0.0,0.015552546825202032,-0.00851381055230576,0.04463804174779126,-0.01341172052339564,0.046369284937588,0.04795060378932046,-0.03934436754744249,-0.03565001133082925,-0.009265768233218126,0.015608439742583621,-0.008491366168209244,0.044628494539496834,0.0035778173973638485,0.0,-0.0053364569267641306,-0.002540984139970669,-0.002590081682368081,0.01971849366578287,-0.0002673381732933205,3.795121045457348e-09,0.016386710020829746
k_aa,0.01822551876155505,0.0584884689309988,0.01570011754585238,-0.015787971392445813,3.941263801027448e-06,0.06045787403276914,0.03308937297487267,-0.0067461785848610765,-0.015175413601366565,0.11012181608453132,-0.01496904175327245,-0.06895692592549427,0.0006734359284539619,3.539477958483539e-05,-0.07475307429099888,-5.423454382917586e-07,4.301876045117415e-07,0.015700117545463094,-0.015787971392560902,-0.0012719088252250077,0.0009716430209778857,0.008063547218716147,-6.6933648733357705e-09,-9.69970938182935e-09,-6.477799796696054e-09,-9.678006571685832e-09,-6.691157253742829e-09,-9.700050399485208e-09,-0.012329751721807922,-0.020623965462791223,-7.043673021579388e-06,0.0182791879612263,0.0044206602604140634,-0.03292725203996643,-0.006208507061724008,-0.03157594409317923,0.030966196552741937,0.032025685647216334,-0.0264627815052126,-0.02398753724654076,0.0,0.013233559144204342,-0.007793656540338143,0.047870341121390415,-0.008985983182483734,0.031067870409787517,0.03212735950248457,-0.02636110765698536,-0.02388586339515852,-0.006208164858523001,0.013290331389528976,-0.007776771703702714,0.04784902513026321,0.0013028355580240135,-9.920594043341585e-09,-0.0035768046103367996,-0.0022844743775560514,-0.0024954324174432142,0.018311115582082007,-0.00024035110070095504,3.5319719267407337e-09,0.014732630740910807
