,PSII,Q_ox,Hi,Ho,O2,PC_ox,Fd_ox,NADPH,NADH,ATP,CO2,succinate,fumarate,3PGA,PG,CBBa,OCP,Hi_mol,Ho_mol,pHlumen,pHcytoplasm,dpH,light_ps1,light_ps2,light_ps1_ML,light_ps2_ML,light_ps1_tot,light_ps2_tot,Q_red,PC_red,Fd_red,NADP,NAD,ADP,PSIIq,Keq_PQred,B0,B1,B2,B3,Keq_vSDH,Y0,Y1,Y2,FPS2_old,B0_tot,B1_tot,B2_tot,B3_tot,FPS2,Y0_tot,Y1_tot,Y2_tot,FPS1,FPBS,Fluo,dG0_FNR,dG_FNR,f_CBB_energy,f_CBB_gas,f_oxy_carbon,f_oxy_gas
PSIItot,0.9392514988520427,-0.05936847099677291,0.1597751885003851,0.022673414929782094,4.568254930586575e-05,-0.01066681834514911,-0.3509132048841367,0.049668266462216906,-0.08294944086793718,0.5793689405675081,0.02165502880040208,-0.025451329574918444,5.402557389100053e-05,0.0004074360726738295,-0.3328296360277587,0.06724365792131022,0.0,0.1597751885009798,0.02267341493035034,-0.012510016603258982,-0.0013824621696580453,0.03777982212989615,-0.05114691518398711,-0.5986462070325778,-0.020768524779745664,-0.9759165953683124,-0.05101431429174963,-0.6108933817257025,0.337676859383935,0.41124475310721004,0.4296878179673206,-0.08635970266619997,0.016888789986800976,-0.04925567442519702,1.583103067603793,0.04534682985410939,1.03007943480735,0.41664120001846217,0.47600967876581785,-0.16775621909579783,0.0,0.4007560220566012,0.7320830084740423,-0.04505685861040909,0.9282075398215723,1.0317180646204218,0.40603265528325977,0.4654011338762863,-0.19061193867711357,-0.09156408622008749,0.40082642860325635,0.7321930388466271,-0.04495084170816056,0.9863249023487017,0.0,-0.044696104357950864,0.003354565089387667,0.24959539698903543,0.26706136252649226,0.00040064200319594453,4.069262781038465e-08,-0.021208704213833578
PSItot,0.05564972295837308,0.054385521472535094,-0.13998785002157796,-0.020007080053307612,-3.9818509956903816e-05,0.024523142412704296,0.30437811885561905,-0.04223827445136009,0.06946349245955766,-0.5070446312425003,-0.019108460481628196,0.01744242914947305,-3.702504349852403e-05,-0.00035511633191704663,0.290724537815073,-0.05832638286420934,1.0487313079345643e-12,-0.13998785002180167,-0.020007080052579427,0.010960715154354423,0.001219888202089787,-0.03306195123474513,-0.9488530933411419,-0.40135380226779815,-0.9792314846340272,-0.02408341458808996,-0.9489856942376116,-0.38910662759606063,-0.3093347660545521,-0.9454565851411385,-0.37270632141429877,0.07344095299818112,-0.01414300474635432,0.04310694537984673,-0.5341617250718961,-0.04001416005590408,0.02400561561588347,-0.3637976861918215,-0.4181832071695466,-0.7782043304681644,0.0,0.6446902092455847,0.2669715317547097,1.0400479859996856,-0.02419376859341837,0.024080001497865156,-0.3514761256458762,-0.40586164674559166,-0.7536355952104681,-0.07523078767943606,0.6455975699776937,0.2667126858302368,1.0398475695079061,-0.33113130579538136,0.0,-0.03672379729008792,-0.0029600769313308556,-0.21695309296323204,-0.23309006209155275,-0.00035352937431924286,-3.54673963859073e-08,0.01871511264646993
k_Q,0.16904066779944685,0.16520055229248992,0.016289231847510428,-0.0019003924751808741,6.42279563457441e-06,-0.001623328855715835,-0.05595994929750388,0.01105233756695339,-0.12474006622290681,0.07677623688535745,-0.001815181447017736,-0.23471833359810831,0.0004982368530744094,5.802092184737273e-05,-0.06302258512512986,0.010723311714394808,0.0,0.016289231847894575,-0.0019003924753484148,-0.0012754080469782973,0.00011587229797489258,0.005012340496316187,0.0,0.0,0.0,0.0,0.0,0.0,-0.9396301223531897,0.06258524827923617,0.0685220965541765,-0.019217030390513944,0.025397504303402218,-0.006527214461959944,-1.6225607230174357,-0.0038007849441487732,0.006733879960488841,0.04789465258132617,-0.11730590861763988,0.008245553100130448,0.0,0.05684365804965067,0.11755375668294521,-0.006407349046151386,0.04198662152165998,0.006947159529178442,0.04810793214964784,-0.11709262877166085,0.008458832945997448,0.043265568987042174,0.056856648148985674,0.11756745280946015,-0.006392642372811563,0.14920073798547825,0.0,0.021120000448635566,-0.0002811658620410586,0.03737331968185969,0.03769218971233168,-3.361835134814568e-05,5.794832725105664e-09,0.001787985893201701
k_FN_fwd,0.04865967191882088,0.04755426468514925,0.15117246254449074,0.24678604402026433,5.777356603569111e-06,0.0006741151951172772,0.175041566300309,0.43269074113502326,-0.8228410405273044,-0.4099449920534898,0.23570847656017996,-0.5755508452264061,0.0012217223947861644,5.5072294826400216e-05,-0.4032191388261144,-0.033542297693256486,1.883626302181271e-08,0.1511724625441663,0.2467860440206126,-0.011836443622360172,-0.015047242355890535,-0.026347318538979914,-6.627922726118682e-11,-7.663569737012245e-10,-8.582010689927228e-10,-1.3002835014292486e-09,-6.918298079164125e-11,-7.839990477208459e-10,-0.27047984358678245,-0.02598959952363828,-0.21433570361649826,-0.7523323524742654,0.16753325135180627,0.034851914983598464,-0.46706673298324247,0.4935720893887273,0.001938400022237354,0.013786848038087588,-0.03376742338510442,0.002373541324857346,0.0,-0.02326444830539921,-0.3677889997015051,0.0030054730702422042,0.01208617535951407,0.001999794208250158,0.013848242202739497,-0.03370602899649286,0.0024349356926500715,0.012454328995417218,-0.02326972674422599,-0.36776492646884595,0.002999482118829736,-0.3121641379550461,-1.334146598088017e-09,0.006079358567151599,0.03651235817754439,-0.2959933276148371,0.05194228676686891,0.004362568796621972,5.5005942364769995e-09,-0.23134012932998463
k_SDH,2.0506925163418744e-05,2.0040811692470644e-05,0.0001495617572655094,0.00015122367534302204,-2.8737587364036147e-09,-1.032045521562206e-06,-7.315934700103413e-05,4.7117611389675645e-05,0.0013834855301433845,-7.86485210941158e-06,0.00014443575741352228,-0.9242298555597881,0.0019618636650915945,-3.517971130960225e-08,0.00013566650324825307,1.4019125646441396e-05,1.646508153457266e-10,0.0001495617572343706,0.00015122367572270414,-1.1710328634213189e-05,-9.220534687591928e-06,-4.579607575592669e-07,-1.0690197945352714e-12,-6.622094823812624e-12,-7.619987294053031e-12,-1.065346551408181e-11,-1.0643535506406345e-12,-6.989590321433989e-12,-0.00011398842244372743,3.9789119114723064e-05,8.958249430131225e-05,-8.192480228898905e-05,-0.00028168238850188654,6.686383343272589e-07,-0.00019683861731721136,0.0003024473652580444,8.168979091466083e-07,5.810251851618339e-06,-1.4230562806135867e-05,1.0005246856118168e-06,0.0,3.605446792833322e-05,0.000153704744972207,-4.158868372580463e-06,5.093570180309754e-06,8.427713721070723e-07,5.8361260730223845e-06,-1.4204687890623732e-05,1.026399925730679e-06,5.248766242554181e-06,3.606269689302927e-05,0.0001537060850424523,-4.149548431865387e-06,0.00015680118088428135,-1.1785747332933011e-11,2.562245909065061e-06,2.237376557678968e-05,5.99341925607324e-05,2.098467267211842e-05,2.6732866750733848e-06,-3.3310017580603545e-12,-0.00014176534365969052
k_NDH,-0.008043047385903904,-0.00786033320338468,-0.04135681521115119,-0.03990467681747855,-5.086270845218419e-07,-0.00013509756862065714,-0.015077986661453447,0.009266808186081558,-0.6213890772156861,-0.00631031261767956,-0.03811347573314256,0.113647362822829,-0.000241239362148124,-4.080471776448006e-07,-0.08703489800414199,0.0028893155203483546,-4.94686557952734e-09,-0.041356815211432425,-0.03990467681702334,0.0032381400950693895,0.002433100890671173,-0.00040015185889344883,1.8173336507099614e-11,2.0107087919576512e-10,2.2574212358632108e-10,3.420323138731529e-10,1.9158363911531422e-11,2.0561044862218318e-10,0.044708118387864176,0.005208504022012559,0.018462762579822135,-0.01611247697206204,0.12651694231698446,0.0005364780224545514,0.07720232623086244,-0.0798093538028351,-0.0003204017701925816,-0.0022788536350324745,0.00558148066599074,-0.00039232632248720623,0.0,0.004707275356809189,0.03167969045161881,-0.000556899374182369,-0.0019977462672265364,-0.0003305497315018934,-0.0022890015929249905,0.005571332672629105,-0.0004024743117805886,-0.002058598971708929,0.004708348466686001,0.03167878728546787,-0.0005556834275050196,0.029592787832794995,3.512152705214037e-10,-0.0010048804742582393,-0.0059039556289015955,0.0003098785345059438,0.002141677914571524,-0.0007054180223372573,-4.052718805640098e-11,0.037407548936584004
vNQ_max,-0.0825332075745327,-0.0806582920883614,-0.06208387360239414,-0.2577558752018879,1.1369954628671381e-05,-0.005550503277910061,0.3942560094542216,-0.33110771847894677,0.6841794554457175,0.8356014359984064,-0.24618614848092507,0.451992916822753,-0.0009594458294660984,9.865414192590455e-05,-0.021317019104865508,-0.07554921203786716,6.816753501574669e-11,-0.06208387360258743,-0.257755875201594,0.004861019374386082,0.015716103934093596,0.05391945851300253,0.0,-1.8060258610398067e-12,-2.857495235269887e-12,-4.48566969013971e-12,0.0,-1.7473975803584974e-12,0.45876941579227226,0.21399214613820955,-0.48276041501151834,0.5757069081538747,-0.1393012781726964,-0.07103955597086441,0.792206648840038,-0.5155117525845576,-0.0032877813569561843,-0.023384309844252417,0.05727399083303215,-0.004025843052061786,0.0,0.19567532759613196,-0.8285256178044147,-0.0205783205637815,-0.020499744377297797,-0.003391913972610912,-0.023488442459084276,0.057169857937605255,-0.004129975949688526,-0.0211241837329639,0.19572019065688726,-0.828363982914413,-0.02052758693015373,-0.4550436456466588,-4.714298933173204e-12,-0.010311939158474935,-0.038135360779323786,-0.19048722311320532,0.17778365460184192,-0.004556553168642893,9.85310320034253e-09,0.24164096347651257
kRespiration,0.010002715094745488,0.009775482398125835,0.07354603069085101,0.07447233119198342,-1.4668210874058629e-06,-0.0005231356236924137,-0.03744219519152453,0.024151305245384853,0.7062718786139267,-0.00434631040393449,0.07112952152862408,0.7386904432522775,-0.00156801898168095,-1.7939194843909747e-05,0.0719796663776875,0.00717485157700004,3.5656864469775194e-11,0.07354603069097881,0.07447233119208888,-0.0057584789664994395,-0.004540788437809101,-0.000255251758748025,0.0,-1.8060258610398067e-12,-1.9049968235132582e-12,-2.803543556337319e-12,0.0,-1.7473975803584972e-12,-0.0556011320443388,0.020168786365881024,0.04584739168497438,-0.041992597860822906,-0.14379937112345811,0.00036950625950760147,-0.09601247349261105,0.14894466292571729,0.00039846680643176565,0.0028340906548701265,-0.006941393538383244,0.0004879163319623972,0.0,0.018274916020469434,0.078664590537422,-0.0021089112220358712,0.0024844920294055657,0.0004110872877238983,0.002846711137045167,-0.006928772997641546,0.0005005368737945559,0.002560171749886743,0.018279087399870983,0.07866519926205283,-0.00210418669963943,0.08007114128658883,-2.3571494665866022e-12,0.0012497820870175213,0.01101829092273191,0.030152438353146196,0.010624929039029724,0.0013164993225154929,-1.7915237788767941e-09,-0.06981448856456748
kATPsynth,0.00021475134903963644,0.00020987278256142105,-0.004617947272077261,0.0012325712746598428,2.079339487317475e-09,-1.0364892215749602e-06,0.0001040168508843682,-8.530814486373614e-05,-0.0010838684389000936,0.00017026876026822381,0.0011772448439907209,2.9757617604276982e-05,-6.319619561238788e-08,1.760121127497853e-08,-0.0014539855568960322,-1.9932204653845623e-05,-2.097462615869129e-12,-0.0046179472717665865,0.0012325712747913555,0.0003615742652486579,-7.51533532081617e-05,-0.001612171325803107,0.0,0.0,0.0,0.0,0.0,0.0,-0.00119371748835102,3.996043995806139e-05,-0.00012736703283392685,0.00014832782680349133,0.00022067932245372596,-1.4475582470768074e-05,-0.0020613211524940656,0.0024651426358492834,8.554804309173337e-06,6.0845955182683164e-05,-0.00014902685727715182,1.0475267164643802e-05,0.0,3.660824100406105e-05,-0.00021858242590722427,-3.7737349146486165e-06,5.334032350994709e-05,8.825759625335017e-06,6.111691198184138e-05,-0.00014875590068875042,1.0746223525709095e-05,5.496521856244188e-05,3.661664263620526e-05,-0.00021854628362387487,-3.7642366048660574e-06,-0.00013507018876912072,0.0,2.683098162042419e-05,0.00018236073447632162,0.00017298360309686458,2.704055961963351e-05,2.1788921520428686e-05,1.6655008790301772e-12,-0.001155453818012527
vCBB_max,-0.009841915424999606,-0.009618335137873206,-0.47312638481372676,-0.10886138114879335,1.2709610289046975e-05,0.0015202724522693726,0.36351990664829653,-0.31624111296143653,0.6312791234205238,-1.562247197838295,-0.10397509659273516,0.525601506721243,-0.0011156948497898884,0.00010999269460618342,1.2254214134643364,-0.06965941336181061,0.0,-0.47312638481374125,-0.10886138114912723,0.037044668493448944,0.006637585967107148,-0.10037701618310238,0.0,0.0,0.0,0.0,0.0,0.0,0.054707307554471424,-0.058612048040879154,-0.4451245302295313,0.5498578958247545,-0.12853058956404012,0.1328161279639138,0.09446901515326406,-0.21772276315747574,-0.0003920612192895748,-0.002788530950064878,0.006829806573293586,-0.00048007266798017975,0.0,-0.05253639195685214,-0.7638084391876101,0.006707048237768381,-0.0024445523116576485,-0.0004044788194128692,-0.0028009485500491717,0.006817388895160926,-0.0004924903459863286,-0.0025190154965399766,-0.05254831981422113,-0.7637602726980453,0.0066935134482296954,-0.6525124466307197,0.0,-0.0012300084051110453,-0.016106201424289576,-0.14826480857868204,-0.8140013950827046,-0.0019244575572335844,1.0985643798083049e-08,0.10206334785985496
vOxy_max,0.00020093221690311536,0.0001963674326099937,0.0010974105411644258,0.0014056628822327044,-1.6602015832596786e-07,-7.930774149308308e-06,0.0004835706822121784,-0.0006558080746145265,0.02348463602162287,-0.0013280695479010402,0.001342569507929564,-0.003538363033901364,7.510882562398781e-06,-1.6345694163493958e-06,1.0044636239454332,-9.266411933665467e-05,-2.831574531423324e-11,0.0010974105412386152,0.0014056628816711328,-8.592463087848418e-05,-8.570723699878157e-05,-8.494214157977484e-05,0.0,1.2040172406932045e-12,9.524984117566291e-13,2.242834845069855e-12,0.0,1.1649317202389982e-12,-0.001116901560975581,0.00030576026997446225,-0.0005921248570321687,0.001140273143474549,-0.004781552250348898,0.00011290726330824169,-0.0019286762610439831,0.002811325765618618,8.004298682779056e-06,5.693054585060127e-05,-0.0001394369216085949,9.801330277173627e-06,0.0,0.0002794094037726162,-0.001016240865794407,-2.958421386274358e-05,4.9907917446190905e-05,8.257816433251633e-06,5.718406402094843e-05,-0.00013918340265705435,1.0054847732776906e-05,5.142819304768072e-05,0.00027947344536540273,-0.00101602555088072,-2.951178444583399e-05,-0.0005187230427677306,1.5714329777244013e-12,2.5104183728872955e-05,0.00020796989019076145,0.0001810710580092982,-0.0008912515052291555,2.4849399954360546e-05,-1.6321908614495736e-10,-0.0013178861201552058
k_O2,-0.005423902189620201,-0.005300686768070946,-0.031848157817501034,-0.04907327899244414,-3.8753136679058345e-06,0.000530242411589463,0.11576164260690368,-0.06554844753260473,0.1320741115997992,0.07434858007337145,-0.046870472191011814,0.08213192817837425,-0.000174341514310673,-3.504909442407366e-05,0.039142342363431386,-0.022182796693560554,-1.0487313079345645e-12,-0.0318481578173554,-0.04907327899292659,0.0024936348717355,0.002992136463832989,0.004746561588418489,0.0,0.0,0.0,0.0,0.0,0.0,0.030149323881315252,-0.020442778960442876,-0.14174834951707413,0.11397104916985443,-0.0268907410371442,-0.006320824603479712,0.05206209116972505,-0.09814655843170225,-0.000216065838968342,-0.0015367658115742371,0.0037639220835185344,-0.00026456915306290613,0.0,-0.018348464974784068,-0.24323125113581032,0.002314251714964196,-0.0013471983924171216,-0.00022290920632796156,-0.0015436091789352898,0.0037570786790374197,-0.00027141255745771737,-0.0013882351865998018,-0.018352633605754076,-0.24321661344839218,0.002309522594471814,-0.20940865030561542,0.0,-0.0006777773757294335,-0.007260463790508612,-0.0662969286300463,-0.0027645760566331868,-0.0008674844334226747,-3.500327680761756e-09,0.045999112065832425
k_ox1,0.0008036352939851926,0.000785378397894111,-0.005885161326209062,-0.007167038657323802,-9.34806402779367e-07,0.00032332242533120897,0.019341780634390675,-0.009694188722943057,0.01874734343945204,0.005637516115094488,-0.006845318635581413,0.010488736999889347,-2.2264479821577604e-05,-8.401925710928807e-06,0.008242839219114955,-0.003706364035069084,0.0,-0.005885161326542612,-0.007167038657216936,0.00046079411175256146,0.0004369945975770945,0.0003532346532072433,0.0,0.0,0.0,0.0,0.0,0.0,-0.004467086761309476,-0.012465258775108413,-0.0236837126694562,0.016855576313303526,-0.0038170232714714366,-0.0004792795039457104,-0.007713806864499448,-0.01433407729530452,3.2013459291591155e-05,0.00022769565881635602,-0.0005576826557329184,3.920084909584909e-05,0.0,-0.0113032886163548,-0.040635322339964995,0.0012947790778213564,0.00019960843259404245,3.302741083962356e-05,0.00022870961041039346,-0.0005566687075548518,4.021479673520179e-05,0.00020568874880303137,-0.01130586962660362,-0.04063644339987275,0.0012918561912155754,-0.04322570159069423,0.0,0.00010038225111127772,-0.001060373915122982,-0.011492985943769352,-0.0026421801629715816,-0.00012669271988383164,-8.388572760715327e-10,0.0067176911282601955
k_aa,-0.00013603831707982187,-0.00013294825107412026,-0.0007736456999585476,-0.0012558223995069256,-8.744446457596194e-08,4.097274118955024e-05,0.002890453412529943,-0.0016776811033057041,0.0033684870567539,0.002077801317104711,-0.0011994510661121512,0.0020867674318712595,-4.429615345430991e-06,-7.923645158048771e-07,0.0009111293283007517,-0.0005538824688475246,1.499685770346427e-10,-0.0007736456995757727,-0.0012558223998165772,6.0574615101663106e-05,7.657103976979734e-05,0.00013286881250755336,-1.0690197945352716e-12,-6.622094823812624e-12,-6.6674888822964035e-12,-1.0653465514081812e-11,-1.0643535506406347e-12,-6.98959032143399e-12,0.0007561850108239452,-0.0015796486158672518,-0.003539315712488687,0.002917034387749319,-0.0006858354906449502,-0.00017664651618375828,0.0013057829988047012,-0.002511644824861322,-5.4192224830650564e-06,-3.8544052415638354e-05,9.440422572463885e-05,-6.63542776528467e-06,0.0,-0.0014314124129747887,-0.00607271867648561,0.00016507744793968441,-3.378940737715851e-05,-5.59086289368831e-06,-3.871569349780485e-05,9.423258503773108e-05,-6.807068712436301e-06,-3.481864738622228e-05,-0.0014317391546912889,-0.006072774601253721,0.00016470738249633698,-0.006201941350416207,-1.100003084407081e-11,-1.700002161078496e-05,-0.00018580077133303576,-0.0016412703821761813,2.135337035405044e-06,-2.219962837768586e-05,-7.93888752337718e-11,0.0011771639881143462
