,PSII,Q_ox,Hi,Ho,O2,PC_ox,Fd_ox,NADPH,NADH,ATP,CO2,succinate,fumarate,3PGA,PG,CBBa,OCP,Hi_mol,Ho_mol,pHlumen,pHcytoplasm,dpH,light_ps1,light_ps2,light_ps1_ML,light_ps2_ML,light_ps1_tot,light_ps2_tot,Q_red,PC_red,Fd_red,NADP,NAD,ADP,PSIIq,Keq_PQred,B0,B1,B2,B3,Keq_vSDH,Y0,Y1,Y2,FPS2_old,B0_tot,B1_tot,B2_tot,B3_tot,FPS2,Y0_tot,Y1_tot,Y2_tot,FPS1,FPBS,Fluo,dG0_FNR,dG_FNR,f_CBB_energy,f_CBB_gas,f_oxy_carbon,f_oxy_gas
PSIItot,0.9855253357773034,-0.016913094048435995,0.06342108923420481,0.01950775157881195,1.4028035531095742e-05,-0.00948998172182966,-0.06844388882688653,0.037155324128748606,-0.044259083151052106,0.19506589156813636,0.018681550744466206,-0.01584208686054046,3.8324816883730467e-05,0.00012521695793539864,-0.12198859427818128,9.664986846540879e-05,3.819429187456753e-08,0.06342108923388984,0.019507751579179045,-0.004872492453980764,-0.0011850318829988657,0.012744589945199782,-0.04237372368553448,-0.8667056855363955,-0.020478141444272742,-0.9764235640245765,-0.04204825729415169,-0.8721518728655122,0.13189503208576359,0.22184766458777178,0.19223952930677066,-0.04568502592816267,0.011797558855824675,-0.007113163181780855,1.2335906081160297,0.03901550295613394,1.0300532048854558,0.15964707531989752,0.17656018033983545,-0.7016637030159252,0.0,0.18407660760998462,0.2044018871610317,-0.05717507035915903,0.9384873935055594,1.0317662710180273,0.15591395419830165,0.1728270587356563,-0.7108430119598648,-0.08716154761842962,0.1842775713586858,0.20465095964364374,-0.05697897167910617,0.3048554971547944,-1.8234801347776293e-09,-0.04145842003576893,0.002912505808842771,0.10349166787112894,0.1402349511357698,0.0003660923642421609,1.2510132692888527e-08,-0.018301430509844396
PSItot,0.012725469956555968,0.014869227672385658,-0.049152637746093165,-0.014523396852824643,-1.0894371363324799e-05,0.02025729170378744,0.052111852699236794,-0.026433931835103643,0.030546812184003336,-0.153851606849339,-0.013908288878362556,0.008154264867866069,-1.9726583671238688e-05,-9.722190556136824e-05,0.09295271484586644,-7.358733887894568e-05,7.386326578498404e-09,-0.049152637746201405,-0.014523396853257082,0.003776281013212479,0.0008822486886403341,-0.010050146401116003,-0.9576262854327261,-0.13329432609981298,-0.9795218693840626,-0.023576448054128032,-0.9579517518488859,-0.12784813879353285,-0.11595614943802587,-0.47355548062025593,-0.14636745816040972,0.03250233686793753,-0.00814246000913905,0.005610266236202654,-0.2053622951197514,-0.0290467937546587,0.005102581469847437,-0.12493847375541037,-0.1398077009712573,-0.26297574718426986,0.0,0.848213444679572,0.7127337565751929,1.047210223668609,-0.005725818170119702,0.005157819580321462,-0.11943704833839044,-0.1343062756362894,-0.2520281345160701,-0.03652049546704845,0.8504910460679841,0.7109753641184712,1.0462954629501795,0.0035551744568644342,-3.528572436184366e-10,-0.01737113813273374,-0.0021683420230551175,-0.07965681293975618,-0.1090265321703503,-0.00027255164941246743,-9.713201455346483e-09,0.013624842841226758
k_Q,0.10502394336306868,0.12271648192806309,0.014606301444135805,0.004942402067896738,3.708664048773899e-06,-0.0024741956326487335,-0.023927441771414294,0.022200392295704485,-0.1017455889925101,0.04280168958339689,0.004733075869048691,-0.16938802764319044,0.0004097792992334306,3.376331712618492e-05,-0.05822934210802169,3.3788029234622124e-05,0.0,0.014606301443726185,0.004942402068456128,-0.0011221676250387635,-0.0003002347024934575,0.0028046703015900155,0.0,0.0,0.0,0.0,0.0,0.0,-0.956991918510064,0.05783936565165056,0.06720541778808055,-0.027296908893331234,0.027120976960609774,-0.0015607823589593027,-1.694865346835783,0.009884804139783215,0.00337566687102254,0.030225074789649264,-0.09249141853143565,-0.008918718990295341,0.0,0.04543998160761572,0.07597690488573085,-0.014127760113029667,0.026231877926140762,0.003545459793131063,0.03039486771114545,-0.09232162505330203,-0.008748925511012392,0.025920083732655988,0.04548268580194534,0.07601705004507985,-0.014077229736277378,0.0921678792482545,0.0,0.012329120442741976,0.0007379002424025263,0.03111540856229412,0.03849654309549361,9.275099006445843e-05,3.373194561196001e-09,-0.004636616198828719
k_FN_fwd,0.04044282451573075,0.0472559016800986,0.1942077596149036,0.31572508500058427,1.9124185200218208e-06,0.002764674209820254,0.09975051580260186,0.5814602467246405,-0.8239462456961077,-0.5461019503051731,0.3023567232605068,-0.516336265148448,0.0012491077946710043,2.075683990004929e-05,-0.5671553554086586,-0.0001408580692892731,1.294644312140147e-11,0.19420775961489334,0.3157250850006653,-0.014920523405607622,-0.019179262788892558,-0.035266927438339556,0.0,0.0,0.0,-1.0978110735646324e-12,0.0,0.0,-0.3685203103872447,-0.06462989442685838,-0.2801709916644442,-0.7149453563037923,0.21962846122315682,0.01991384682859687,-0.6526620464336552,0.631450164352657,0.0012999086179410388,0.011639130877221484,-0.0356167823008616,-0.003434444498445477,0.0,-0.050671432332227026,-0.33527543176586705,0.01589060100931581,0.010101422131955879,0.0013652928040454797,0.011704515063258907,-0.03555139754855951,-0.0033690597462149546,0.009981355842154956,-0.05071899678022947,-0.3350698335806641,0.015834291909119214,-0.25235547330554864,-7.687521647460493e-13,0.004747368801432632,0.04713773111253739,-0.39326685228634095,-0.015598864019333001,0.00592594827619008,2.0735486645929997e-09,-0.2964288679356088
k_SDH,2.0501601458887055e-05,2.395526205022773e-05,0.000276562094918892,0.00028611547501453333,-1.1092795832688752e-09,-5.098126105514611e-06,-0.00010661515757188141,0.00020980677654662647,0.0013462630668256504,-4.4346668125278706e-05,0.0002740009040622923,-0.950849981387507,0.002300272561506686,-2.1806205537237965e-08,1.3066392474248706e-05,1.5055128704902986e-07,7.615554777294984e-13,0.00027656209540349305,0.000286115474702765,-2.124761181094558e-05,-1.7380575440400004e-05,-2.7725943648908494e-06,0.0,0.0,0.0,0.0,0.0,0.0,-0.00018681265815049598,0.00011917908837281843,0.0002994518292264897,-0.0002579718587092215,-0.00035885555265128605,1.6171205928920082e-06,-0.0003308526870599722,0.0005722309203756943,6.589584167445955e-07,5.900199928315617e-06,-1.8055070223510776e-05,-1.7409421388262604e-06,0.0,9.354880230544154e-05,0.0003530863158054756,-2.9192301824150655e-05,5.1206992027409855e-06,6.921038499162814e-07,5.933345149317738e-06,-1.8021925013837218e-05,-1.707795839884333e-06,5.059846435505256e-06,9.363667487568022e-05,0.00035297243990737567,-2.9088302571038103e-05,0.0003071589418320281,0.0,2.407115807889588e-06,4.271701642368846e-05,0.00014245326953477732,8.815379666835305e-05,5.370208692000582e-06,-2.220667913888085e-12,-0.00026863180632433426
k_NDH,-0.006412781048142859,-0.007493090811175513,-0.04547716807739771,-0.04463787489500759,-3.0385155512155377e-07,-0.0007174542885656537,-0.014412531646703865,0.026671659677728436,-0.6056243540200325,-0.00395194015708049,-0.04274783617727068,0.1326156692731731,-0.00032082052355965145,2.039850600409852e-06,-0.12998116888705832,2.0351989057983082e-05,1.5231109554589967e-12,-0.04547716807756192,-0.04463787489498783,0.003493903364570231,0.00271160438304693,-0.00024358083437842025,0.0,0.0,0.0,0.0,0.0,0.0,0.05843410142054557,0.01677195626211223,0.040480725852516164,-0.03279463959732636,0.1614332799591928,0.00014410922914402535,0.10348878576925116,-0.08927574986501319,-0.00020611887334943076,-0.0018455485967784691,0.005647543899504092,0.0005445796931271405,0.0,0.013165868231432187,0.04766175984382922,-0.0041073600616887565,-0.0016017231556937582,-0.00021648646024729674,-0.0018559161833061283,0.00563717622906893,0.0005342120229569669,-0.001582684942533657,0.013178235669814247,0.047647762574806365,-0.004092723262434389,0.04201651076350649,0.0,-0.0007527599215315959,-0.006664431250865558,0.0012839104288766023,0.012241771143914046,-0.0008378230234634366,2.0374628109923178e-10,0.04190970923217088
vNQ_max,-0.06766790963667842,-0.07906737828140144,-0.30111569867811555,-0.48470821534164543,2.145119728508781e-06,-0.006829994788354163,0.3315752964896534,-0.792489097839554,1.1743520679697603,0.8243016672346408,-0.4641848837323956,0.707985190378063,-0.001712740117054701,1.4084571529546775e-05,0.806234567932208,-0.0004682186987826932,-7.615554777294984e-13,-0.3011156986778073,-0.4847082153419234,0.02313400748480861,0.029444432949427793,0.05328247503967132,0.0,0.0,0.0,0.0,0.0,0.0,0.6165988532610929,0.15966504861201047,-0.9313012457276455,0.9744198397282464,-0.3130315102106004,-0.030058521367269206,1.0920176053525623,-0.9694164372727212,-0.002174974149239537,-0.019474298971406588,0.059593097339035374,0.005746424865518941,0.0,0.12599949582090564,-1.1538042641392148,-0.03843211258149335,-0.016901443721286196,-0.002284373317842468,-0.019583698140380638,0.05948369727266086,0.00563702479772139,-0.016700551900259018,0.12611821553942518,-1.1523294815859555,-0.03829178685893459,-0.5590086051523145,0.0,-0.00794437954107645,-0.0723668984769773,-0.28097748104990394,0.07039448200680438,-0.009097668259163557,1.4073482904265739e-09,0.45508935570244075
kRespiration,0.009430753408186795,0.011019476683738458,0.12509274890261274,0.1291987534306945,-4.731417259739517e-07,-0.002220656309557953,-0.04628401757614361,0.09098679552216896,0.5799270110237384,-0.019068410259711795,0.1237282783229709,0.6826340639795602,-0.0016514113039979522,-9.395039482986695e-06,-0.00024337390332838094,6.535783161424508e-05,7.615554777294984e-13,0.12509274890274014,0.12919875343010925,-0.009610580317457715,-0.007848400200037495,-0.0011916503429676756,0.0,0.0,0.0,0.0,0.0,0.0,-0.08593426055621145,0.05191236722767364,0.12999871728166526,-0.11187452162029418,-0.15458347885980556,0.0006953379326299898,-0.15219250614912566,0.25839750696526015,0.00030312224219582423,0.0027140976568708025,-0.00830538294148344,-0.0008008701998977637,0.0,0.04074847454009944,0.15326436230800086,-0.012715443539727948,0.0023555233529277,0.0003183690050766209,0.0027293444199133652,-0.008290135983284276,-0.0007856232427963158,0.002327525429886617,0.04078675058045654,0.15321529410653464,-0.012670143410351557,0.13347462912876842,0.0,0.0011072617545215607,0.019289363848424036,0.06301740027776727,0.038329954882790306,0.0024249791687216008,-9.38787360596188e-10,-0.12130377222065722
kATPsynth,8.237371785665631e-05,9.625052882784287e-05,-0.003115336907111399,0.0007762222714281051,1.280480536293609e-09,-1.2369570036116192e-06,-1.7933212137248097e-06,-1.115952932330226e-05,-0.0006755158937595637,2.761993576270453e-05,0.0007433557076445398,5.1621399330617556e-05,-1.248583566191838e-07,1.0677333313222112e-08,-0.0009144816559080874,2.5321818760233254e-09,0.0,-0.0031153369068803163,0.000776222271553441,0.0002393439731959207,-4.715295618166404e-05,-0.0011294137164932568,0.0,0.0,0.0,0.0,0.0,0.0,-0.0007505998932935627,2.891639104166984e-05,5.036932178039517e-06,1.3721408665809055e-05,0.00018006334425453002,-1.0071731630406061e-06,-0.0013293383909860782,0.0015524445542224954,2.6476447266752133e-06,2.370651529594729e-05,-7.254403977952233e-05,-6.995235272660641e-06,0.0,2.273179955965164e-05,3.1125652134894978e-06,-7.048561957064832e-06,2.0574520630518674e-05,2.780819055404028e-06,2.3839688403873263e-05,-7.241086559015819e-05,-6.862060493326987e-06,2.032995548425758e-05,2.2753169457314484e-05,3.1675169472367757e-06,-7.023282189200583e-06,2.5275190215016936e-05,0.0,9.670067835680284e-06,0.00011588992638630633,0.00018409378572200466,1.0825351939872253e-05,1.4569185007237736e-05,1.1103339569440425e-12,-0.0007287852420009368
vCBB_max,-0.005558837778649506,-0.0064952910175535864,-0.39810418847926704,-0.10864785738063096,1.5347133103332678e-06,0.002988251833367255,0.1219491403280277,-0.29819008560503957,0.3994048366592483,-1.3016562602761148,-0.10404754505286119,0.3012140851547414,-0.0007286896126906546,1.1556376201365498e-05,0.8447336128377743,-0.00017220482813973349,7.793773990193242e-07,-0.39810418847916385,-0.10864785738091083,0.030585403840742136,0.00660000067271588,-0.08400641778141206,-6.129159977460441e-09,-3.193671532393008e-08,-2.4091861387244442e-08,-3.6269482248428325e-08,-6.396333675052344e-09,-3.2151894640338785e-08,0.05065286190174196,-0.0698564770580864,-0.3425206506795707,0.36664521469876626,-0.10646406866777182,0.04746546569919799,0.0897079391424535,-0.217295716381921,-0.00017867047181109336,-0.0015998212360152522,0.00489547281328033,0.0004720011852092721,0.0,-0.05474919722678661,-0.41084979058401205,0.017195831572651848,-0.0013884353640317504,-0.0001876574196572135,-0.0016088083988655816,0.0048864855003865285,0.00046301365864581743,-0.0013719704211826566,-0.05480057842386223,-0.4105790899367427,0.01713499851382074,-0.30167330926145186,-3.720145475639082e-08,-0.000652973191210546,-0.016221116550914363,-0.08422239422725708,-0.9634144056677175,-0.00203925606193377,1.1541921482433322e-09,0.10200982226240557
vOxy_max,8.696092443497541e-05,0.00010161049169806379,0.0008196110188839497,0.0010840696153031908,-1.3501022571903342e-07,-1.4913069276861042e-05,0.00014816998519121138,-0.0007446873706471777,0.014210755445295657,-0.0011933608052158782,0.001038170503159986,-0.0028269186389775895,6.838822648057074e-06,-1.3150698754243157e-06,1.003565383263711,-2.0923172896268068e-07,1.5231109554589967e-12,0.0008196110192892872,0.0010840696155297333,-6.296877798896527e-05,-6.585367096260496e-05,-7.675154156056172e-05,0.0,0.0,0.0,0.0,0.0,0.0,-0.0007923990148925858,0.00034862338915753047,-0.0004161675892290965,0.0009156443291546501,-0.0037879732664527588,4.351642447235023e-05,-0.0014033662480576127,0.0021681392383328937,2.795086792002037e-06,2.5026679348413814e-05,-7.658384678367029e-05,-7.38477671419907e-06,0.0,0.0002743007037101413,-0.0005447187868597658,-8.473698294278646e-05,2.172027090811377e-05,2.935676544374056e-06,2.5167267477199835e-05,-7.644325478828568e-05,-7.244185077872182e-06,2.1462069635217486e-05,0.0002745587147017691,-0.0005434738374501027,-8.443179825982766e-05,-4.2617305601138507e-05,0.0,1.0208480122498963e-05,0.0001618515097340976,0.00036506920758016105,-0.001142468807960254,2.0347823859290464e-05,-1.3157457389786903e-10,-0.0010179576871114735
k_O2,-0.000939092260405641,-0.0010972934769498902,-0.01304066060838971,-0.015724762969090186,-8.346245232597867e-07,0.00036901238727197685,0.014312093492515545,-0.02610795087964518,0.03785065871414728,0.012185587146356135,-0.015058937493537601,0.021994304028530656,-5.3208083569304366e-05,-7.600819802340439e-06,0.031879441224392166,-2.021016022422372e-05,0.0,-0.013040660608462354,-0.015724762968814726,0.0010018831364200296,0.0009552277328906466,0.0007789839155273978,0.0,0.0,0.0,0.0,0.0,0.0,0.008557130820376907,-0.00862641664861532,-0.04019862347907506,0.03210152086777016,-0.010089349849111607,-0.0004443527731110194,0.015154972082327082,-0.03144952610722474,-3.018420080360092e-05,-0.0002702634655721799,0.0008270304635875458,7.974872261530206e-05,0.0,-0.006761910924519794,-0.04817286043111027,0.0021224077792514613,-0.0002345574850931004,-3.1702436337181084e-05,-0.0002717817009987893,0.0008255122060994338,7.82304652311245e-05,-0.0002317695000199693,-0.006768257451750881,-0.04814199506003427,0.0021148940737109236,-0.03572452444527575,0.0,-0.00011028600330353283,-0.0023477058798607488,-0.01503380333157785,-0.0068750246427645885,-0.000295140328808383,-7.59468426549725e-10,0.01476296239749624
k_ox1,0.00026478183760171185,0.00030938748808749056,-0.012077863717131437,-0.01315370485401067,-1.0122086429038509e-06,0.0008023543840751598,0.013131335155880788,-0.021808038401720905,0.030974636273742768,0.004989234623546429,-0.012596739674930076,0.01703862722737567,-4.121941322562953e-05,-9.152255814241726e-06,0.028475782301195258,-1.8542806455097258e-05,-1.5231109554589965e-12,-0.012077863716790297,-0.013153704854133618,0.0009279137268285654,0.00079904439244963,0.00031223211104474785,0.0,0.0,0.0,0.0,0.0,0.0,-0.0024127266454837034,-0.01875666903228934,-0.03688220720363771,0.026814482801244294,-0.008256499423008136,-0.00018193462623303542,-0.004273021433514842,-0.026307409758739936,8.510574208172789e-06,7.620214221692179e-05,-0.0002331850764101787,-2.2485189064446843e-05,0.0,-0.014728081498694758,-0.04305984014880345,0.004589143081821749,6.613469903870587e-05,8.938650755143025e-06,7.663021901180899e-05,-0.00023275701205272773,-2.2057126108575482e-05,6.534865542311008e-05,-0.014741918714285415,-0.04305443168108012,0.004572767946132173,-0.0408785469700246,0.0,3.10333036673858e-05,-0.001963847104016636,-0.014586776067781013,-0.008929821626515528,-0.0002468825293712011,-9.14360013543419e-10,0.012348844858656309
k_aa,-0.00028907844356214915,-0.000337777097855557,-0.004018035050121089,-0.004925622099872584,-2.3759614509891047e-07,0.00022695337326407238,0.004351046320554086,-0.008078246964528156,0.01175236618513901,0.004113441502823868,-0.0047170594016858,0.006780829265130257,-1.640402212683978e-05,-2.1676116893051556e-06,0.009799119003220972,-6.14412918605131e-06,0.0,-0.004018035050664448,-0.004925622099881987,0.00030869613908664315,0.0002992153746970207,0.0002634011713862239,0.0,0.0,0.0,0.0,0.0,0.0,0.002634120110247632,-0.005305497661089704,-0.012220858735406886,0.009932760127451484,-0.0031326729310884216,-0.00014999844581745368,0.004665117503891015,-0.009851244165347665,-9.291525246436835e-06,-8.319453213289044e-05,0.0002545827083074305,2.454882127621397e-05,0.0,-0.004165073067006534,-0.01436333095415719,0.0012989903024242606,-7.220324834117556e-05,-9.758879646285673e-06,-8.366188545405884e-05,0.00025411534732282227,2.4081459525272745e-05,-7.13450140438531e-05,-0.004168985712938844,-0.014359616982939034,0.0012943597860030163,-0.012865446433296304,0.0,-3.39513482315823e-05,-0.0007353949960932359,-0.0045321499952593125,-0.0019165883693078253,-9.244980210856815e-05,-2.165151216040883e-10,0.004624372007346101
