,PSII,Q_ox,Hi,Ho,O2,PC_ox,Fd_ox,NADPH,NADH,ATP,CO2,succinate,fumarate,3PGA,PG,CBBa,OCP,Hi_mol,Ho_mol,pHlumen,pHcytoplasm,dpH,light_ps1,light_ps2,light_ps1_ML,light_ps2_ML,light_ps1_tot,light_ps2_tot,Q_red,PC_red,Fd_red,NADP,NAD,ADP,PSIIq,Keq_PQred,B0,B1,B2,B3,Keq_vSDH,Y0,Y1,Y2,FPS2_old,B0_tot,B1_tot,B2_tot,B3_tot,FPS2,Y0_tot,Y1_tot,Y2_tot,FPS1,FPBS,Fluo,dG0_FNR,dG_FNR,f_CBB_energy,f_CBB_gas,f_oxy_carbon,f_oxy_gas
PSIItot,0.9939495254215897,-0.015324978757343719,0.05751919187934238,-0.026049243105076683,1.1320609345396887e-05,-0.009570551000522539,-0.026504276237608856,-0.03522458861130137,0.05631744110906474,0.38415767003633666,-0.02497505949213636,0.036792136820919384,-8.85859869896242e-05,0.0001007262930946286,0.01474008051689362,0.016028075468696,-2.2558270802478064e-08,0.05751919187948663,-0.0260492431046984,-0.004316246006516222,0.0015797716773573015,0.026420310339844016,-0.05448482248833991,-0.6091107632177227,-0.019875502812737818,-0.977452819939687,-0.053509371909631356,-0.6661990094452351,0.3535678263771488,0.4251880042230701,0.2989718708220595,0.03610048138457276,-0.016194010646521866,-0.0037908554583865306,1.6055342260247785,-0.05209848613484734,1.0060027823969455,0.3952439390527213,0.41056893252777066,-0.203820401562444,0.0,0.3721846515451932,0.2672933223249272,-0.07087893948810553,0.9854317177259224,1.0077704942666497,0.3399234053130089,0.3552483972058977,-0.31622918322263527,-0.007656391389460973,0.37251116888274666,0.26800708093340786,-0.07056308955740173,0.43845421780281585,1.909357559054634e-11,-0.0034884267112267864,-0.003905154895739172,0.38683043490275903,0.30696699542532996,-0.0005023117848975796,1.006906405553497e-08,0.02448406842643307
PSItot,0.005966776084380096,0.015112982661698495,-0.05550787458475235,0.02607153598611562,-1.1004027884227449e-05,0.013413165561183625,0.025612311202495137,0.0360451111903868,-0.05688037714434231,-0.3750209605250153,0.02499642806848307,-0.037256986329070686,8.970522108873336e-05,-9.789901316547906e-05,-0.016092507252080494,-0.015488672355561152,-6.235355962871928e-13,-0.05550787458498197,0.026071535985818527,0.0041653165403290225,-0.0015811236376254948,-0.0257914766361543,-0.9455151859697524,-0.3908892460886656,-0.9801245066114342,-0.022547190000517647,-0.9464906365753556,-0.3338009999588984,-0.3486767919473747,-0.5959026909696108,-0.28891038289969123,-0.03694140703508246,0.016355882208577477,0.0037006947050377222,-0.5971576430410934,0.05214307197652448,0.004076668783834562,-0.3851872898232661,-0.40030027276160424,-0.7859839688264209,0.0,0.6371261756859767,0.6003609911791181,1.0691247748812989,-0.006958231452347166,0.004135652413910438,-0.328040060070409,-0.3431530436639452,-0.6717484928191043,-0.03756421742408574,0.6404777610161907,0.5967444992775124,1.068122472999645,-0.266881778312707,0.0,-0.01711648306951935,0.003908496905061424,-0.3755694944516198,-0.29871909855418716,0.000502740331303353,-9.78648404758066e-09,-0.024504691764383614
k_Q,0.016800590428377567,0.04255347059166671,0.006173702875579049,0.004560885994975666,5.569602192407792e-07,-0.0005838205586306571,-0.0027607709060324622,0.0140459370541276,-0.0409124601271154,0.007355650754820504,0.004372770937237891,-0.060893925977628605,0.00014661687138815845,5.241040459692836e-06,-0.021496030875830435,0.0016695360352471248,0.0,0.0061737028757619435,0.004560885994573697,-0.0004632752906018009,-0.00027659761447372793,0.0005098949437093866,0.0,0.0,0.0,0.0,0.0,0.0,-0.9817656742062177,0.025937221183504878,0.031141874438979287,-0.014395202588362625,0.011764327389105102,-7.258532318679288e-05,-1.6814106713627441,0.009121771996477191,0.0003828610131087245,0.004959166241339509,-0.03759431875989996,-0.022937096676687526,0.0,0.022186172134915545,0.029005709207368717,-0.004226925896462432,0.004077991460099727,0.00045224675226197565,0.005028551981029087,-0.03752493079283036,-0.02286770870786496,0.003533288291936225,0.022202966376954163,0.029011197988961263,-0.004207593305837893,0.030321931192365224,0.0,0.0016099784391139125,0.0006837421789402211,0.024405134861590044,0.014284624083716604,8.793796436211116e-05,5.235224901786115e-10,-0.004284276012428158
k_FN_fwd,0.00824450600867164,0.020882143809264002,0.24650299506561174,0.3626823684773078,1.1805596497589545e-07,0.003080801776203605,0.027202529164088444,0.6719556719148255,-0.8244076027598497,-0.5362704256134904,0.34772413933298113,-0.46664549633414826,0.0011235620604439895,4.535442592769415e-06,-0.8027605903762609,-0.016450333541344016,2.58330797541784e-09,0.24650299506531292,0.36268236847706403,-0.018497609783859684,-0.02199508565689857,-0.03673031701194765,-8.459703757419621e-13,-1.540506989965247e-12,-9.115421088719668e-13,-2.099769665410316e-12,-8.22127020826331e-13,-1.3017483666872016e-12,-0.4817790819578432,-0.13686985823066825,-0.3068482595928782,-0.688664486416071,0.23705738815019753,0.00529189920907398,-0.8251138816931122,0.7253647355394764,0.0001878804036916511,0.0024335976645847687,-0.018448563619259617,-0.01125586667413408,0.0,-0.11706039040265485,-0.288001964644204,0.022320867385441683,0.002001180936580307,0.0002219298691535786,0.002467647131204068,-0.01841451144580416,-0.01122181450044694,0.001733880305533675,-0.11714899523684234,-0.2876247502951459,0.02221886783832648,-0.19754512811043973,-2.2031048758322695e-12,0.0007899398674687609,0.05437128519021159,-0.9256660471586593,-0.07283660793959328,0.00699302111729796,4.5357144695220104e-10,-0.34073100186789657
k_SDH,2.8849462964687107e-06,7.307146807144922e-06,0.00045841236192187447,0.0004736847866519165,-2.494433631657116e-10,-7.782646875249285e-06,-5.961724408116103e-05,0.000530793845652879,0.0010345681572763248,-7.211139493381753e-05,0.0004541484816207023,-0.9823508495123269,0.0023652476433285254,-1.3598697300283633e-08,-0.0003284157371737336,3.605266122214599e-05,-1.5463682787922382e-10,0.0004584123620617684,0.0004736847866109785,-3.439930970830935e-05,-2.8726892212202227e-05,-4.828404507999186e-06,0.0,0.0,0.0,0.0,0.0,0.0,-0.00016858568318621042,0.00034575732288344576,0.0006724906892914306,-0.0005439925375846599,-0.000297488796595012,7.115926201067711e-07,-0.00028872672718677526,0.0009473695819315296,6.574392803303293e-08,8.51573116926833e-07,-6.455589327012866e-06,-3.938696828667958e-06,0.0,0.0002957261506782257,0.0006303375585293938,-5.6375254602891756e-05,7.002596837339379e-07,7.765858952677424e-08,8.634880908170002e-07,-6.443673492792254e-06,-3.926779352452061e-06,6.06727371874252e-07,0.0002959499944529604,0.0006296772451674735,-5.611757364841565e-05,0.0004719929515720093,0.0,2.7672553186584116e-07,7.101213778893653e-05,0.00047955383681150444,0.00024174419039626517,9.133304384501865e-06,-1.6655010292002486e-12,-0.00044501542480383436
k_NDH,-0.0014897146409165332,-0.0037732321966722367,-0.03726921444071781,-0.03865729540360642,-4.2996597395854216e-08,-0.0012433387002994205,-0.007931696428985733,0.056439694645127436,-0.6314713395948499,0.0061775235733324396,-0.03706294861896433,0.12655287338597804,-0.00030470669496853803,4.671344321733844e-06,-0.16558879342977234,0.004796578013704404,1.3318720336694439e-08,-0.03726921444129056,-0.03865729540350647,0.0027966856309529766,0.002344394418931264,0.0004388442762208459,0.0,-6.162027959860988e-12,-7.292336870975736e-12,-1.0498848327051582e-11,-8.221270208263311e-13,-6.508741833436007e-12,0.08705353053454513,0.05523743622752262,0.08947062349137552,-0.05784312113254,0.18157880392568082,-6.0959602528483504e-05,0.14909131349881183,-0.0773145908879937,-3.394844052370367e-05,-0.00043973114481542995,0.003333503430638978,0.0020338420597610283,0.0,0.047246494685035084,0.0836910741871832,-0.00900443158395542,-0.0003615970047902697,-4.010089967889466e-05,-0.0004458836033692067,0.0033273506021710905,0.002027689230288476,-0.0003132979724160105,0.047282257801799614,0.08363678624488068,-0.008963262662612766,0.0706727053608804,-1.174989267110544e-11,-0.00014271588359193732,-0.005795282615627875,0.02326029844851802,0.0374930651657316,-0.0007453665462200783,4.66895455185803e-10,0.03631753898908835
vNQ_max,-0.010805150129920938,-0.02736788579379213,-0.31341140895280206,-0.47654904313493535,-1.0967043577250725e-07,-0.004002902915439945,0.07087007440068428,-0.8491932316394885,1.0561359026003392,0.7530858229843226,-0.4568945740424107,0.5863078083730028,-0.0014116780812496613,-5.349657276843935e-06,0.9608641672650345,-0.042857645917090806,-5.692879994102071e-10,-0.31341140895260994,-0.47654904313430807,0.02351842399575297,0.028900597162004462,0.051576255172689746,0.0,0.0,9.11542108871967e-13,0.0,0.0,0.0,0.6314138535436603,0.17783576949975952,-0.7994241585365645,0.870309226006712,-0.30369057461846405,-0.007431426534740931,1.0813843008421031,-0.9530980841558533,-0.00024623379104630187,-0.003189443747293819,0.024178464986538136,0.014751803124032703,0.0,0.15222589564081868,-0.7602380398940465,-0.028871156834598483,-0.0026227235971976242,-0.0002908586123629891,-0.003234068569376749,0.024133836611242847,0.014707174748224038,-0.0022724026266797374,0.1523411703546938,-0.7573134090202309,-0.028738477735657506,-0.058905077521597383,7.343682919440899e-13,-0.0010354654630723285,-0.07144153175688499,-0.27649038138667587,0.15621788526460004,-0.009188529374050455,-5.346258303732798e-10,0.447705937877137
kRespiration,0.0013510130817369615,0.003421921159887314,0.20151994896309136,0.20801878751153177,-1.0515224056205583e-07,-0.003291810332271885,-0.025208508836599145,0.22461165220321294,0.42980747892966853,-0.03068161002250025,0.199439414023739,0.629881498747836,-0.0015165923014565528,-5.748634042497928e-06,-0.14836872786897115,0.015244478991534645,6.235355962871928e-13,0.2015199489633234,0.20801878751232616,-0.015122077400857348,-0.012615421732108103,-0.0020546194428925084,0.0,0.0,0.0,0.0,0.0,0.0,-0.07894831344908423,0.1462442721827767,0.2843554368339317,-0.23019683376851932,-0.12359060981551319,0.0003027651349963665,-0.13520999886684124,0.4160375755823165,3.0787682392590346e-05,0.00039878952501379164,-0.003023138788073131,-0.0018444838560259394,0.0,0.12508269830279603,0.2665306141058964,-0.02384491777191481,0.0003279299994474424,3.6367309947204884e-05,0.0004043691527928609,-0.003017558051839392,-0.0018389031193272705,0.00028412790774820696,0.12517737725601522,0.26625156978808834,-0.023735926661763412,0.19961516853850664,0.0,0.00012957729554144204,0.031184997571827546,0.20687435729091153,0.1021548537326997,0.004010892810021773,-5.745978550740856e-10,-0.19542862595388324
kATPsynth,2.7393102718998678e-06,6.938277937050162e-06,-0.0011610380819454794,0.000165699719708488,1.9237277364964904e-12,-1.3122513326237281e-07,-8.472778811215121e-07,1.1065918214844958e-05,-0.00014266500477372614,-4.935677591513343e-06,0.00015886571561891114,1.968521489865561e-05,-4.738211026864249e-08,-1.6139537938403412e-10,-0.00020022104216284908,5.123789857914269e-07,-2.808728564187586e-07,-0.0011610380818331196,0.00016569971921495867,8.712441495376696e-05,-1.0048957270812626e-05,-0.00041945052950677906,1.522746676335532e-11,1.4326715006676799e-10,1.604314111614662e-10,2.383238570240709e-10,1.8908921479005617e-11,1.58162426552495e-10,-0.00016007538332330837,5.829899711384262e-06,9.55741069682958e-06,-1.1341082756891169e-05,4.102314569610996e-05,4.870474186529485e-08,-0.0002741514081294588,0.00033139946187851787,6.242257902923687e-08,8.087259771978082e-07,-6.129560435123067e-06,-3.7395780481752013e-06,0.0,4.98650177402058e-06,8.941341875693309e-06,-9.503615218635327e-07,6.649124624941256e-07,7.373545400314367e-08,8.200521058536297e-07,-6.118229826631869e-06,-3.728234438988418e-06,5.763331010761036e-07,4.990274563146601e-06,8.935286977839441e-06,-9.460169067631997e-07,7.489363957134638e-06,2.44544641217382e-10,2.6274630498566464e-07,2.4840763589149538e-05,9.117656164638035e-05,2.117472003211564e-06,3.1949215865667932e-06,0.0,-0.00015567079038432652
vCBB_max,-0.00016122123536742365,-0.0004083501190704202,-0.2664556033513085,-0.04158565283983167,7.725434092738372e-08,0.0008213118712885926,0.012017636480226775,-0.1457478023111849,0.15128636328121603,-1.0389678841577936,-0.03987052262088331,0.11453468991730195,-0.00027577003719213544,-1.3849769408071896e-07,0.2921704952232114,-0.007267490743494325,5.0331793332302204e-09,-0.26645560335150104,-0.04158565284030662,0.019994855473449175,0.0025219863797715006,-0.0710930371051852,0.0,-2.3107604849478704e-12,-3.646168435487868e-12,-4.199539330820633e-12,0.0,-2.6034967333744033e-12,0.009421185261440694,-0.03648817663464154,-0.13556058762527348,0.1493719595206064,-0.04350220694452476,0.010252501465375376,0.016135093986887273,-0.08317130577973049,-3.6740099220935418e-06,-4.758899114876012e-05,0.0003607624671623021,0.00022010934725336277,0.0,-0.03120139104385595,-0.12767941330483795,0.005956380789745404,-3.913305256533798e-05,-4.3398461596398984e-06,-4.825482696254053e-05,0.00036009642213490165,0.00021944330092616253,-3.390598861342337e-05,-0.031225005503434128,-0.12742563630792422,0.005929195453443247,-0.0668231272617141,-4.40620975166454e-12,-1.5487247672537497e-05,-0.006234285369920354,-0.02312573554617268,-0.9678486795770517,-0.0008018296464009696,-1.3879175243335405e-11,0.03906877016980997
vOxy_max,-6.029405721244269e-07,-1.527164011970664e-06,8.719620504863277e-05,0.0002947790495581444,-5.124233571705701e-08,-8.432677365354828e-06,9.010614456167955e-06,-0.0005878631397789848,0.005023743061689662,-0.000960659168140727,0.0002826222412108069,-0.0008151300393472948,1.962639111869087e-06,-4.970846977502692e-07,1.0015569772154125,-5.449037356023395e-06,4.364749174010349e-12,8.719620499401483e-05,0.00029477904901059664,-6.543212389941208e-06,-1.787704877801585e-05,-6.562768591777824e-05,0.0,0.0,0.0,0.0,0.0,0.0,3.5233723242528285e-05,0.0003746360328717243,-0.000101640966803471,0.000602480913785857,-0.001444571113794265,9.479753338790809e-06,6.0342564536017406e-05,0.0005895581131138761,-1.373941280333533e-08,-1.7797371324904798e-07,1.3491809715993061e-06,8.231636987293595e-07,0.0,0.00032051527973329355,-0.0001031889323382546,-6.0993471392920104e-05,-1.4635083307096052e-07,-1.6229299594563556e-08,-1.8046396072219118e-07,1.3466935550487651e-06,8.20675147112949e-07,-1.2680231848985929e-07,0.0003207579237434675,-0.0001015379546701217,-6.07141626706551e-05,0.00029271916983252303,0.0,-5.761344280464876e-08,4.4191605055918234e-05,0.0007021894185918192,-0.0011536710129502403,5.683960579420825e-06,-4.940986386627404e-11,-0.0002769895197982279
k_O2,-1.5194471236039338e-06,-3.848535941104154e-06,-0.0002458420301577843,-0.00028432679852627364,-8.978678588807952e-09,4.990273591149507e-06,6.61315025043619e-05,-0.0005148372831177273,0.0006297600716953798,0.0001789270549354805,-0.00027260007716635573,0.0003436809122773674,-8.274894848400616e-07,-8.267591967665023e-08,0.0006024309419368491,-3.999206464029491e-05,2.3133170622254853e-10,-0.00024584202971839633,-0.00028432679850219037,1.8448011219340835e-05,1.7243166399817052e-05,1.2167029263468646e-05,0.0,0.0,0.0,0.0,0.0,0.0,8.879088897780528e-05,-0.00022170139092640584,-0.0007459724176866079,0.000527639200002253,-0.00018108673120955846,-1.7656464827406985e-06,0.00015206695378299268,-0.0005686536225457875,-3.462350943806676e-08,-4.485053409120903e-07,3.400040909069072e-06,2.074438438412878e-06,0.0,-0.00018958733836353742,-0.0007022154139187098,3.6182383616146336e-05,-3.6880992125646687e-07,-4.0899161642486894e-08,-4.5478186207879236e-07,3.3937635866251385e-06,2.068161228375534e-06,-3.1955700244433407e-07,-0.00018973082658950245,-0.0007008948968886523,3.6017196607424715e-05,-0.00038555250481618673,0.0,-1.4582528258717096e-07,-4.262466329301613e-05,-0.00048118949106016104,-0.00014168495199355391,-5.4821802145172096e-06,-8.327505146001242e-12,0.0002671089173813409
k_ox1,0.00012668483154954448,0.0003208744218809273,-0.008310555370911943,-0.00848774086380238,-4.151494229320463e-07,0.0004065872317399873,0.002365565007403004,-0.015486700541966299,0.018638207561001936,0.0008768153802329437,-0.008137671823121683,0.009870428376523405,-2.376544667783588e-05,-3.7787824102529847e-06,0.01841604064585239,-0.0014305410187311367,3.339500146279537e-06,-0.00831055537078049,-0.008487740863427847,0.000623624917513518,0.0005147440372835104,5.6017510333509924e-05,-1.810376604087799e-10,-1.6999494634266503e-09,-1.9124153444133864e-09,-2.835738933136632e-09,-2.301955658313727e-10,-1.8758193963962574e-09,-0.007403003533045557,-0.018063329226986963,-0.026683897702927055,0.015871792025537932,-0.005359393568169038,-8.652385948680366e-06,-0.012678675108191779,-0.016975481726946934,2.8869772247953246e-06,3.739290234659056e-05,-0.0002834813818968962,-0.00017296031757168566,0.0,-0.015450468303044886,-0.02493071306900223,0.0029442808962638223,3.075005717427896e-05,3.4101855539158793e-06,3.7915932126953266e-05,-0.00028295837096313427,-0.00017243748244571383,2.6639827819184712e-05,-0.015462163602640178,-0.024920296720961133,0.0029308178199363988,-0.02243284973378003,-2.9058953312227638e-09,1.2124303797663576e-05,-0.001272434000524054,-0.019573081490351512,-0.008098074510963444,-0.00016365378466505552,-3.7806873362845634e-10,0.00797360287548924
k_aa,-2.778102075243686e-05,-7.036533051109144e-05,-0.004295816276040516,-0.0050679212019428595,-1.4669001109106688e-07,0.00016584757459013337,0.0011420303309967227,-0.009153063636913724,0.011206267950007067,0.003584991882551773,-0.004858901025341487,0.006106064132024808,-1.4701830638620247e-05,-1.3544521872408002e-06,0.010685787254213963,-0.0006906262234027257,-6.235355962871928e-12,-0.004295816276081505,-0.005067921201332415,0.00032235848891489877,0.00030734706246990346,0.0002441023540956568,0.0,0.0,0.0,0.0,0.0,0.0,0.0016234226066508776,-0.007368060547544802,-0.012882258754500112,0.009380663237333008,-0.0032223485111636924,-3.537658392520676e-05,0.002780337093129655,-0.01013584241015433,-6.330899275848432e-07,-8.200349880245378e-06,6.216515259501433e-05,3.792834950692364e-05,0.0,-0.006302055887724152,-0.012060956876444843,0.0012011943936141168,-6.743257042416347e-06,-7.478263878033636e-07,-8.315085828104903e-06,6.205039112268158e-05,3.781358647929501e-05,-5.842558772551747e-06,-0.006306826170659371,-0.012051013937491492,0.0011957030368126935,-0.009676618089189902,0.0,-2.66766661879554e-06,-0.0007597540212677974,-0.008102315966261297,-0.002175037362476613,-9.771598756122913e-05,-1.3546075037495358e-10,0.004761038337210643
