,PSII,Q_ox,Hi,Ho,O2,PC_ox,Fd_ox,NADPH,NADH,ATP,CO2,succinate,fumarate,3PGA,PG,CBBa,OCP,Hi_mol,Ho_mol,pHlumen,pHcytoplasm,dpH,light_ps1,light_ps2,light_ps1_ML,light_ps2_ML,light_ps1_tot,light_ps2_tot,Q_red,PC_red,Fd_red,NADP,NAD,ADP,PSIIq,Keq_PQred,B0,B1,B2,B3,Keq_vSDH,Y0,Y1,Y2,FPS2_old,B0_tot,B1_tot,B2_tot,B3_tot,FPS2,Y0_tot,Y1_tot,Y2_tot,FPS1,FPBS,Fluo,dG0_FNR,dG_FNR,f_CBB_energy,f_CBB_gas,f_oxy_carbon,f_oxy_gas
PSIItot,0.6294769742239396,-0.9777398328781349,0.008204149937573324,0.04737838618809115,-4.081432225872323e-06,-0.3593810424483887,-0.18295742962323955,0.007882741464312183,0.32552332430395314,-0.13582274191775925,0.044940604558582356,1.0383982611629676,-0.008409555225724827,-3.972827848365843e-05,0.14985741786383647,3.4200511632777854e-06,-2.0700424805086047e-09,0.008204149937082116,0.04737838618863128,-0.000664589734618775,-0.002914286429522562,-0.010012323627834245,-0.01883215310987898,-0.9791852636585305,-0.020116206233755613,-0.9770453579451928,-0.01884341567804153,-0.9791670520115858,0.25621189293495716,0.13309980202373753,4.441651605738909e-05,-0.0212354534539608,-0.08836115711258123,0.042040227004808424,1.1370208735923926,0.09475677249920889,1.0110260988810755,0.008872112465059472,0.9866119464750389,-0.046496679443760305,0.0,-0.0408487091096252,0.04016330509722851,-0.2868746460092692,0.9515639750830057,1.0110695384825152,0.0089337637136196,0.986673597622139,-0.046416816646971115,-0.03078650496293462,-0.0412075301416369,0.04013567994400958,-0.28664716500451204,0.02968404199438387,4.0390431305030366e-11,-0.01730419533772215,0.00686400894904979,0.017034306261046895,-0.022229815401647778,0.0007273468602497983,-3.964446952061474e-09,-0.04421733902475169
PSItot,0.009200261226365889,0.024277741162863804,-0.00018104125185407812,-0.0011917916204175125,1.1727783366685943e-07,0.009021347577229843,-0.950517003002402,-0.00013658010573254414,-0.008214012497275255,0.0035025165801567206,-0.0011304700026087736,-0.025877946365134866,0.00020957474182595998,1.1296872860234277e-06,-0.0038602335122470137,1.7768161688650265e-05,9.111102467027307e-13,-0.0001810412518338404,-0.0011917916205670949,1.4665524130457514e-05,7.330815573561945e-05,0.00025833202205646566,-0.9811678563297943,-0.020814746264077956,-0.9798838031692132,-0.022954651974258073,-0.9811565937614554,-0.020832957910759193,-0.006361862134043092,-0.003341132209547973,0.0002307567058480549,0.0003679355071013431,0.002229639459829855,-0.001084108522254335,-0.0034022928207407157,-0.002383583265996388,0.02010676642175592,-0.00013765547616669143,-0.02441539616191272,-0.04389119965764478,0.0,0.990272567130049,1.05315639122872,0.27906589614799737,-0.008160728796545967,0.02020930890790281,-5.332463775157231e-05,-0.02433106532452207,-0.043825080468209834,-0.030106996869213344,0.9907619370928783,1.052876187892351,0.2778230558723644,0.9468646917461223,0.0,-0.015452420750182981,-0.00017266245039495806,0.0842622761128714,0.0006052827014379359,-1.8296278074560027e-05,1.1269888408744982e-10,0.0011122909804426357
k_Q,0.01268771272228424,0.0334804599909322,0.02033105161968941,0.005271902968542005,1.865194293421838e-06,-0.9811133425923477,-0.2590146793941935,-0.0031762182748424194,-0.021692028953851063,0.05220085448058096,0.005000616080514065,-0.03786599555494872,0.00030666094240450057,1.6757677775779547e-05,-0.05135260407778022,4.841801103931892e-06,0.0,0.02033105161949604,0.005271902968387353,-0.001646947981374203,-0.0003242794127048165,0.0038488834508582158,0.0,0.0,0.0,0.0,0.0,0.0,-0.008773389139501831,0.3633636064150306,6.288091006207848e-05,0.008556469299468667,0.005888158038039499,-0.01615735142107007,-0.004691966112736681,0.010543805960505298,0.014764991034146392,0.01555150268107145,-0.017928957457255583,-0.01608247506125346,0.0,0.008699181067842758,0.037234322132522917,-0.6243934725208152,-0.005298349807673784,0.014834223074257767,0.015620734720931291,-0.017859725415649636,-0.016013243020417574,-0.0044640393432640035,0.007991811777833925,0.037499250965024024,-0.6233859744476191,0.1377318258859477,0.0,-0.002295432115955407,0.0007637742026408603,0.023723474384582048,0.00847317179209818,8.09260784491263e-05,1.6727179199777648e-09,-0.004917824788459919
k_FN_fwd,0.12698745178879806,0.3350957433372928,0.14453847524878546,0.12223101960037303,3.7196034447572915e-05,0.11578570066847606,0.2706928245117855,0.30850780064263167,-0.8482021476814068,0.07159244183970143,0.11594120275861441,-0.7263813275641146,0.0058826599507582795,0.00033780221607917485,-0.5624844178873036,-5.060102958599731e-06,-1.0258190267626045e-07,0.144538475248627,0.12223101960075099,-0.011708560439278851,-0.007518538016386247,0.005701437408222568,1.3448494622949976e-09,1.9464798488194503e-09,1.3008397636961569e-09,1.9421147070275973e-09,1.3444472643905842e-09,1.9467974629902043e-09,-0.08781018408811916,-0.04288221140260079,-6.571600959053989e-05,-0.8310944955369111,0.23023887272894208,-0.02215948864149642,-0.04696045959121742,0.24446204232255087,0.1477783042695147,0.15565026176541036,-0.1794454818616331,-0.16096460021175565,0.0,0.14984534713116035,-0.09212200984047111,0.22580587336268873,-0.05302957240664069,0.14847122670454244,0.15634318420087284,-0.17875255940774631,-0.1602716777569226,-0.04467920967593556,0.15032758243705144,-0.0917544875506444,0.22608764582203789,0.04729306383285084,1.9903506981978854e-09,-0.025106129991799776,0.017708387101243717,-0.06910506766920305,0.16188739413447908,0.0018763204648098314,3.371195584889804e-08,-0.1140276835362575
k_SDH,5.292819776408365e-05,0.0001396662384938079,0.00033179445361981364,0.00026929555785792805,6.013721831752411e-10,-0.0001665772261584983,4.967204231683772e-05,-6.462685586895283e-06,0.003145612892027436,0.00021654080614612006,0.0002554390945080192,-0.574046391990636,0.00464896273675161,-2.564210184446886e-08,0.00043084482594724397,-9.285934469873937e-10,1.045954563214735e-09,0.00033179445398870807,0.00026929555742736004,-2.6877517854882352e-05,-1.656460804721743e-05,1.597374150161792e-05,-1.3584338002979774e-11,-1.9963895885327695e-11,-1.1993558105000027e-11,-2.0308299082842238e-11,-1.3465188318241598e-11,-2.037616961861757e-11,-3.659884759681311e-05,6.169328151599114e-05,-1.2058275824131279e-08,1.7409940385514473e-05,-0.0008538558498567498,-6.70243039254401e-05,-1.957305658593174e-05,0.0005385911010439798,6.159326028905454e-05,6.487426262940394e-05,-7.479198320490891e-05,-6.708919884772441e-05,0.0,6.031686272340899e-05,-2.789195157833566e-05,-4.668599414194254e-05,-2.210240861710875e-05,6.18820679183213e-05,6.516306708851608e-05,-7.450317573774456e-05,-6.680039241718438e-05,-1.8622116574192674e-05,6.035227608030177e-05,-2.769144306035788e-05,-4.635867830897092e-05,4.8168495855152366e-05,-2.0195215652515186e-11,-1.0418572837934626e-05,3.9014563997410694e-05,8.591096744401716e-06,3.837281260338428e-05,4.134114531300894e-06,-2.2206676667477796e-12,-0.00025130438364995435
k_NDH,-0.009392037964098402,-0.02478380300826365,-0.031237315601983274,-0.02190786160363273,-1.8691089827080511e-06,0.006262207067697779,-0.012199397567185324,0.002260236148266351,-0.33602345344634615,-0.03233121519478255,-0.020780582530825396,0.08184818096122314,-0.0006628543520359201,-1.339419901611121e-05,-0.04580497176806546,2.2804547023431733e-07,-2.5511086907676464e-11,-0.031237315601954363,-0.021907861603975384,0.002530426581989248,0.0013475719305925228,-0.0023844628520647117,0.0,0.0,9.225813926923097e-13,0.0,0.0,0.0,0.006494473140993588,-0.002319261236897049,2.9616438133083888e-06,-0.0060888892194129315,0.09121134784137827,0.010007246260753156,0.0034732126128753345,-0.04381572357943714,-0.010929737314527982,-0.01151194999904973,0.013271853328304946,0.011905000764977533,0.0,-0.008759200930944094,0.004823285576834992,-0.004790225834793533,0.003922086564631763,-0.01098098611060486,-0.011563198795127084,0.013220604528168393,0.011853751964668566,0.003304490671494093,-0.00877768982711615,0.0047985888736892515,-0.004819770874042446,-0.00454510590269945,7.47970950093155e-13,0.0018551814509663689,-0.0031739315997230595,-0.0002594293600172657,-0.005107228977469943,-0.0003363145748861543,-1.3368419353821634e-09,0.020442398526526254
vNQ_max,0.04584029042553543,0.12096381918943168,0.09725084218832125,-0.089961552564446,2.2971973099935e-05,0.3451206315538672,0.4610106487062166,-0.039194871188970776,-0.03210790654883954,0.6490287962829278,-0.08533290000593709,-0.1829067572616538,0.0014812856814405834,0.00020566200156096635,-0.4290916270671523,-8.617743524235738e-06,5.102217381535293e-11,0.09725084218822759,-0.08996155256430116,-0.007877953500160635,0.005533614668092731,0.04784856759557016,-1.0449490771522902e-12,-1.174346816783982e-12,0.0,-1.068857846465381e-12,-1.0357837167878153e-12,-1.1643525496352897e-12,-0.031697971228559524,-0.12781833849995233,-0.00011191940664993326,0.10558774083046797,0.008715479239806558,-0.200889170274175,-0.016951919861635686,-0.17992310469325687,0.05334543451950101,0.056187075325127254,-0.06477674276995755,-0.05810546233988675,0.0,0.22934910891250015,-0.1482371073629172,0.4539684161312378,-0.019142766853702455,0.05359556764859852,0.05643720845271902,-0.06452660965456786,-0.05785532922286522,-0.016128430236406383,0.2302121947705044,-0.14771599140067077,0.45423122521454234,0.04944184240413334,-7.47970950093155e-13,-0.009011045861087145,-0.013033303868109,-0.03845265730954141,0.10549163992255463,-0.0013811271266066028,2.0524520909916352e-08,0.08397474522967739
kRespiration,0.008838224880407544,0.023322394081544993,0.06042235360292323,0.049769770816279105,-2.2686990002891633e-07,-0.032311139801870614,0.007339166514023872,-0.0007753604857693107,0.6842874329523098,0.036906657171833196,0.047208898574302695,0.4358273342158818,-0.0035295841387933532,-8.683776054291845e-06,0.10986559175394281,-1.371918633242457e-07,-1.7311094687351886e-11,0.06042235360329121,0.04976977081610502,-0.004894605408822468,-0.0030613826538881486,0.0027226340701403855,0.0,0.0,9.225813926923097e-13,0.0,0.0,0.0,-0.006111518151028658,0.011966703312274136,-1.7817271063463256e-06,0.0020887570117753846,-0.1857453056627432,-0.011423449590084095,-0.0032684103549837475,0.09953954041596824,0.010285251690611688,0.010833133479426944,-0.012489261904202995,-0.011203007465118002,0.0,0.010257275139762241,-0.004571487654458398,-0.010510083175906392,-0.0036908157947529103,0.010333478534146583,0.010881360320889806,-0.012441035051714708,-0.011154780612056676,-0.003109637231579449,0.01026033208040551,-0.004536407747600034,-0.010450423613790368,0.008735644822915646,7.47970950093155e-13,-0.0017386483313804285,0.007210464186126104,0.0016824007928555676,0.0066967981098117035,0.0007640460787191665,-8.66615556948321e-10,-0.04644508043486059
kATPsynth,0.0010728156120089016,0.002830954005428568,-0.00836369202571707,0.0034040100186534597,1.5227474556769832e-07,-0.0014529313852516166,0.0014156585427132265,-0.00026100640265820196,-0.00428491427966754,0.004069395824340626,0.003228856111060375,-0.002770888998671382,2.2440286178491696e-05,1.3639281161456722e-06,-0.007493872251698368,-2.6463710397888153e-08,-1.1479989108454409e-10,-0.008363692025518435,0.0034040100182099065,0.0006775136714060832,-0.00020938366354031967,-0.00300764099698157,1.0449490771522904e-12,2.348693633567964e-12,1.8451627853846195e-12,2.137715692930762e-12,1.035783716787815e-12,2.32870509927058e-12,-0.0007418375119576244,0.0005381054003652227,-3.436790759059048e-07,0.0007031296586253859,0.0011631116902992796,-0.0012595705386438628,-0.00039673143673967285,0.00680802014687118,0.0012484598485856082,0.0013149637198823691,-0.0015159903178885471,-0.0013598601184509067,0.0,0.0011433503904073447,-0.0006021949147771339,0.0002151418341871341,-0.00044800402760680297,0.0012543137918626659,0.0013208176623503696,-0.0015101363764131455,-0.0013540061746364687,-0.00037745856214701183,0.0011452906788676945,-0.000598814508021417,0.00021963602991591054,0.0006801209336474175,2.243912850279465e-12,-0.00021165209684275284,0.0004931606317954825,6.809671071712269e-05,0.0006541030593284273,5.225647670424751e-05,1.360158945883015e-10,-0.003176447261044098
vCBB_max,0.42499563740287816,1.1214826928389627,-0.2855162775975713,-0.10231092404825391,0.00015968069401099642,0.9224610239388209,1.1140493222641048,-0.27378962008890134,0.369674663803629,-0.6668806526407569,-0.09704851680678662,-0.7517694364703963,0.0060882676896877675,0.001419449311655102,0.8773968395293085,-2.082509612749778e-05,-9.11110246702731e-13,-0.28551627759723297,-0.1023109240484259,0.023128683517395488,0.006293235416054115,-0.04682443024272817,0.0,0.0,0.0,0.0,0.0,0.0,-0.29387899926327066,-0.34164122521333085,-0.00027045739502932657,0.7375665889713138,-0.10034574671082074,0.2064147257385883,-0.15716505981696602,-0.2046218481083546,0.49457749094236814,0.520922981725737,-0.6005597142304946,-0.538708773789262,0.0,0.5387724110681239,-0.3530453579962103,1.138536254249626,-0.17747688358968366,0.496896531231653,0.5232420220126863,-0.5982406739086217,-0.5363897334679997,-0.14953028899573656,0.5408830885201569,-0.35184873600009026,1.1390415294688587,0.10087852190462968,0.0,-0.08411594552745251,-0.014822436041077278,-0.058497230666587526,-0.2592355454703638,-0.001571150569718495,1.4165750079567424e-07,0.09563704692057436
vOxy_max,0.0015563608275397844,0.004106945431994837,0.0042780276939280715,0.003211880693958786,8.594685582081374e-08,-0.0001857420330346054,0.0029761054594748078,-0.0006598673897050127,0.05008157711137863,0.003658623146842988,0.0030466142211352733,-0.011949134905305447,9.67710667773634e-05,2.8152017514976426e-07,1.0079821253734913,-5.563321219344228e-08,-4.5555512335136545e-12,0.004278027694008427,0.0032118806938586167,-0.0003465481859099216,-0.00019756562108052414,0.0002724905378027829,0.0,0.0,0.0,0.0,0.0,0.0,-0.0010762047615836994,6.879112948160851e-05,-7.225086216830855e-07,0.0017776281644282107,-0.013594313443258173,-0.0011324270551101576,-0.0005755483615030619,0.006423761415067195,0.0018111762806178775,0.001907655130700192,-0.002199290363558343,-0.0019727883182022845,0.0,0.001902359006043414,-0.0010981615724975856,0.0017982051457181793,-0.0006499326051703345,0.0018196687620088063,0.0019161476130373598,-0.0021907978807859,-0.001964295835975365,-0.0005475903587612063,0.0019072486821043368,-0.0010930874168414598,0.0018034436206084417,0.0008266571506395625,0.0,-0.0003073062428109408,0.0004653256384825903,-1.3488630622152134e-05,0.0003838521296108449,4.93072118646888e-05,2.831351275103419e-11,-0.0029972210386128998
k_O2,0.19105482581269362,0.504157370059288,0.10467059648804168,-0.11702605047607688,2.6929885530972666e-05,0.486842976902543,0.5256506386306921,-0.046291268941918026,-0.15911154211552378,0.768583751461838,-0.11100485513506542,-0.5955441352021339,0.004823064023499642,0.00024230383946783745,-0.5312737339461127,-9.826069131501195e-06,-3.170663658525503e-10,0.1046705964881574,-0.11702605047647559,-0.008479001975764346,0.007198375813511946,0.0566622039697015,4.179796308609161e-12,6.458907492311901e-12,3.69032557076924e-12,6.413147078792286e-12,4.14313486715126e-12,6.403939022994094e-12,-0.13211194816494673,-0.1803064051485315,-0.0001276120359402523,0.12470484937141801,0.043189777572206,-0.23789414738159254,-0.07065282672251345,-0.23405210244070895,0.2223350271670622,0.23417852091065025,-0.26997884623150276,-0.24217404174459986,0.0,0.24519823005392094,-0.1635621219924696,0.5614094171123277,-0.0797839135618787,0.22337754103209312,0.2352210347758404,-0.268936332379067,-0.24113152789330536,-0.06722065164999057,0.24620870629811642,-0.16303406096141262,0.5615721203732194,0.03675135445961826,5.98376760074524e-12,-0.03782770451340533,-0.01695431015163841,-0.044222716604081995,0.1249831546410431,-0.0017966230066719638,2.418140539013326e-08,0.10923516075243872
k_ox1,0.03643088929019022,0.09613419488220809,0.014919984239782226,-0.017137395921081357,3.877994683970136e-06,0.05612285200830173,0.03887564280731655,-0.006685097316634316,-0.03119429689291088,0.11113739588625236,-0.016255646199895963,-0.1104496821728254,0.0008944859931960566,3.497034470176779e-05,-0.07884734466109493,-7.267085711553158e-07,1.55799852186167e-10,0.014919984240214847,-0.017137395920646236,-0.0012086162051706917,0.001054136392553148,0.008193366381023703,-2.0898981543045804e-12,-2.9358670419599547e-12,-9.225813926923097e-13,-3.206573539396143e-12,-2.07156743357563e-12,-2.9108813740882242e-12,-0.025191490842757323,-0.020785571883725866,-9.437827065855197e-06,0.018009099187800557,0.008467485931070084,-0.03439955110409678,-0.013472286278991519,-0.034274791351515205,0.04239549096285657,0.044653842724453885,-0.051480353239220934,-0.04617845225775097,0.0,0.014618878130754562,-0.010919743158972942,0.05095869939802435,-0.015213429325630832,0.04259428054342221,0.04485263230680207,-0.051281563654097,-0.045979662675320554,-0.012817829743935348,0.014699294920790421,-0.010894941718787477,0.05094121226209215,-0.0015116209678237452,-2.99188380037262e-12,-0.007226740212752038,-0.002482803869812775,-0.003112537902920097,0.018076740618720086,-0.00026309882473413414,3.489779238294135e-09,0.015996425773481253
k_aa,0.02473705895128744,0.06527639686350033,0.014469149402742187,-0.015791475157203503,3.679089231580599e-06,0.06369258488660638,0.03759870926351511,-0.006317663838833383,-0.02060200050491449,0.10490817640248239,-0.014978976642919042,-0.07756559034813845,0.0006281714153367269,3.3090815003113096e-05,-0.072383213714603,-7.028387879186042e-07,-9.111102467027311e-13,0.01446914940323026,-0.015791475157324316,-0.0011720956127031753,0.0009713475991024756,0.007734143528140301,0.0,0.0,0.0,0.0,0.0,0.0,-0.017105357316924887,-0.023589086339043733,-9.12782644745103e-06,0.017019263792260347,0.005592277012494277,-0.03247146603209681,-0.009147861784764887,-0.031582950356354236,0.028787101729007187,0.03032055266922745,-0.0349558439349493,-0.03135578261168261,0.0,0.012493841242225332,-0.010010400829034451,0.053701257978296266,-0.01033012057562435,0.028922082495743694,0.03045553343561694,-0.03482086316856955,-0.03122080184533573,-0.008703476783552256,0.012574276619638962,-0.009993082964178676,0.05367053231024424,-0.0034410811671698313,0.0,-0.004910919576773219,-0.0022878117067182103,-0.0029998012587231673,0.017060054792302475,-0.00024243614753588757,3.3026879873706354e-09,0.01474021952004622
