,vPSIIquench,vPS2,vSDH,vRespiration,vbd,vb6f,vaa,vPS1,vNDH,vFNR,vPass,vO2out,vATPsynthase,vATPconsumption,vNADHconsumption,vCBB,vOxy,vPRsalv,vPSIIunquench,vFlv,vCCM,vCBBactivation,OCPactivation,vNQ,vExch_3PGA
PSIItot,0.8623919865482752,0.012075523901768307,-0.08925053427288211,-0.08925053423319357,0.3709641974959977,-0.06215283551574721,0.21949242480612927,-0.06757781295720791,-0.6865206671910983,-0.023042634785995244,0.010859988920034019,-0.020247688534042737,-0.04398587129702372,-0.149017419927534,0.4444646001788999,-0.02341892241197131,-0.07542662639618275,-0.07542662488102546,0.8623919891108323,0.05483060748051429,-0.02239486762094586,,,-0.3551277349377476,-0.022395699276338145
PSItot,0.022700685020210446,-0.0019231632118162562,0.014609978909004524,0.014609978953858065,-0.06117991536607264,0.010319470289788463,-0.03621106867394735,0.011215729378478614,0.11314969810225227,0.003857482765939531,-0.0017389957421566234,0.003397121899814316,0.007322104893591314,0.02470309885197768,-0.0734247553314505,0.0039184466251405295,0.012482170589728928,0.012482170055324655,0.022700684120983937,-0.008904109449782085,0.0037515577636025857,,,0.05863106636476272,0.003752210279567513
k_Q,0.004301299348027258,0.015679430297587588,-0.0014138000443228303,-0.0014138000271616956,-0.004545765464773735,0.015542023330759495,0.37791360030398835,0.00856211666033375,0.017617267559457916,0.008649234206181354,0.020893845144352278,0.008620725106636406,0.01582453146517989,0.05273533426966019,-0.017734638270225353,0.008588474995142065,0.0035297205219328265,0.003529720007704761,0.004301298488014186,0.005355435849688888,0.0087424609605322,inf,,0.011107851598074349,0.008742546994575396
k_FN_fwd,0.0426853814624586,0.15560009534356714,-0.6187123458024644,-0.6187123458403799,0.02469360095294566,0.1504614062182866,0.07492924471283997,0.15191628697632767,-0.388308795678469,0.16903232066741067,0.14557722692312597,0.17163440825489204,0.14939849795949525,0.07170367860699467,-0.7391353154531614,0.16392559706967869,0.047538452997363874,0.04753845426979805,0.042685383569086216,0.12273842455468562,0.17584411095171235,-inf,,0.11015207897962347,0.1758441455419601
k_SDH,1.463736109821283e-05,5.3354856262536655e-05,0.003584703503601513,0.0035847034598679352,0.00020471677420188898,5.5652100788612335e-05,0.0002950211784654128,5.104143143389316e-05,0.003394254419249397,1.1906369651493926e-05,0.00029177197692536024,-2.5143470464679556e-06,5.64070238485732e-05,0.00018098660168712079,0.0032739570251754994,3.601271938527076e-05,-0.00019009725603821073,-0.000190097800533678,1.4636464666323375e-05,0.0002383401864810762,-1.83419329249726e-05,inf,,3.777239085833186e-05,-1.7659757589119955e-05
k_NDH,-0.0031796713842733018,-0.01159078798695179,0.09542189212673474,0.09542189212891693,-0.0149662434968255,-0.009237919401280223,-0.02444875045178839,-0.008944932344470455,0.6051510451466057,-0.006109207252288031,-0.03188755140388939,-0.008662217735126241,-0.009972171399735748,-0.032589524682979876,-0.36871557995390164,-0.005458684452063088,0.015665790953994223,0.015665790688322412,-0.0031796718128807447,-0.022270333001553334,-0.006998396131545581,-inf,,-0.008205568399898932,-0.006997964297473745
vNQ_max,0.01543334026268264,0.05625881794679864,-0.08760358108416849,-0.08760358317145696,-0.1270098413809358,0.22584586718100375,-0.22572213543754335,0.23454385221295457,-0.0017237249974539721,0.10604656028285292,0.10204311132526854,0.1064313159523939,0.1952716092469088,0.6563061322223374,-0.12856866974105322,0.1046464203426044,0.19154404864477206,0.19154404928285376,0.01543334061005458,-0.09159224175708412,0.10751693216373812,-inf,-inf,1.0398147250360559,0.10751752664859056
kRespiration,0.0028667223673772614,0.010450006208364188,0.8047518520582918,0.8047518509796818,0.042945896914614326,0.011085864140180392,0.06164592703269292,0.010111989467778915,0.7603735267704947,0.0018557315274752436,0.06013001944804621,-0.001383168280043723,0.011208216351415319,0.03589883836762177,0.73681223720517,0.007268235422965511,-0.039721763778641055,-0.03972176234143708,0.002866724437575517,0.04953137271884871,-0.004795782979434647,,,0.007398064696368972,-0.0047952278899957715
kATPsynth,0.00033672517152607537,0.0012274561525311848,0.0005834797385923882,0.00058347974096355,0.002436025555146183,0.0011320065939237442,0.003705398037699124,0.001082438607390727,0.001847297951353097,0.0006537811420167328,-0.008932578733157214,0.0006524671563353208,0.0011697775209624742,0.0038039050481638976,-0.0009202077717296403,0.0006571280216423478,-0.002387470478401072,-0.002387470664587757,0.0003367248540398796,0.0032095188751528818,0.0006603095852990138,,,0.0008689621031529763,0.0006597365227337862
vCBB_max,0.14259599115635557,0.5198020509781233,0.8603736106934309,0.8603736108440725,-0.43333396183188405,0.5262751857791405,-0.47064207776007577,0.5454775457032146,1.4116007517798959,0.7377888982239573,-0.2929918985210826,0.7360512735298953,0.508477652708675,-0.6660148384240273,0.23961983247094418,0.7397334386452614,-0.15965724578841564,-0.15965724598288522,0.14259599084077915,-0.10581914274044343,0.7383462876489783,inf,-inf,0.3679709148720747,0.7383458997980503
vOxy_max,0.0005080150864531659,0.0018518540277843581,-0.01260876233478301,-0.012608762393732743,0.0019506024620466347,0.001907184169439889,0.0031342331250395782,0.0018835490780862753,0.05758496802280162,0.0017476966117259663,0.004161281776607867,0.0003561253871273716,0.0018768991483709611,0.003499927657388592,0.0534096526062466,0.00040242705095302784,0.9974448744193979,0.9974448739071834,0.0005080142021606047,0.0031174912717489697,0.00011068407799552433,,,0.0013109684527723294,0.00011089690178536607
k_O2,0.06365403844885276,0.2320366704804906,-0.06449792890907162,-0.06449792888058527,-0.2638430357238493,0.2359514235717738,-0.3076390878075141,0.2464219220225803,0.23224580063502115,0.12287669648752875,0.10735377473513474,0.12234129250676498,0.226787477587274,0.7626165507655897,-0.2909198012099398,0.12148742450070078,0.23310193157517914,0.2331019306971803,0.06365403697909686,0.882355827253035,0.12425109979577001,,,0.1642594057953075,0.12425146928054284
k_ox1,0.011965534619334138,0.04361770627295101,-0.0067520825707030364,-0.006752082599908723,0.9553355117819855,0.0134255255672312,-0.039262099931917274,0.014440380854009722,0.04797940730216535,0.017477035587246358,0.014854825416626824,0.01733858014794464,0.03228627797351349,0.1085812531221127,-0.05036402922153071,0.017295051188080918,0.03359475555562999,0.03359475659448809,0.011965536338432602,-0.017177161448811453,0.017651580518503372,,,0.030879061332987952,0.01765151491538521
k_aa,0.008148553801613266,0.029703778675425462,-0.009143119867172377,-0.009143120105871027,-0.03477442276312853,0.030233806005921928,0.9592282368336252,0.012339757942586257,0.02902483217889872,0.016594348111908016,0.0143240908263108,0.01653153967048268,0.03062406831254256,0.10298279857978031,-0.03794732123229137,0.016403639014517968,0.031639871221746524,0.03163987923693289,0.00814856692874023,-0.016056354553293628,0.016784766067686998,inf,inf,0.021028395183691456,0.01678335182759484
