,vPSIIquench,vPS2,vSDH,vRespiration,vbd,vb6f,vaa,vPS1,vNDH,vFNR,vPass,vO2out,vATPsynthase,vATPconsumption,vNADHconsumption,vCBB,vOxy,vPRsalv,vPSIIunquench,vFlv,vCCM,vCBBactivation,OCPactivation,vNQ,vExch_3PGA
PSIItot,1.095857430827391,0.051132109876934645,-0.014502996988555327,-0.014502996989026209,0.16717560630339945,0.03870950512770454,0.1975509616110969,0.03620568913459255,-0.025830538621960657,0.038782205435568186,0.024068909568082577,0.04001989480410243,0.04159614876657958,0.07446046134993667,0.025807147252365433,0.03777712011202045,0.03215019473957329,0.03215019255926507,1.0958574247179411,0.15156326334570303,0.040106474479263576,60000.0,-0.0,0.014099673098861525,0.040105431533961705
PSItot,-0.05101646547639245,0.003879759455766612,-0.004036532898698639,-0.004036532887699857,-0.08650761791075073,0.006987991441774888,-0.14016152254624376,0.009307507538875052,0.0029894503232187966,0.006370043564055639,-0.0003194750130173027,0.006438696066333316,0.005714960431937289,0.001343151258097479,-0.024492740268382353,0.00617126378144266,0.006819237964222501,0.006819238632583016,-0.05101646439213714,0.05462355805192086,0.006624081396634414,-30000.0,131267.71653543305,0.010844408752603094,0.006624870456209729
k_Q,-0.4187784356306981,0.06936048847850348,0.010781082303527905,0.010781082302256063,-0.7055849858126526,0.0795128925998505,0.31956583193242666,0.07572894096829864,0.06756894508794,0.06827787592029604,0.02864516652460427,0.06832873767461178,0.07279273923878793,0.12150795594673774,-0.15802388915481114,0.06718328447093815,0.0681815108351065,0.06818150897729067,-0.4187784408414855,0.2893461558688813,0.06969157196554819,50000.0,-0.0,0.06642222136469449,0.06969112343997422
k_FN_fwd,-0.17202424457767307,0.02849164318661893,-0.49878936151361514,-0.49878936151611003,-0.05055531711311983,-0.01089737735229427,0.17968447691249786,-0.013901516868176474,-0.46748962222058804,0.04818450705596142,0.1421094479517609,0.05839535461479015,-0.004889931029628007,-0.4019794448556815,-0.5601578056935962,0.03810973224579703,-0.1899445726205488,-0.18994457339728762,-0.17202424669697822,-0.5671105501518797,0.06211945690113857,22500.0,-0.0,-0.10053189991609064,0.06211827790469286
k_SDH,-2.398954048239152e-05,3.973396332764177e-06,0.0018017432341153378,0.0018017432326483662,0.00012295210656500526,3.504914467352306e-05,0.0002944584784225172,3.096008370201014e-05,0.0017512627448490277,3.948048937455569e-06,0.00016046501573558817,-2.9345391637798093e-05,2.8263048508422465e-05,-1.2574716233037126e-05,0.0017383395901645862,3.8351041972847845e-05,-0.00011759139383619289,-0.00011759191908562974,-2.3991017591826427e-05,0.00046349614926367714,-4.0161961399618306e-05,10000.0,-0.0,4.2975297408241996e-05,-3.998406189624372e-05
k_NDH,0.030154285164820646,-0.004994325702835369,0.11832034628640226,0.11832034626704949,0.010687138835053359,0.0024296747376603865,-0.027724496272729948,0.0029049944632839548,0.3567969594584122,0.0003999519813263125,-0.04321364000479603,-0.006317084311593357,0.0007331964778593621,-0.013193156352741734,-0.6269591561209061,0.0025875045368771808,0.04082157046965071,0.04082156976305641,0.03015428400932645,0.022571489677297864,-0.0025814629136465183,37500.0,-0.0,0.0067555857768107136,-0.002581466688185525
vNQ_max,0.4367651628018006,-0.07233955303947556,0.33884131450201294,0.3388413145030535,0.48752184552895406,0.12906600513911812,0.2874688538819849,0.12656910291763288,0.27927127205525426,0.02493666341444541,-0.05750809419755116,0.01970175430843344,0.10587885877037462,0.7861468014736465,0.5145534201378704,0.03056866173922361,0.2666986205482006,0.2666986204859418,0.4367651626405212,-2.2068599947466034,0.016723757794917377,0.0,834.6456692913385,0.7018611896185942,0.016723337334496505
kRespiration,-0.013132218918837908,0.0021750336717609384,0.8027971230881787,0.8027971230905092,0.05548481056305755,0.015860921670059713,0.1366948412326689,0.013956218032076124,0.7805031989258542,0.001933540036171981,0.07659956686701423,-0.01289471669849677,0.01286756448725706,-0.004404910192492281,0.7734289696372586,0.017265597410941025,-0.05681154362855414,-0.0568115440720907,-0.01313222015814471,0.20894762931452424,-0.017627401926408787,15000.0,-0.0,0.018972704387475288,-0.017627396017751228
kATPsynth,-0.0007978846675176631,0.0001321501869949806,0.0005489274536268961,0.0005489274561854792,0.00026445488292932136,8.969932893903699e-05,0.0018675285639631874,6.1675427613441e-05,0.0005977803078259405,5.764896131599987e-05,-0.0044445393997644125,4.942770529763039e-05,9.76658833097101e-05,0.00038383570882219675,0.00016796585249942382,6.917379217866961e-05,-0.0014650469353270934,-0.001465046717274352,-0.0007978840190562381,0.0009272738132775302,4.808866430743772e-05,-5000.000000000001,-15.748031496062993,-4.374908779550193e-05,4.8716235981253065e-05
vCBB_max,-0.023520918260585038,0.0038956688973186813,0.5665211265258592,0.5665211265481904,-0.16746622654248083,-0.04658165127243877,-0.3082595053498895,-0.04245682623299972,0.5327380733127433,0.11486070903715753,-0.4938406898257927,0.10803133389270875,-0.04267195129216276,-1.519873051955983,0.5200675286279542,0.12469781799432017,-0.7531580439926793,-0.7531580422718843,-0.023520914378199406,-1.7442565969969037,0.10555303281424422,-70000.0,-188.9763779527559,-0.22181119548892658,0.10555139741558407
vOxy_max,-0.00038227886687822887,6.33151102113848e-05,-0.003761749706368333,-0.003761749706672127,0.000812955432001177,0.00023639854652795806,0.0023165050544033967,0.00020360984963945414,0.02427515008507681,0.0005081737371848304,0.001182811483160504,-0.0012913104967061217,0.00017005499619870994,-0.001140963905579237,0.02406921930664246,-0.0009947449620794843,0.9976145944274832,0.9976145946060296,-0.0003822784237454432,-0.001397784083519019,-0.001443716822944174,-2499.999999999999,16094.488188976378,-0.0003702282737524323,-0.0014439552804415897
k_O2,-0.002284711841290957,0.0003784069366902258,0.06480361189784693,0.06480361189959288,-0.04782163521346171,-0.01338767438378993,-0.09534399318971072,-0.01209579789712944,0.06386440238002743,-0.023171657821426727,-0.02628773708179482,-0.024896868613713184,-0.012166399538668379,0.07382434282497198,0.06263364518619678,-0.021558783094488505,0.020425843344455425,0.02042584371414096,-0.002284710837694882,0.5400208208331776,-0.02542410690653995,-10000.0,-15.748031496062993,-0.057324077602548026,-0.025423693338629785
k_ox1,-0.0230462754811109,0.003817056956529805,0.017721226568646966,0.017721226572607673,0.9488586636719989,-0.013949760190925881,-0.06785149456320991,-0.013100107796416412,0.020400049096891634,-0.0073573043823357935,-0.00877205310612397,-0.007903316240486834,-0.004745217027437667,0.015063132628229763,0.007985190883892886,-0.006897303508395593,0.004909920097038006,0.004909917262133305,-0.023046283373696855,-0.12086081173059111,-0.0079985716808503,77500.0,7.874015748031495,-0.013539651218418713,-0.007998945203906855
k_aa,-0.017594482815729798,0.0029140992909995247,0.028312710887408738,0.02831271074926073,-0.05046327437022034,-0.0025331062504873416,0.9076336161646711,-0.016880054166292624,0.030242119343411117,-0.006153120492990569,-0.011284942134515686,-0.006876183212216638,-0.001040489860727602,0.03982941885547844,0.020764102022926,-0.005526189228124204,0.014391658789498014,0.014391656493826474,-0.01759448441226712,-0.18709768241442273,-0.007048424225633014,285000.0,-1086.6141732283465,-0.0218589036194768,-0.007042542217979834
