,vPSIIquench,vPS2,vSDH,vRespiration,vbd,vb6f,vaa,vPS1,vNDH,vFNR,vPass,vO2out,vATPsynthase,vATPconsumption,vNADHconsumption,vCBB,vOxy,vPRsalv,vPSIIunquench,vFlv,vCCM,vCBBactivation,OCPactivation,vNQ,vExch_3PGA
PSIItot,1.1088758245648598,0.024923226960874695,0.00020561175332406182,0.00020561178934940698,0.15628803067319383,0.01355187412850396,0.11111031228914987,0.009976355967905484,-0.00899652244291615,0.01523686799670972,0.007971366892732713,0.016273520312354236,0.016784215308349306,0.03587811839734193,0.030983085817190458,0.014617229003381435,0.014997788386914509,0.01499778928326151,1.1088758250649577,0.013272415071739666,0.016085098170181805,39999.99999999999,,-0.002129009422452568,0.01608154736561336
PSItot,-0.059354099201388524,0.0017160819843841798,-0.004117179754978996,-0.0041171797534620335,-0.08317221967218862,0.007360391069894382,-0.0684807752649075,0.01013997117241118,0.001141311829677458,0.007549829692077475,0.0001634221813567986,0.007839368075333163,0.005557307651899431,-0.009057626766957799,-0.020653734340646195,0.007072637875554075,0.004923454132157462,0.0049234538301652616,-0.05935409955130197,0.0789225611634599,0.008211658919153939,-3333.3333333333335,-inf,0.015499814803704761,0.008211197244783969
k_Q,-0.40191578853281323,0.04272857065128147,0.026239016824786902,0.02623901659880835,-0.5806467907754265,0.056606918325546124,0.28112492093900715,0.0483783274063035,0.06131145973226673,0.04835249708335575,0.012667515887438642,0.047841182439587945,0.0491594480869989,0.0637105780997701,-0.086273512554612,0.04743843633804418,0.04960217985811258,0.04960217796450911,-0.4019157873550175,0.17884423499999638,0.049570811708082294,-233333.33333333328,-inf,0.04732481271371552,0.04959139472112522
k_FN_fwd,-0.4035948112509638,0.042907071892247586,-0.3887848466539518,-0.38878484665026813,-0.2881338384547582,-0.029983643455869395,0.09100719391008767,-0.03441795981491492,-0.3520828180827393,0.03708488093911736,0.19351188823526497,0.054461174742965045,-0.02178080094344444,-0.4277178582290332,-0.5002843348315512,0.019977219645392973,-0.260461564866048,-0.26046156396111675,-0.40359481023345006,-0.924796925486724,0.06170149271197612,3333.333333333333,-inf,-0.1909819138146978,0.06170052112276819
k_SDH,9.685492986005548e-05,-1.0296927842195225e-05,0.0019452543203660165,0.0019452544684783791,0.0004812399481377829,7.548702880543806e-05,0.0006588353822082406,5.41086968145451e-05,0.001906087456663228,1.5439257495905514e-05,0.0003121829759255701,-6.614778729495396e-05,6.215636309377468e-05,-0.00012898668628379562,0.001941653014342354,9.542195720066265e-05,-0.00023215639362738458,-0.00023215346890714635,9.685609763011963e-05,0.0011486781687272405,-7.963893348317398e-05,163333.3333333333,-inf,0.00013355034217481888,-9.235148374165998e-05
k_NDH,0.08061724503726359,-0.008570600335352266,0.14367711366030117,0.14367711366049615,0.07061819104752101,0.008155318765161682,0.003399078725778944,0.00832963504874515,0.3708264741069936,0.003582103351408372,-0.05157237441697239,-0.012068086022432955,0.005019153529888641,-0.026727202641766378,-0.5995705822278883,0.00928489900838104,0.052783756671273864,0.052783758248257255,0.08061724689077403,0.08305106590088006,-0.0044017716691872825,18333.333333333332,inf,0.018591828183343217,-0.0044010074020080425
vNQ_max,0.685535998536419,-0.07288087300987153,0.3881205743198599,0.38812057452218246,0.6072012713408445,0.07049665904476143,0.0399291405379185,0.0716169610427651,0.32780039444929326,-0.06869040427825233,-0.1312406987321842,-0.08654937537241944,0.05711280433614941,1.0701139563323345,0.5795317611429727,-0.05043623547626534,0.3130489669836356,0.3130489685552451,0.6855359973433268,-3.588468719989767,-0.0952226013314247,159999.99999999997,-inf,0.42495803301975993,-0.09524166069828144
kRespiration,0.040017206088837715,-0.004254318890259737,0.7386195211008899,0.7386195211016563,0.18261552905370076,0.028501780884022474,0.2454225128207068,0.020551632165855326,0.7235305971326811,0.0057559704383804925,0.11351342283062942,-0.025226545983497644,0.0233739152639748,-0.05003747165488189,0.7382250648069683,0.036122879974952934,-0.08368238501967853,-0.08368238545893095,0.040017205582740856,0.4338328697755112,-0.03519057663246621,-3333.3333333333335,inf,0.05099487376792782,-0.035189417256834575
kATPsynth,-0.00035595281321606874,3.784211989380429e-05,0.00020545947517306798,0.0002054595155478456,6.361913605427776e-05,2.6207581862164216e-05,0.0006050952419762386,4.991691006764241e-06,0.00022583545974176462,1.3656249422182087e-05,-0.0026959687549800732,5.340956140596695e-06,2.88386341363994e-05,0.00010622389870361229,9.512829156696561e-05,2.2404735496229026e-05,-0.000529397097845349,-0.0005293962136192655,-0.00035595234939583847,0.0003839594054584615,6.882376967681702e-06,41666.666666666664,,-1.8133275904517854e-05,4.162402964967595e-06
vCBB_max,-0.1074924158856865,0.011427759704271115,0.33142693451401395,0.3314269345138653,-0.30814730774742555,-0.046327691798429584,-0.35799246198335855,-0.03490517238815224,0.32498014095386496,0.05902951144667505,-0.40596193477119547,0.04879815075823088,-0.04469492928999599,-1.0892775159053427,0.28550852641724495,0.0715605439929993,-0.7813905859950998,-0.7813905855942685,-0.1074924155680458,-1.5724165469572953,0.04570783183579352,-4999.999999999999,-inf,-0.23744910721670004,0.04570915793336676
vOxy_max,7.469374910425936e-05,-7.943172695447684e-06,-0.0022334317377225112,-0.002233431737430916,0.0008271189733871571,0.00013383553204079758,0.001261312989057549,9.251347044803697e-05,0.011907080539477106,0.00038430885286363343,0.0005515051079396644,-0.0016382177379187296,7.246270261175109e-05,-0.0007272177426140952,0.011934508411485573,-0.0012612201709692053,0.998048999387631,0.9980490008907168,7.469460511670414e-05,-0.002519374099898908,-0.0018149811260486318,-54999.99999999999,-inf,-0.0005551214055314353,-0.0018153453975102984
k_O2,-0.003002158728030343,0.0003191664222880618,0.004035280036103106,0.004035280035573667,-0.00820870246617672,-0.0012279995408914723,-0.009341511482774257,-0.0009306391807598284,0.00426108158639752,-0.0023299604992278213,-0.0021394745996751747,-0.002621354012030747,-0.0011615879593253281,0.007564445838862282,0.00315867752336986,-0.002073544434169049,0.0016518949418691897,0.0016518917048173583,-0.0030021624791024114,0.9606574431341397,-0.0026969085746215583,-30000.0,inf,-0.005919963540919988,-0.002696781858474708
k_ox1,-0.07207825500050868,0.007662796532992237,0.01895824712814401,0.018958247128742417,0.8771766479538123,-0.017182718953166854,-0.10162196939721997,-0.01408801891094342,0.025050191699565846,-0.010313353970312697,-0.012509999618841326,-0.011866621881265848,-0.005594835973195417,0.028503101835850277,-0.0014172120826823373,-0.009135973887976885,0.009160100628009144,0.009160102422844464,-0.07207825522242982,-0.16248659558662698,-0.012003848628346555,-141666.66666666666,-inf,-0.021488239307602783,-0.012002976881840285
k_aa,-0.12319528740275029,0.013097168021297526,0.05433342351413963,0.05433342351730816,-0.23269746419903764,-0.0025648194117481498,0.7648130488102445,-0.03068923201781506,0.06478354577395569,-0.015626464436637996,-0.0294766978049911,-0.01918132972842997,-0.000944777350119947,0.11193645616103144,0.019545777955614782,-0.012826900231401745,0.04026237271620114,0.040262368915094854,-0.12319529176616908,-0.4471163772017801,-0.019687530914408342,-88333.33333333333,inf,-0.06171887046167857,-0.01968669397729745
