,vPSIIquench,vPS2,vSDH,vRespiration,vbd,vb6f,vaa,vPS1,vNDH,vFNR,vPass,vO2out,vATPsynthase,vATPconsumption,vNADHconsumption,vCBB,vOxy,vPRsalv,vPSIIunquench,vFlv,vCCM,vCBBactivation,OCPactivation,vNQ,vExch_3PGA
PSIItot,0.9056143065073327,0.0013815841445930913,-0.07240167226041604,-0.07240167226938912,0.24095851278179992,-0.06851866870160367,0.15071606074067495,-0.07307158258835418,-0.6909830718519835,-0.028825000879082272,-0.0019148514135406628,-0.026538152664272535,-0.05232502727823213,-0.17606843547607254,0.32697561250754315,-0.029053311992559713,-0.07570405467254425,-0.07570405424940371,0.9056143068106609,0.04922020279821801,-0.028384728883877903,-inf,-inf,-0.39376786212489934,-0.02838447701009358
PSItot,0.002884914372534984,2.9581593015176275e-05,0.002100451395347647,0.0021004496512567424,-0.007349205360754185,0.0021641064382715756,-0.004608677797693255,0.0023047591093902486,0.021017988069214667,0.0009403165452865499,0.00011140773911275802,0.0008710183216739308,0.001668454312547952,0.005508153917616179,-0.0100960797688471,0.0009461861441426057,0.0023571886836466866,0.002357187909318009,0.00288491337910863,-0.001359306936076829,0.0009267078128045822,,,0.012084409212754723,0.0009282952512748405
k_Q,0.0023027015022936896,0.014872791759224215,-0.0011364672578260057,-0.0011364671599835984,0.00016699392798575887,0.014574218571962927,0.32812796434630714,0.008062553158730315,0.014282611672173604,0.008453233770906442,0.019216032910883776,0.008441122727021388,0.014903238658171145,0.049490562024465626,-0.010552242739503146,0.008395979818959802,0.0038067712137953157,0.0038067711180982404,0.0023027014481768154,0.004865274201631899,0.00854049841236685,inf,,0.009614379672943428,0.00854032135907046
k_FN_fwd,0.02405243004389582,0.15535091409742047,-0.6089006083173156,-0.6089006083038239,0.0719188219548311,0.14847290484911785,0.09566172789463255,0.14956965052338636,-0.4070490609459715,0.1674076741957623,0.14255434479393614,0.16964452602453223,0.14830360886955288,0.06944742522999796,-0.6664568056761897,0.16245535233156697,0.04803552723419213,0.04803552638573835,0.024052429408989287,0.12075887531232746,0.17401074310009124,inf,,0.10033650247742532,0.1740112416889485
k_SDH,1.2369686350455741e-05,7.989224410869548e-05,0.004707049986244737,0.004707050146665098,0.0002878720772827326,7.89446216004134e-05,0.00038153170263308377,7.266067919149886e-05,0.004454414139342009,2.1644222975241435e-05,0.00038899436425627454,6.03625156983425e-06,8.143696537873912e-05,0.0002615569045474406,0.004321008674968655,5.275315087463021e-05,-0.0002439397320119956,-0.00024394020486510483,1.236933652534552e-05,0.0003129950782516119,-1.6571116322502846e-05,,,5.1602285766340555e-05,-1.649738554246994e-05
k_NDH,-0.0016865549828647404,-0.010893208176395185,0.08761182949761417,0.08761182928271605,-0.01636970775327705,-0.008555454050171421,-0.022358710904976722,-0.008268797613659767,0.6790161478266925,-0.00587260658669864,-0.0286172940246096,-0.008214996599774088,-0.009316572831904922,-0.03037316699306721,-0.3027941783097634,-0.005282392364657676,0.013478951088573797,0.01347894822518315,-0.0016865572489967984,-0.019795009025075864,-0.00667688517671307,,,-0.007035836913513672,-0.006676470997413707
vNQ_max,0.008602465026264007,0.05556197814994909,-0.07118632196304324,-0.07118632196621909,-0.09876553480252234,0.20984358857108934,-0.18252245866170136,0.21799197286063085,0.0019723622147218237,0.10223247537124065,0.09494517174867678,0.10251971746647698,0.18129603737519123,0.6069826626707894,-0.09080602695552793,0.1009994067135071,0.1780964488594948,0.17809644655587106,0.00860246321722261,-0.08132974090060505,0.10352900525077822,-inf,inf,1.0358737099370883,0.1035294051728368
kRespiration,0.0020385527055306143,0.01316668716668253,0.7848086253477116,0.7848086248800091,0.04766865584342398,0.01302301763832741,0.06317423063188372,0.011981512305503171,0.7425489227323324,0.0035243561506257052,0.06434344917743103,0.0009221288181025076,0.013432828425666463,0.043137834630550334,0.7205629543005546,0.008711275157546435,-0.04039936922283132,-0.04039937147638296,0.0020385508249788128,0.05180907016529376,-0.0028368476442869298,-inf,,0.00850434629924725,-0.0028363410295594057
kATPsynth,0.00019328684373754013,0.001248410416750021,0.0006237144779343158,0.0006237144598392902,0.0026812439203153103,0.001132878071849335,0.003581758852133954,0.0010820214277322238,0.0016978135777804392,0.0006821348546539632,-0.008674643101210992,0.0006820934553323977,0.0011804310829624002,0.0038309662111846074,-0.0003868044926240809,0.0006853494878483819,-0.002228146698364701,-0.0022281465204189495,0.00019328696163437622,0.0030737916788721375,0.0006873826520699738,,-inf,0.0008063357238902708,0.0006876753978648508
vCBB_max,0.08099534391007325,0.5231363723087444,0.7963982573738886,0.7963982573354652,-0.24851619340309958,0.5231485541309295,-0.3371293921131243,0.5410142062345566,1.2607937643494493,0.7321151339292283,-0.2740541645945649,0.7313849298766549,0.5081329154504182,-0.6856555362958219,0.3872512689228483,0.7336731729758815,-0.1864271919419014,-0.1864271904035354,0.08099534510642652,-0.08406680349801,0.7331820308322328,inf,-inf,0.3378716902002888,0.7331822614860484
vOxy_max,0.0003197090390788001,0.002064951656793826,-0.014085854635558125,-0.014085854580632847,0.0027111810483666497,0.0020506005372247834,0.00357734621204369,0.0020188941398892072,0.05617406958474628,0.00186269139758318,0.004550675946675606,0.0005361623926389308,0.002046777109322914,0.00406143539768649,0.05272597649221894,0.000527055504414938,0.9973416622804099,0.997341662405345,0.00031970912798458956,0.003360403105030016,0.0002632258092766798,-inf,,0.001333702303520828,0.0002635879313039866
k_O2,0.03803039799561492,0.24563244624384128,-0.06657016069982576,-0.06657016097937697,-0.1912506301286979,0.2472614582470089,-0.2578328206173761,0.25775090381817517,0.20331327026033783,0.13437835576539348,0.11806441956927136,0.13406806592783133,0.23864778086962213,0.7992329894182291,-0.2068481967797763,0.13292636198250588,0.24103200107244035,0.241032002320209,0.03803039890013042,0.8859623863402436,0.13584841823530885,,,0.15864277926598913,0.13584858093056001
k_ox1,0.007645893446193317,0.04938363667234039,-0.00826734503097098,-0.008267345049216848,0.9667692451165832,0.015202561190048643,-0.03358523049519586,0.01621575200839669,0.044882272477709116,0.020536814714235997,0.01778885839331251,0.020442290509634663,0.03649297219315221,0.12222120186771405,-0.03757941022931138,0.020327094005016845,0.03711097807540333,0.03711097720787453,0.007645892754273101,-0.017700829985578953,0.020745125583890196,,,0.0318970833200052,0.020745322330143066
k_aa,0.005079551148277347,0.03280802758500818,-0.009655779781578484,-0.009655779748736609,-0.026326831071533004,0.03305120339469405,0.9645150014773306,0.013707213198739025,0.026556875141536884,0.018910405241848945,0.016643167249425578,0.018873738886786243,0.03357954219295721,0.11245411417828965,-0.028226558127830807,0.018704225190465124,0.033885402855791176,0.03388540137749424,0.005079550045651174,-0.01601057824120502,0.01911956280771545,,inf,0.02119043553683613,0.019119732041093792
