,vPSIIquench,vPS2,vSDH,vRespiration,vbd,vb6f,vaa,vPS1,vNDH,vFNR,vPass,vO2out,vATPsynthase,vATPconsumption,vNADHconsumption,vCBB,vOxy,vPRsalv,vPSIIunquench,vFlv,vCCM,vCBBactivation,OCPactivation,vNQ,vExch_3PGA
PSIItot,0.899679101421283,0.003892829084781484,-0.07302030930696794,-0.07302030931539653,0.2580145486685122,-0.0636267809835628,0.15793771309329493,-0.06813272661803194,-0.6550205404180212,-0.025933477582802133,0.0012129649058802918,-0.02362610111035162,-0.04777573691815454,-0.16109510769272417,0.3402044218121468,-0.02618703336075151,-0.07191061185539985,-0.07191061163612791,0.8996791016251827,0.04824080729505208,-0.025463884131408522,,inf,-0.36307278914523605,-0.025463575640643908
PSItot,0.001775744800791742,2.0965889528671133e-05,0.001156102893296692,0.0011561029011548931,-0.004538869964240936,0.0012127729939631418,-0.002787367196196616,0.0012941236359394236,0.011470096469692617,0.0005318584740863446,5.423712770061669e-05,0.0004917959347803446,0.0009316690838477528,0.0030128113561619266,-0.006146027846107185,0.0005350010284369933,0.001317675400492886,0.0013176752284248612,0.001775744656188232,-0.0006696524791046217,0.0005251399611146231,,,0.006485525871383108,0.0005253210155140525
k_Q,0.002775658147305111,0.01507732076532229,-0.0012593501960627914,-0.001259346679718198,-0.0008382010894294941,0.01481991285111899,0.3407539539938879,0.00819140854950881,0.015181405190613052,0.008489773266506509,0.019652534371607005,0.008473574749370777,0.015138946974775155,0.0503267215084358,-0.012354281759209992,0.008431370007270646,0.0037260917033675547,0.0037260916859747084,0.0027756589325681415,0.0050008725841991526,0.008580888686639306,inf,-inf,0.010058670058365837,0.008578761057642518
k_FN_fwd,0.028655099428538756,0.15565391057624484,-0.6117289238730768,-0.6117289241766489,0.06144438674078261,0.14922323461811493,0.0914139412445297,0.1503988992667324,-0.40100088435649317,0.1680274037774757,0.14363705043748437,0.17036789625138463,0.14883594539079445,0.0707446035728594,-0.6852713770535962,0.163032064337873,0.04802977184397134,0.04802977251299135,0.028655100025144858,0.12133236427251283,0.1746891431663754,-inf,-inf,0.1036945252035281,0.17468912024728497
k_SDH,1.3315157646686846e-05,7.233080464621299e-05,0.004344829384791554,0.004344829454699085,0.00026405321945511325,7.238379713271571e-05,0.00035728409303218886,6.658978345569562e-05,0.004113819622940703,1.8969889762693825e-05,0.0003616374492054912,3.6975577341526474e-06,7.434660886273305e-05,0.0002388400178006826,0.003981721956096172,4.781709799702967e-05,-0.00022893975287470374,-0.00022893895900078117,1.3315950571059399e-05,0.000291891893400179,-1.621194795208582e-05,-inf,inf,4.818932671436735e-05,-1.639231106367796e-05
k_NDH,-0.0020512449312715076,-0.011142320680610895,0.09030627880309791,0.09030627879879309,-0.016271686529159047,-0.008784305634904984,-0.023114980398334484,-0.008492863443646434,0.6581388677739186,-0.005962088621983384,-0.0296531322959634,-0.008375226236999989,-0.009545264266775343,-0.031150366027447068,-0.32151193314810794,-0.005351931107916866,0.014139358835711357,0.014139358710233288,-0.002051245078747604,-0.02055973860962387,-0.0067937598359211395,,inf,-0.00742325324444249,-0.006793771389491013
vNQ_max,0.010283336090963949,0.05585886849633939,-0.0761591774907362,-0.07615917751718679,-0.10577621571723105,0.21478321194313027,-0.19363072923848873,0.22308910510009478,0.0009119894617683347,0.10342978051312611,0.09730330912412943,0.10374393702263658,0.18560742090114724,0.6222957454488525,-0.1011029745120532,0.10214728266182742,0.18209064288662716,0.18209064319475052,0.010283336383042695,-0.08433431976075444,0.10477845537699546,,-inf,1.0371936110469568,0.10477847329519271
kRespiration,0.002283195208382499,0.012402268640412165,0.7903720132358761,0.7903720123353798,0.04644257043454938,0.01247948200249294,0.06280318257045348,0.011456051659653762,0.7476344069300903,0.0030397509314866616,0.06322493856709605,0.00026053697503532994,0.012809012606246693,0.04112352562859899,0.7249841620815002,0.008287869050974795,-0.040272592498855155,-0.04027259248332904,0.0022831950005748284,0.05121598560519458,-0.0034000587312845083,,-inf,0.0082628386465348,-0.003399516656376867
kATPsynth,0.00022626997183239857,0.001229087594062394,0.0006036816174859643,0.0006036816503213662,0.0026048018187911767,0.001120051139092356,0.0035844383702932597,0.0010699330259193727,0.0017242600876442042,0.0006659340003379885,-0.008804972612807176,0.0006655485314971664,0.0011646932676955368,0.0037832246785994414,-0.0005204205314344631,0.0006691429238450857,-0.0022489034706507562,-0.002248905062125944,0.0002262684501453867,0.003077801861790363,0.000672001136680577,,inf,0.0008188420354685812,0.000671538333369916
vCBB_max,0.09629856051502021,0.5230917888341756,0.8141810982121594,0.8141810974310443,-0.2914550994125831,0.5248074422881018,-0.3685723789847329,0.542976061540885,1.3060316484168921,0.7344288526558029,-0.2784512275415916,0.7334295120973974,0.5091002206867914,-0.6766517542679077,0.3507099415879643,0.7360883127954428,-0.1782057431331272,-0.17820574123946134,0.09629856215736136,-0.09022298223614841,0.7353618796159819,inf,inf,0.348466127367705,0.7353623797888473
vOxy_max,0.0003725390829527442,0.00202362835104568,-0.013676878128734466,-0.013676877199102891,0.002561358704214141,0.002027293591007255,0.0035225957241660248,0.001996883555851114,0.05662621733555545,0.0018391485019172505,0.004507866560260465,0.0004942392287442112,0.0020168887599315796,0.003963738841798742,0.05293046823808382,0.0005005844588139345,0.9973336296152848,0.9973336303365667,0.0003725400214380821,0.003340003586610133,0.0002304639659855337,,inf,0.0013481334367065926,0.0002294174257202488
k_O2,0.04448439772730653,0.2416383235384917,-0.0665910065333262,-0.0665910065269155,-0.20803151950799803,0.24388376520045826,-0.26917308128166223,0.2543177757003823,0.21207500361134807,0.13082562899973965,0.11513165118919344,0.13045470269269505,0.2351634715985978,0.788722650835971,-0.22922868487880205,0.12938950980533656,0.23848109471732823,0.23848109433221443,0.044484397363400215,0.8849225832714722,0.13227137605307385,,,0.16096996532412755,0.13227121529946678
k_ox1,0.008799527393606546,0.04779885396297332,-0.007933440885851763,-0.007933440914098169,0.964041173023262,0.01473611574377279,-0.03485146449863129,0.015744575790343152,0.04609071994046911,0.019653022489210973,0.017038155894764685,0.019545761643580715,0.0353493711040798,0.11856413882384333,-0.04120425158415146,0.019450594481630723,0.03610464639839199,0.036104647365268985,0.008799528334964075,-0.017561997844090564,0.019852642851992463,,inf,0.031845281631977335,0.01985256625398488
k_aa,0.005895766804438784,0.032025685647424335,-0.009553965121928996,-0.009553965174954021,-0.028113782267447995,0.03234015322753452,0.9635920524633899,0.013401331609105333,0.02752508270850421,0.018272144287853457,0.01634735895057084,0.018228173861289512,0.032837646783412985,0.11012181608453132,-0.030963384854775556,0.018070222145202208,0.0330432069153126,0.03304320969418486,0.005895768801113785,-0.015789364316805297,0.018475898801394747,inf,-inf,0.02133602576911387,0.01847660545443968
