,vPSIIquench,vPS2,vSDH,vRespiration,vbd,vb6f,vaa,vPS1,vNDH,vFNR,vPass,vO2out,vATPsynthase,vATPconsumption,vNADHconsumption,vCBB,vOxy,vPRsalv,vPSIIunquench,vFlv,vCCM,vCBBactivation,OCPactivation,vNQ,vExch_3PGA
PSIItot,1.1136171176195997,0.1952963743609708,-0.0944482107715163,-0.09444821073984071,0.17699913856174213,0.16621768215051558,0.2476951759117113,0.1661126713658109,-0.09520642330910567,0.1513903923190003,0.10854813953429719,0.1548293385834659,0.1705553564430625,0.3744979178570624,-0.054284659162557446,0.14806734669649815,0.13413733130670577,0.13413733221291962,1.1136171179609438,0.5680970723093767,0.15569464970408972,,-105000.0,0.08159767342860334,0.15569273660376637
PSItot,-0.08365621907471059,-0.11741158711626662,0.055538401536428625,0.05553840153682615,-0.12889526537650994,-0.09932047696344531,-0.6498987597920872,-0.09861087233523032,0.057379992581726665,-0.09051986357614218,-0.06596279900693913,-0.09258249077313306,-0.10217020440271773,-0.22578577491023394,0.027249322882067793,-0.08854645665046708,-0.07964712361533734,-0.07964712411736627,-0.08365622103666956,-0.3347751114530156,-0.09307726767720284,inf,0.0,-0.04730283905991253,-0.09307725437705465
k_Q,-0.6379155385616397,0.07484528442710728,-0.014251899090486323,-0.014251899090361394,-0.9141667126628311,0.08125760186144648,0.09629931482948285,0.08123821559949286,0.042948736770983806,0.06738480327889891,0.03841610910760706,0.06774789101518242,0.07589450452170045,0.1635316777440801,-0.18681089704368364,0.06627112235741124,0.06877847029736467,0.06877847215905895,-0.63791553173086,0.2576446178317413,0.06879844637106991,,-80000.0,0.06607616059120694,0.06879895173038351
k_FN_fwd,-0.16929134557162184,0.01986259740868947,-0.4944779194720834,-0.4944779194725713,-0.009708604559081171,-0.009136260499203087,0.21956712155886504,-0.009431021439119178,-0.46775286385911324,0.05439614439188671,0.11039419642142834,0.0619518011465783,-0.0045219765611060996,-0.49298799437099206,-0.5287269504865669,0.04724902122487733,-0.17447132716069558,-0.17447132978643376,-0.16929135586149446,-0.3632776042106965,0.06439008391773549,,0.0,-0.08590853124299867,0.06439063091121794
k_SDH,-6.79668553966417e-05,7.974413320483887e-06,0.0016647663842149763,0.0016647663831244814,2.7971738505762037e-05,2.649171641360779e-05,0.00015724240125782762,2.6323193652306076e-05,0.0016023563471029396,2.231635448293935e-06,0.0001309833925668911,-1.983226290125565e-05,2.1488805412479018e-05,2.3095479483598047e-05,0.0015778765457010154,2.5009438880266714e-05,-9.44554929615321e-05,-9.445552579573185e-05,-6.796696002788555e-05,0.00025903447584542735,-2.6340879726514538e-05,,-145000.0,2.357312961314735e-05,-2.6427933808979333e-05
k_NDH,0.028281627781516945,-0.003318224163906512,0.11137410961968193,0.11137410961619594,0.0020329381476243925,0.0019195584583494739,-0.0359072936447745,0.001968311037978718,0.3411104279067764,0.00029824509284733473,-0.0402368743783488,-0.004368034798039742,0.0006812867962374003,-0.007541164737148608,-0.6487033124322233,0.0017563449105162483,0.038406263295396016,0.03840626505661995,0.028281634698403522,0.005707426861192151,-0.0017070462652615838,-inf,14999.999999999998,0.0057293590547305255,-0.001707576892386745
vNQ_max,0.2731385734599253,-0.03204677342019607,0.2572231494806909,0.25722314948069885,0.18236561251292593,0.1727722290637423,-0.00037433753864305093,0.17299538643891307,0.23532100542456766,0.08788798965048188,-0.043031630041042095,0.08556349945340083,0.14555703450935648,0.6627902316574289,0.333698007467112,0.08990711651507936,0.2885095354148503,0.2885095373201973,0.2731385809406835,-1.1397347033268244,0.08453928431868468,,0.0,0.8440096732748529,0.08453898238405456
kRespiration,-0.0361597414682844,0.004242545916642374,0.8237534408446748,0.8237534408416992,0.014030331913565623,0.013288380143371947,0.08181674461748334,0.013200058401490983,0.7929499804410425,0.0012233357793684035,0.06884380450488753,-0.009688260475075363,0.01082779219520366,0.012345753094759241,0.7799262341723379,0.012497726739370427,-0.050246878481765345,-0.05024687656227377,-0.036159733992754,0.1300433933913449,-0.01294870469660422,inf,0.0,0.01146467860493679,-0.012948455012488395
kATPsynth,-0.001204732802242587,0.0001413492148236902,0.0006640923261635632,0.0006640923252719975,9.939381969413555e-05,9.432661224466342e-05,0.0019305474801395255,9.196003225566483e-05,0.0006755391025925568,5.635131454641437e-05,-0.006490673348006861,5.0122071056199504e-05,9.983984951665443e-05,0.0004366187515765756,0.00024162700841342632,6.709764763310995e-05,-0.0016717651845771179,-0.0016717673171587322,-0.0012047411739256344,0.000973724237816182,4.835713740837743e-05,,5655000.0,-8.359396320607867e-05,4.933255823474053e-05
vCBB_max,0.04729837590292716,-0.005549418617264853,0.7047127752961918,0.7047127752974476,-0.0465581495492974,-0.04401414433961449,-0.16982859999032035,-0.04385199024366026,0.6451034808132461,0.1516857561748787,-0.5785835437979072,0.1460195963335476,-0.040070621502161494,-1.8789450814517155,0.6621390528076827,0.16047768249247552,-0.7304690216940739,-0.7304690228294249,0.04729837145460645,-1.3774951948160357,0.14388843152219077,,5000.0,-0.19854965244833306,0.14388862420163312
vOxy_max,-0.0011068721757537833,0.0001297900522166954,-0.0049442423051967235,-0.004944242311884001,0.0003509510664666842,0.0003329116868114391,0.0023280366827538404,0.0003303403049450352,0.033980595270852114,0.0006162409512990277,0.001595462763362893,-0.0011795369584545253,0.0002535571292209799,-0.0013746905958630538,0.033581928228347414,-0.0008842346358948481,0.9972697762616598,0.9972697867022049,-0.0011069079058523216,-0.00032835574407468176,-0.0013229411982047974,inf,-13275755000.0,-0.00030758967395103234,-0.0013230662240978604
k_O2,0.04214027406707216,-0.004944229458416714,0.14208605251470216,0.14208605251633696,-0.026244358983734627,-0.02480102521208777,-0.11759469458997035,-0.02468142947508832,0.1349179840931274,-0.035731411043122725,-0.066400126517994,-0.03821366895198346,-0.02244798033710462,0.08196387960341339,0.15009575138837644,-0.03343128043688063,0.04912147025595083,0.049121469519147476,0.042140271172852385,0.3036964625149858,-0.0389915786494964,,14999.999999999998,-0.09661741478380076,-0.03899117305175846
k_ox1,-0.002709686053325848,0.00031792203964154465,0.012943538803643179,0.01294353880489752,0.9889539301176358,-0.010456157123443945,-0.01993688980621737,-0.010443938017339257,0.012743571844229067,-0.0052219179784277255,-0.007063233764180401,-0.005480480492139436,-0.00446844827475286,0.0005969134081231101,0.01176761708708293,-0.004984679533145728,0.0018641781317381336,0.0018641766203794444,-0.0027096919788831848,-0.06424828262923403,-0.005551242115498287,,0.0,-0.008775639220648326,-0.005551696067000595
k_aa,0.0007444514356592691,-8.734468532953654e-05,0.0025966438149974875,0.002596643814503318,-0.0005427767141611092,-0.0004449896623583982,0.9962766204517642,-0.0017295994706909602,0.002472535011461169,-0.0005552170851032724,-0.0011600958232377162,-0.0005993542564929722,-0.0002919149902038522,0.0018172475162045727,0.002740665676963966,-0.0005145476110467607,0.0010194339457034387,0.0010194327580900948,0.000744446775134263,-0.012611466668314232,-0.0006133100354233236,,15000.0,-0.0017428668598278854,-0.0006131415437097597
