,vPSIIquench,vPS2,vSDH,vRespiration,vbd,vb6f,vaa,vPS1,vNDH,vFNR,vPass,vO2out,vATPsynthase,vATPconsumption,vNADHconsumption,vCBB,vOxy,vPRsalv,vPSIIunquench,vFlv,vCCM,vCBBactivation,OCPactivation,vNQ,vExch_3PGA
PSIItot,1.2694621394444678,0.4073857848254155,-0.11657844847315128,-0.11657844847488806,0.3608062411771647,0.3485559380073316,0.4579528434371699,0.34843713748909405,-0.1182160503416141,0.345941519389445,0.1772720339598114,0.35590666288774586,0.35724701830694544,0.6071409628614449,-0.06097610485305716,0.3364529127469088,0.3050168063526601,0.3050168037494211,1.2694621350891122,1.6344252604600777,0.35840052751486123,,inf,0.21577709670961365,0.35839994377238615
PSItot,-0.24715610474829536,-0.35578794552029924,0.1001358090815348,0.10013580908190825,-0.32970348812288797,-0.30381950872978514,-0.9289340983260428,-0.30314066009189655,0.10219043690275251,-0.30159290044760556,-0.15522105088463584,-0.31026181440001865,-0.31159944192168393,-0.5310625826644033,0.04968880765231997,-0.29335194297665895,-0.2656948634680174,-0.2656948646476374,-0.24715610673393984,-1.4167017169387393,-0.31241529442290367,,inf,-0.18667050519471917,-0.3124146017304753
k_Q,-0.7729302582400513,0.04735280212182268,0.0006513289264559006,0.0006513289283402019,-0.9404823986284546,0.05764702834857026,0.06477309244066816,0.05763928976283065,0.03866835230632781,0.05033104470014195,0.01950351801328605,0.05060833856776553,0.05184480269664667,0.08255838959136788,-0.12551977553555244,0.04930672409601193,0.04944944803288029,0.04944944546710151,-0.7729302626297311,0.266045056106538,0.051661967491277126,-inf,-inf,0.05412338800357878,0.05166175024928724
k_FN_fwd,-0.2489413269231771,0.01525114248115196,-0.5156213010135031,-0.5156213010151084,-0.026193695006287328,-0.025359990885265166,0.2474586743889505,-0.025656260737463035,-0.4966799858516801,0.02826576987824262,0.15760329922272,0.03987323810609511,-0.01900229894082624,-0.5075775982532298,-0.5495608371888197,0.017440209303655918,-0.24703467731231213,-0.2470346785849721,-0.24894132894386573,-0.5517766473001448,0.04339863715269467,inf,,-0.10917772273554747,0.043398537485970924
k_SDH,-0.00015243627033892655,9.338862642492116e-06,0.0017063233653461217,0.001706323371416132,5.102684205925642e-05,4.9436109301604076e-05,0.0002919679591971007,4.917283771629408e-05,0.0016636822316553016,1.3616091550509942e-05,0.00023760048012098925,-2.1368206799780448e-05,4.0289727439675926e-05,3.776762935560957e-06,0.0016313012611936422,4.8840284355478535e-05,-0.00017723241385568888,-0.00017723229122606408,-0.00015243653502941876,0.0007152518184212012,-3.15047812585696e-05,,-inf,6.971151704852106e-05,-3.125470645931894e-05
k_NDH,0.04028816652350147,-0.002468214290204464,0.12040412082597839,0.12040412086209713,0.00615587511367102,0.00596144617344861,-0.036068234300791334,0.0060070891886350765,0.3401922744456384,0.002610102318274746,-0.04368562685394492,-0.0045009534974519375,0.004059623947599793,-0.003630841099113486,-0.6512496024004779,0.004978502474419257,0.04594875736006599,0.045948757389876214,0.040288164414194895,0.04243596060896515,-0.0006300956251713921,,inf,0.010913383327865098,-0.0006327247271692044
vNQ_max,0.4165457363593463,-0.025519259264667728,0.47868997075196845,0.47868997075323305,0.17336085688377656,0.16794724011276632,-0.14526668836127832,0.16828737750415051,0.45724964645963334,0.09014332801515534,-0.1602800174827159,0.08183179224839143,0.14275252372402705,0.7353018020734643,0.5457335200650506,0.09768738632657575,0.41643488079445545,0.41643487926510864,0.41654573380580023,-2.621832620448918,0.07905724372330518,,inf,0.6737617438540578,0.07905727307260722
kRespiration,-0.0548480504714061,0.0033602110079124915,0.7857682680882643,0.7857682680848701,0.02298278374097883,0.022265675617892337,0.1147278000503671,0.022165265520326834,0.7658760226278348,0.005821604154147481,0.08974483128169679,-0.010320027772064064,0.017990863715299996,-0.0003027152772590122,0.7542250364575634,0.022024915798896674,-0.06373815850090125,-0.06373815509729926,-0.0548480445334138,0.317520952645628,-0.014894285824496305,inf,-inf,0.03277543995582507,-0.014892618382227885
kATPsynth,-0.0009358285683853967,5.733264523857252e-05,0.00035232447354353104,0.00035232447543027327,4.089725841739963e-05,3.965968304717836e-05,0.001222413128419392,3.837531806750475e-05,0.0003585924062443716,2.924576050487899e-05,-0.004547602190277448,2.3791662019038272e-05,4.1205702259688954e-05,0.00012108415082123333,0.0001598009045585705,3.755259815595285e-05,-0.0010899309562328223,-0.0010899318290046854,-0.0009358303116145841,0.0008461729500340134,2.4029070451451395e-05,-inf,-inf,-2.525847862553562e-05,2.2981840775630947e-05
vCBB_max,0.04278531307744297,-0.0026211994676211135,0.4263578007709395,0.4263578007716264,-0.048526407091238136,-0.04700322439228248,-0.1538949186991827,-0.046887144438719434,0.39111133701660744,0.0673686658692967,-0.4626342854686904,0.06169266539571331,-0.042531231180461086,-1.5438610505409545,0.4001999189322438,0.07608909301239021,-0.8277452772722238,-0.8277452807815052,0.0427853071819457,-1.469527785417354,0.05966791978635737,-inf,-inf,-0.19054914324491562,0.059668119611782776
vOxy_max,-0.0009629168554870923,5.8992055918398554e-05,-0.0037587505671412033,-0.0037587505670687925,0.0003037712035750334,0.00029451308240577073,0.0018035987821673064,0.00029287426862026485,0.022806214759522866,0.0005309955972959197,0.001162439722787876,-0.0013293721780857357,0.00020979936363833392,-0.0013407092357654413,0.022601669127111753,-0.0010159519186244133,0.9975734050962464,0.9975734069511376,-0.0009629137343771489,-0.00045749468253267607,-0.0014727150290022876,,inf,-0.0002461773895729315,-0.0014725029296983098
k_O2,0.024083807830367936,-0.0014754736581180986,0.07316006304200101,0.07316006304226624,-0.017235838908231823,-0.01669010030769885,-0.06543726632135881,-0.016637162767092838,0.07075584263918926,-0.020765129935095387,-0.0376103436756851,-0.02278586341122317,-0.014997517602715477,0.0384436424901087,0.07587179747411213,-0.01889389682906967,0.025587273485651357,0.025587314759114806,0.02408387657756616,0.506278893976679,-0.023375479735171914,,-inf,-0.06247104016442392,-0.023375917033523617
k_ox1,-0.002366177945378026,0.0001449613335058744,0.015700539796721754,0.015700539816162765,0.9875079689041635,-0.012099539052120214,-0.023246278409418532,-0.012087433864345007,0.015464134197841522,-0.007115900498951239,-0.009080538879992259,-0.007611679716456118,-0.006063122530340751,0.0024182689226585675,0.014961503789835287,-0.006658975566891325,0.0025291060525436154,0.002529110887626054,-0.0023661711133832804,-0.11239724256226165,-0.007744836396174466,,,-0.014182316710166424,-0.007746685257900974
k_aa,0.0008352269703190945,-5.116942587623787e-05,0.002958598702948745,0.002958598704804842,-0.0007046275033661158,-0.0006484173319092101,0.9963255295146102,-0.0017310899125664097,0.0028668552352253077,-0.0007254074961034817,-0.0013125023934016935,-0.0008045821564995116,-0.0004879074468371138,0.0017536510401241748,0.003044276672812722,-0.0006518666492963018,0.000992919070313954,0.0009929207678346067,0.0008352297685819481,-0.019284501168453205,-0.0008266000235299279,,inf,-0.0024511551884695178,-0.0008275980010417199
