,vPSIIquench,vPS2,vSDH,vRespiration,vbd,vb6f,vaa,vPS1,vNDH,vFNR,vPass,vO2out,vATPsynthase,vATPconsumption,vNADHconsumption,vCBB,vOxy,vPRsalv,vPSIIunquench,vFlv,vCCM,vCBBactivation,OCPactivation,vNQ,vExch_3PGA
PSIItot,0.869959181182327,0.014560465340576603,-0.08670196132321926,-0.08670196396033572,0.38256165508096834,-0.04336078709411069,0.23830455024854721,-0.04822496453391066,-0.5396777174529925,-0.015504852175778974,0.018208147559482194,-0.013038867908096328,-0.028472231911994616,-0.09977751685416483,0.4018693815274577,-0.015930274574778063,-0.0607755088742927,-0.06077550700842329,0.8699591842965803,0.047285819620646256,-0.014819413261936901,,,-0.25963497909915856,-0.014817991253076215
PSItot,0.004455923024287767,-0.00038296759874551043,0.00277046497583019,0.0027704648527850837,-0.013058406587242376,0.0015965204432758081,-0.00814248814393433,0.0017647068230951727,0.018307996629512456,0.0006199502775136683,-0.0005018197274425459,0.0005368246957255757,0.001086305024329411,0.003663912157632755,-0.01395463601742492,0.0006326296797200006,0.002121586624787033,0.002121585180226731,0.0044559197248695455,-0.0013579408349542823,0.0005986166933393231,,-inf,0.008976542807457907,0.000598963520072249
k_Q,0.0060439820611989286,0.01719464564578538,0.00011568412597948585,0.00011568417029294179,-0.009781463400442779,0.01708660350582277,0.44234932102115154,0.009742592163138062,0.021537349928067957,0.009967910775001528,0.023106734888046463,0.00992386220440716,0.017336200511319986,0.059463049527620514,-0.022223459509720635,0.009908151972408932,0.004403221943389518,0.004403220455873499,0.006043978726224504,0.0058816176055719645,0.01006176630198221,,,0.012097488448674034,0.010061707725949064
k_FN_fwd,0.05807995997831913,0.16523289936946386,-0.5941035873800977,-0.5941035873418119,-0.018299700448979658,0.16028231794153236,0.05133625054542155,0.162163745872665,-0.3477788130155139,0.18021062655417486,0.15119523596620246,0.18295395737392176,0.15865146002180147,0.06131338311657196,-0.7683007265703682,0.17512333990852752,0.0504056975897913,0.05040569603542168,0.05807995652755423,0.13138822549131116,0.1870333014231026,,-inf,0.1159393443364238,0.1870328651979925
k_SDH,1.9952237416952578e-05,5.6765771529892345e-05,0.003231261371222052,0.0032312613537234373,0.00020138248428197455,5.965480130313316e-05,0.0003164135607131385,5.5220745774420487e-05,0.003070815268016122,1.7400506622920884e-05,0.00031021808343756753,2.973443109119004e-06,5.993289707611333e-05,0.0001970610983242446,0.0029263447743479603,3.947700199246452e-05,-0.0002005355348027141,-0.00020053479687652016,1.995387846474325e-05,0.0002528250717158411,-1.0130894760346931e-05,,,3.983750959468506e-05,-9.563646085463028e-06
k_NDH,-0.004383393074300221,-0.012470404970333283,0.10329556977644604,0.10329556983552664,-0.013252688030591868,-0.010039522628477474,-0.025996267987411614,-0.009763959987929692,0.5651319402045832,-0.006898985718004307,-0.03508986478669437,-0.009567388376550778,-0.01075561692890366,-0.03619418816388167,-0.40313056933266445,-0.006182052235103487,0.01712425210738537,0.017124252726684996,-0.004383391692172844,-0.024552262713159058,-0.007880048318592204,,,-0.008751033379399404,-0.007879792825006076
vNQ_max,0.02263751501899846,0.06440193735807051,-0.07861105584695637,-0.07861106247597326,-0.1599179269375101,0.2353949051004244,-0.27889348983986706,0.24427633285547626,0.020039556290862987,0.11697787041286882,0.10467996362136829,0.11735272064105416,0.20468856856041412,0.708795385098474,-0.1438650100113568,0.11553050767173727,0.21197854451596942,0.21197854428212168,0.022637511791602102,-0.1016734253310033,0.11846859755504636,,-inf,1.0451518758263023,0.11847280092736681
kRespiration,0.003336848776783139,0.009493086864789396,0.8067959592160431,0.806795959133157,0.041979024385454304,0.010547849225959856,0.06468374457592303,0.009612957422781293,0.7616046598809341,0.0017119616075345035,0.06056485512150771,-0.0018940554453253716,0.01050105742196492,0.034271535015016535,0.7374444948246854,0.0072268481011907295,-0.0407925053324052,-0.040792501902212876,0.003336856402184868,0.05058239514768649,-0.005063957542708709,,,0.006662312967073515,-0.005064268465090637
kATPsynth,0.0004272297131819811,0.0012154286735289715,0.0007169270370776666,0.0007169270685212471,0.0021784975410886064,0.0011303841074599538,0.003750272198015113,0.0010851403382073524,0.001999784859234518,0.0006804352750250488,-0.009275823928549705,0.0006780813232779608,0.0011604267199846765,0.003881006670542559,-0.001093511674524786,0.0006846326321084664,-0.0024288855484021696,-0.0024288869710577415,0.00042722658516250494,0.0032798203321000416,0.0006856232012811262,,,0.0008529233407280879,0.0006856806664107736
vCBB_max,0.17653746080919616,0.5022351494534194,0.8679878984111691,0.8679878984194233,-0.572391831977754,0.5093028535293579,-0.6024880089233275,0.5285027607135224,1.4151528706180927,0.7087465799884514,-0.3254595654329433,0.7065325092259677,0.49126767290596046,-0.7485222717079685,0.13695165442423762,0.7109525350805544,-0.1775021640934721,-0.17750216490165513,0.1765374589930849,-0.11746580463338248,0.708974615736233,,-inf,0.3523821254052234,0.708974865554035
vOxy_max,0.0006311163846676437,0.00179548608445975,-0.012378607808552851,-0.012378607864128205,0.0015072267902449046,0.001881649804281683,0.002966652775279184,0.0018629125042639498,0.057568497277395735,0.0017456950635457037,0.004145933760856328,0.0003127066367226247,0.0018373287511408113,0.0034358378620273898,0.052998937929128076,0.00038507785155529985,0.9974095038923776,0.9974095061595906,0.0006311213369851391,0.0031338871408965823,8.64105729559003e-05,,-inf,0.0012598775839123167,8.678849197115051e-05
k_O2,0.07914349939609608,0.2251570172700736,-0.04218058387326379,-0.04218058391602256,-0.32703906991315423,0.22902400215493235,-0.37241987458018433,0.23941054786042273,0.2535478155368505,0.12535193688173243,0.09874777053662044,0.12466696511718037,0.21991493934862028,0.7620090394721487,-0.3194825123941232,0.12406884590631918,0.24084748263649816,0.24084748396555059,0.07914350236547263,0.8769018812530448,0.12657182352585913,,inf,0.1579737948022548,0.12657145383710386
k_ox1,0.01390597191433227,0.03956139119074392,-0.003023579119920048,-0.003023579086716765,0.9471307324187663,0.01273825974940505,-0.046444164566086084,0.013760301836911591,0.04800148390656454,0.016750068805942004,0.012649552711024664,0.016592719323863997,0.029416804637289826,0.10194438171467336,-0.05268326139263686,0.016595617095337842,0.03275144560206364,0.03275144516653204,0.013905970941554154,-0.01702185291706963,0.016889989370456042,,inf,0.027762126560849126,0.01688977264926823
k_aa,0.009705817545507167,0.02761227961764321,-0.005851879545349249,-0.005851879516374497,-0.04077990173709642,0.0281036329776703,0.9533450401872264,0.012125313907766385,0.030557710870406825,0.01619290282888509,0.012877874975139019,0.016114698707436727,0.028401558617760315,0.09840257501887703,-0.03971624197148024,0.01602458179723106,0.030985289922849806,0.03098528868566987,0.009705814794016025,-0.0157627523569897,0.01635394585063651,,inf,0.019375755704396903,0.016354096869477183
