,vPSIIquench,vPS2,vSDH,vRespiration,vbd,vb6f,vaa,vPS1,vNDH,vFNR,vPass,vO2out,vATPsynthase,vATPconsumption,vNADHconsumption,vCBB,vOxy,vPRsalv,vPSIIunquench,vFlv,vCCM,vCBBactivation,OCPactivation,vNQ,vExch_3PGA
PSIItot,1.0340045239024345,0.03479218080636994,-0.0542844850639767,-0.05428448506103997,0.6491568919948942,-2.7666530228126327e-05,0.6851829367852297,-0.0083865176780525,-0.21753650813070746,0.006505915409930209,0.03876105862460255,0.007998680466286023,0.011256736690275505,0.03637501322218659,0.3120785014943237,0.0061036642804941045,-0.020377795021377505,-0.020377795290010152,1.0340045205781025,0.028306672932949577,0.00710467832954678,-0.0,0.0,-0.08260459326075906,0.007104801415085321
PSItot,-0.0031910460111134373,-0.0029893169333726336,0.0046400443743654885,0.0046400455356459406,-0.06078079145240966,0.0002564961526646711,-0.06427975451979606,0.001043770751896442,0.019994545626815022,-0.00039850543411994963,-0.0033511429548140396,-0.0005341911407636481,-0.0008001888970970125,-0.002920872081839386,-0.029705425802733366,-0.00036537402975793534,0.0019893470378114153,0.0019893476465102588,-0.003191038151558482,-0.002068348926626802,-0.0004482298056228876,-4999.999999999999,0.0,0.007921670502213313,-0.0004484375827459513
k_Q,-0.0052594609752081595,0.023383037755244,-0.002397378610139933,-0.002397378350893426,-0.08560809477119999,0.02315364668523703,0.9129033242164911,0.012299633239507547,0.02349969194455361,0.012333729031516435,0.03349188883282071,0.012277572585304576,0.023162189194858088,0.07676084689233352,-0.05841565298815889,0.012240889185676087,0.0022745390615171524,0.0022745383278096917,-0.005259469886928701,0.011097547847048236,0.012485637827645541,-0.0,0.13218595920741297,0.013032340372649713,0.012485382481043653
k_FN_fwd,-0.03089884811277153,0.13737308093855155,-0.6600167180301252,-0.6600167179625691,-0.42858262410302767,0.1318530683251429,-0.4315283646672417,0.13872573128688417,-0.4650314346161755,0.15903658965531217,0.13703847771595876,0.1634250098682949,0.12765076160693556,-0.00217361127053515,-0.9462761642934583,0.15331961225357088,0.024112747129511336,0.02411274734918719,-0.030898845375600933,0.13536539448142876,0.1666870710205754,5000.0,-0.026437191841482594,0.07498511284203234,0.1666870457631836
k_SDH,-1.0815166408360088e-06,4.8209827181989954e-06,0.0016901021444096218,0.0016901021534937114,6.16019758244368e-05,1.0234251948051186e-05,0.0001334292996535483,8.731401843805162e-06,0.0015805343223464219,-5.0788897305815275e-06,8.954445980550333e-05,-1.563618217764502e-05,8.89658911708214e-06,2.7083612881952255e-05,0.0015636461533131152,7.2038754714909244e-06,-7.020704268491848e-05,-7.020750569397584e-05,-1.087369873200046e-06,8.143658290771833e-05,-1.981647561701187e-05,-4999.999999999999,-138.59697822897252,2.648071580110555e-06,-2.0278625608182668e-05
k_NDH,0.0022457101512436736,-0.009984205858781056,0.09314971314254185,0.0931497129056389,0.016147599377470595,-0.00784612817132454,-0.000587658389216295,-0.007934673891823552,0.38982644893060725,-0.005047429295478911,-0.03287442034660251,-0.007648045402462615,-0.008212371445715095,-0.026657726140821517,-0.5751969325986571,-0.004372679905626067,0.019282578507114494,0.019282578953784005,0.002245715583349392,-0.024854953513099815,-0.005979542880625328,5000.0,0.0132185959207413,-0.005455570346870651,-0.005979666063558107
vNQ_max,-0.012162345408481816,0.05407253516895263,-0.11295707058901258,-0.11295706999704881,-0.3408482936915366,0.2547446496116656,-0.7217184848747293,0.2666564763377211,-0.03162081163921021,0.11558337507466009,0.10470544360870855,0.11645214858377016,0.22099657356338875,0.7454175699323049,-0.2210474708424002,0.11379368066929374,0.22662997060318443,0.2266299713342982,-0.012162338071569767,-0.11945801792316653,0.11744438730122897,5000.0,-910.0606733552762,1.029293158022949,0.11744425174418868
kRespiration,-0.0004924217709983307,0.002189233586552579,0.8670248976253486,0.8670249129720029,0.03180307780026998,0.004983882179200715,0.06795749310061534,0.00421567006844393,0.8105561886458188,-0.002751151691431004,0.04471497370206805,-0.008167564758896356,0.004299356502892875,0.013039479584992051,0.8028868729206526,0.003549773330532058,-0.035244435833477854,-0.035244435463088385,-0.00049241140680178,0.04081251238657728,-0.010544881406106444,-0.0,0.18506034289037818,0.0012033335052592427,-0.010551692724007529
kATPsynth,-0.00021789419957855854,0.0009687472311758437,0.0004251295289862611,0.0004251295416591189,-0.0006711977172267595,0.0009100574108056533,0.0017088195463389225,0.0009003133483254872,0.001284906748028235,0.0004951293167503931,-0.009470677212691712,0.0004938981282472044,0.0009051291747208579,0.002918503230542016,-0.0021088029536568327,0.0004987367963145554,-0.002648054582201603,-0.002648055028598816,-0.00021789971240542368,0.003307521936932664,0.0005010737406015859,5000.0,-1.5730129145682146,0.0005294657686264032,0.0005015502504822723
vCBB_max,-0.0991996196237055,0.44103114554920364,1.0094920284683475,1.009492033251961,-1.9671015159243976,0.4458025290544976,-2.5979393586495148,0.4829329897243734,1.416291185189901,0.6954317949822707,-0.42663037235893897,0.6917457639049331,0.4205072229284422,-0.939144760364624,-0.12872701885556417,0.6988024900300654,-0.15390061200064392,-0.15390061175716171,-0.09919961544143735,-0.15705774375377676,0.6941604462580373,5000.0,-359.1095953787789,0.24055211165554377,0.6941576557590459
vOxy_max,-0.00025187273298353454,0.0011198121651172658,-0.007631111146299613,-0.0076311111371273116,-0.002331619787599364,0.0013163856287385905,-0.0014232973184901032,0.0013498068893031921,0.059193063104087965,0.0013791760077109267,0.0026492797974915485,-0.00021137072218291143,0.001214135053690017,0.0012254336604836048,0.055270143237487836,1.0996803738964245e-05,0.9978522973890953,0.9978522969097894,-0.00025187829371826334,0.0022657779396399107,-0.00037494030056314527,-4999.999999999999,-0.013218595920741299,0.0006113674066785965,-0.0003744651585058738
k_O2,-0.041838238239308885,0.18600846386168857,-0.0450250839166864,-0.04502508391643681,-0.8899735043357714,0.1872089783824522,-1.2162573891779966,0.20432979701090376,0.1751902359605385,0.09165806471633818,0.053070900731294356,0.09100746988859154,0.1763274765145654,0.596172303983064,-0.4764337330769156,0.09051988865863236,0.20991871131950765,0.2099187114629191,-0.04183823577764229,0.8733842232441024,0.09267536551612421,-0.0,-39.64256916630315,0.10143862482237526,0.09267551900399543
k_ox1,-0.004686674962385529,0.020836444964635686,-0.0016385025859763137,-0.0016384911588954376,0.9033882775077069,0.004075992982729528,-0.11293341532064356,0.005503385057375867,0.022424064251155226,0.007270292386065194,0.0032306465767561157,0.007162003588389663,0.014020887606465582,0.04743598583898367,-0.050570072712056706,0.007192631890161857,0.017635989253327856,0.01763598985122754,-0.0046866633356912185,-0.011060530354232212,0.007337128734006649,-0.0,-0.05287438368296519,0.011378401079086959,0.007331714127667355
k_aa,-0.003683286406712307,0.016375548308683287,-0.0045876288996616705,-0.00458764347002682,-0.07885994399264043,0.016488972464737375,0.8918910689300763,0.005809984551681113,0.014906507159397528,0.008611911858587906,0.0051965043650438174,0.00856116845121621,0.016552127582580952,0.055936044550758096,-0.042460232117345356,0.008502695217008138,0.01949901731643148,0.019499016221679513,-0.0036833052640788707,-0.011638215988928073,0.008704465551580469,5000.000000000001,0.1586231510488956,0.008937217753092863,0.00871115007325757
