,vPSIIquench,vPS2,vSDH,vRespiration,vbd,vb6f,vaa,vPS1,vNDH,vFNR,vPass,vO2out,vATPsynthase,vATPconsumption,vNADHconsumption,vCBB,vOxy,vPRsalv,vPSIIunquench,vFlv,vCCM,vCBBactivation,OCPactivation,vNQ,vExch_3PGA
PSIItot,0.6982181889504013,0.08974517141147775,-0.2187859584288838,-0.2187859584384046,1.7496889823185395,-0.05519641222225421,1.2519451692112367,-0.07525323834846273,-1.0837522079568973,-0.004390967273503142,0.09741528919068505,0.0019627545752766485,-0.012427630411866862,-0.045597108035472955,1.253568792849895,-0.005753291192473592,-0.11130263653136692,-0.11130263600283934,0.6982181921170661,0.11116166986583417,-0.0023129450032581857,,76594999.99999999,-0.45636503095891623,-0.0023130623313105214
PSItot,0.21236933871329564,-0.06307751079634474,0.15383700897317523,0.15383700897216634,-1.231250839594587,0.038915083039763945,-0.881001843981161,0.053030320497424344,0.7625393892563974,0.003150261755221745,-0.06847365214574924,-0.001319867024014506,0.008818333020155136,0.032226881621210006,-0.8822757461882407,0.004107692829899322,0.07834956231575883,0.07834956266712216,0.2123693412796867,-0.07806068500916351,0.00168956471385323,inf,14999.999999999998,0.3212009554034136,0.0016897106181269048
k_Q,0.008701144914093068,0.01921841427063123,-0.0013956840648272617,-0.001395684323084911,-0.039582539108354166,0.019366860761954954,0.6024918609437596,0.01041937033236006,0.024030276446517555,0.010209464035885163,0.02713521662596552,0.010141998946232805,0.019434059352487296,0.06485333186071025,-0.04336069685008968,0.010137737124249318,0.0028618365987095134,0.002861837008440254,0.00870114773590226,0.007692596016957949,0.010324245347197943,,-20000.0,0.01317032297083228,0.010324776883270234
k_FN_fwd,0.06636875076270456,0.1465901154910118,-0.6422819527660224,-0.642281952752108,-0.23053204405797847,0.14386437521355722,-0.10684328783858245,0.147711242367682,-0.40556495758081923,0.16548432150415054,0.1433627097200152,0.1690958953816616,0.1401191787646782,0.03931817646605498,-0.9195954302496188,0.15999765119597942,0.036712964457543816,0.03671296397058171,0.06636874455623878,0.12980043357059462,0.1728145201789451,,256695000.0,0.10035862951827468,0.17281508915787533
k_SDH,8.049781033661467e-06,1.7786541787404754e-05,0.0021136987446241295,0.002113698726326284,8.437310538660503e-05,2.2877322453456363e-05,0.0001669713417950527,2.0666345639768175e-05,0.001990027213002106,-3.0745052415256886e-07,0.0001487231808759724,-1.205936804585658e-05,2.1743905451678016e-05,6.861864305380015e-05,0.0019276563989704943,1.4624854942404178e-05,-0.00010708961975030142,-0.00010708888871971502,8.055100114208055e-06,0.0001280979087784176,-1.915677463662584e-05,inf,19999.999999999996,1.2178408423962904e-05,-1.8686194055145454e-05
k_NDH,-0.005000004948413945,-0.011043606018355672,0.0973352006252542,0.09733520058435605,0.0022776816500680603,-0.008944779939856845,-0.01777623599517434,-0.008809269771410298,0.4507900444107093,-0.005667816554211195,-0.034089293001192504,-0.008332439423277865,-0.009416853743400594,-0.030693681315554944,-0.5104846347896524,-0.004978376330135277,0.018648539599400032,0.018648541247755373,-0.004999992970232665,-0.02486943960377699,-0.006617566477753766,,-0.0,-0.007561015444999913,-0.006616956722009696
vNQ_max,0.025088899331347055,0.055414399673445865,-0.11013805704360556,-0.11013805702641848,-0.2467681362042483,0.24920523858450846,-0.4240584553126657,0.2595358202342499,-0.016065779077796122,0.11248997118533126,0.10779745316420337,0.11315273641992173,0.2158051051841871,0.727267741703248,-0.21038099531284027,0.1107984407140686,0.2158752059855795,0.21587520540782124,0.025088895183174937,-0.11059394047963952,0.11425822697901099,inf,-0.0,1.037922869296887,0.11425799270678466
kRespiration,0.0020692759112346977,0.004570464089567697,0.8486554888491836,0.8486554888258103,0.03231344999848865,0.006745977643221488,0.05971096171702739,0.0059332810464834945,0.7960443953987155,-0.0014596505411547884,0.04944125457034795,-0.00617833407254853,0.006276330429467315,0.01959842818653778,0.7800176809346225,0.004535389256941168,-0.03684420707599916,-0.036844206159261816,0.0020692825746038367,0.04354915507403361,-0.008864247883498377,-inf,15000.0,0.0031294376603769537,-0.008864125093198722
kATPsynth,0.0005085537383787931,0.0011232523420629259,0.0005163748587741831,0.0005163752191117184,0.0007007665255658343,0.0010672334632321312,0.003230357534603402,0.001034042449595113,0.0017728979497693936,0.0005814722126719467,-0.009203625564896838,0.0005786384071988527,0.001073351290308807,0.0034777093516410455,-0.0021658798559979374,0.0005852595471271725,-0.002703886852957737,-0.0027038870531067324,0.0005085525597769943,0.0034619249926264753,0.0005885212404760136,-inf,-15000.0,0.0007690384968739746,0.0005880151590705966
vCBB_max,0.21633999854268357,0.47783495654033176,0.987064933193415,0.9870649332147945,-1.3194219285593762,0.4924407247887163,-1.2901149167928754,0.5197923208541986,1.5378034591305632,0.7213311433862822,-0.370353827065637,0.7176358100100744,0.467250854451682,-0.7827956056005131,-0.13776466351961122,0.7243004313696141,-0.1378602514710764,-0.13786025227314136,0.21633999277174792,-0.1448831087053784,0.7205575824087851,,-0.0,0.3271262450256463,0.7205580919634048
vOxy_max,0.0006128666019520981,0.0013536413952926411,-0.009107431675270406,-0.009107431708522013,-0.0007881614450530788,0.0015319491471806677,0.001072999690349143,0.0015389912680456976,0.059282708979384445,0.0014998135257501743,0.0031587299677827137,-3.1225254195621834e-05,0.001444515161935072,0.002023736399097693,0.05453605366800062,0.0001389972986213379,0.9977261298467817,0.9977261287139408,0.000612858306475157,0.0025392315433418857,-0.00021731947620565707,,-0.0,0.0009267360696398625,-0.0002176405438151666
k_O2,0.09135873921540533,0.2017860726620179,-0.04885213396497023,-0.04885213464562078,-0.6200150293143769,0.2077171601735029,-0.6471776751248695,0.22083469630132913,0.23284952718036367,0.10198563003036594,0.07514955330211057,0.10113160625347477,0.19655791271699907,0.6632267238991373,-0.47473017204407275,0.10077942237933889,0.21860042145696154,0.2186004223386114,0.09135874514511377,0.8759815184752308,0.10309924873043351,,-0.0,0.13814206899559778,0.10309888493941242
k_ox1,0.013016536863924724,0.028749905196318253,-0.0024851758100386174,-0.0024851757864482325,0.9153935230168765,0.007627881513590297,-0.07223212917863316,0.008853256296593386,0.03686803519194905,0.010658626475200121,0.006931593179297899,0.010495925260538245,0.020584923594692234,0.06948954412169846,-0.06394590512321345,0.01054968461470303,0.02378943034995593,0.023789429596521885,0.013016531376591041,-0.013934356001541527,0.010749462935033868,,-0.0,0.019683578215646487,0.010750237514981567
k_aa,0.00992020363443329,0.021910973256014318,-0.00605671725316912,-0.006056717078737698,-0.06784376142523028,0.022564092397297734,0.9288726737928461,0.008657661853417225,0.024658002775629077,0.01174466499724913,0.00893653122309751,0.011659099722082464,0.022625932092393705,0.07633246452063713,-0.05217465330243947,0.01160310876864479,0.02489043825514395,0.02489043832500358,0.00992020428693185,-0.013983824451381958,0.011877200274708025,-inf,-0.0,0.015000961171331068,0.011877168772006346
