,vPSIIquench,vPS2,vSDH,vRespiration,vbd,vb6f,vaa,vPS1,vNDH,vFNR,vPass,vO2out,vATPsynthase,vATPconsumption,vNADHconsumption,vCBB,vOxy,vPRsalv,vPSIIunquench,vFlv,vCCM,vCBBactivation,OCPactivation,vNQ,vExch_3PGA
PSIItot,0.8614312519063623,0.020749624121576837,-0.0813995035103775,-0.08139950351274652,0.44891112978723524,-0.03833603840060301,0.2713499554855904,-0.043778184660542264,-0.5024540874888178,-0.011189434323555925,0.021768878749936132,-0.008718148417067117,-0.022636884596009682,-0.07742160142786861,0.4383580987105399,-0.011613405850276473,-0.0542183427880162,-0.05421834284707004,0.8614312516805632,0.044907600343570775,-0.010511679651056684,-inf,,-0.2349342492816869,-0.010511585344141197
PSItot,0.01236992661448725,-0.001748916340392591,0.007107493875327976,0.007107493856637518,-0.040022729455768055,0.003519059570158177,-0.024193179460921515,0.004006049815513733,0.04470736417583163,0.0010790595217909692,-0.001835328334692331,0.0008596726211886176,0.0021179638757755585,0.007099619056882114,-0.039278234753860976,0.0011153401651266364,0.004870046763679325,0.00487004753906947,0.012369929360043145,-0.003788550012950382,0.0010208324987435002,,-inf,0.021036210143629767,0.001020684636734448
k_Q,0.0073639569017035274,0.017001782013591333,-0.001429274350996862,-0.0014292746972853093,-0.01529526864159574,0.017068137071287834,0.45594349121297406,0.009355731887962673,0.021357387425318508,0.009188612520548742,0.023360136992622856,0.009138534934280938,0.017258306790235833,0.057568341347188086,-0.02864018811049448,0.009123753919830502,0.0032635514412389377,0.0032635519774480326,0.0073639586581435495,0.006229246251428633,0.009290079231783481,inf,-inf,0.01250569715766465,0.00929008079572317
k_FN_fwd,0.0662413700552623,0.15293695401408483,-0.6288717723908077,-0.6288717710419441,-0.06801583019803085,0.14971355032999448,0.023910867871290663,0.15192429477372507,-0.38166117527563326,0.16872817666553558,0.14593129770169724,0.17175118472964657,0.14735028432402783,0.06397936283506134,-0.8314067837477328,0.16344729809154274,0.04472044799574427,0.04472044743046886,0.06624136866642558,0.12507994776557693,0.1757760906228863,,inf,0.11229508968774606,0.1757752671747142
k_SDH,1.2695945585676801e-05,2.931056836226087e-05,0.0027451036797635285,0.002745103689697734,0.0001301443501485691,3.380594062210235e-05,0.00021194134854695906,3.0675547480205905e-05,0.0025910469051286652,2.8592865686139027e-06,0.00019883608768064763,-1.0266659848079867e-05,3.328163180861571e-05,0.0001060295948912238,0.0025048526725393763,2.1736459551706835e-05,-0.00013697191032356506,-0.00013697220645221157,1.2694892976085495e-05,0.0001671588147131161,-1.9825045444155523e-05,,-inf,2.152428480678087e-05,-2.035541378565739e-05
k_NDH,-0.005052511171695701,-0.011665150803514534,0.09872228791809001,0.09872228791160312,-0.009255262427802743,-0.009433855950060637,-0.023903511325789516,-0.009179579091722527,0.5273394872364551,-0.006058461226003016,-0.033803923118841346,-0.0087205461258353,-0.010061984823485012,-0.03288059942262069,-0.43835650849278696,-0.005373832973971915,0.017396241900955883,0.017396242221364815,-0.0050525100251856666,-0.023985047759477202,-0.006996982308742826,-inf,-inf,-0.008565808395293773,-0.006997068895726525
vNQ_max,0.02432874769759587,0.05616979866466245,-0.10089430001149101,-0.10089430007907625,-0.17229777184931688,0.2390973185806162,-0.2925918002494505,0.24844075033837298,-0.006251558421700857,0.10930610145125372,0.10655634669204506,0.1098069399320261,0.20687124891814046,0.6966512015685331,-0.17143152464677328,0.10775215759671604,0.20403089272032587,0.2040308923274159,0.024328746255972006,-0.10144683658460694,0.11093466064027394,inf,,1.0412173694844225,0.11093510442539063
kRespiration,0.003259070533907008,0.007524484354332645,0.8264665581179638,0.8264665580371675,0.03719150963172283,0.008957901355726872,0.05981799164281899,0.00806413136026235,0.7785514253708752,0.00017697623871334116,0.055021604255899983,-0.00377481340595702,0.008774570621056051,0.027873081329550572,0.7564239797381013,0.005860585089467433,-0.03847294449732969,-0.03847294502844863,0.00325906860665839,0.04669386808868053,-0.006823906515182739,,inf,0.005525686942910294,-0.006824274362541428
kATPsynth,0.0005090073057802694,0.0011751856415901788,0.0005480507659554768,0.0005480511771549843,0.001816782715867135,0.0011041292980784195,0.003632134151607429,0.0010597043760593595,0.0018965259814116514,0.0006156882925623536,-0.009166789634615756,0.000613158188459751,0.001127147223677493,0.003663275079781771,-0.001559372319853392,0.000619212435969042,-0.002514466374173159,-0.0025144667671134365,0.0005090061091861144,0.003300716675732564,0.0006221288070332614,,,0.0008629503132137902,0.0006218734445186012
vCBB_max,0.21893236044922343,0.505467343347783,0.9292544885235925,0.9292544884949209,-0.7659541892492406,0.5186295188163466,-0.7247521379979133,0.5404796023467251,1.5257889209467097,0.7352629787682755,-0.32425486654390806,0.7323920759564897,0.49701972137345257,-0.6902364660077324,0.039348171027907566,0.7377012711193018,-0.14085060285173734,-0.1408506019229092,0.21893236375920344,-0.1278010776744272,0.7351727895721412,,-inf,0.3711273087709421,0.7351722097770101
vOxy_max,0.0006980201615271246,0.0016115794165269368,-0.010897477245605075,-0.010897474814068048,0.0007981987136838186,0.0017368800563616789,0.00239716773135876,0.0017252766919163055,0.05869594834706025,0.0016274454721680964,0.0036873806544440845,0.00016655554669968838,0.0016769409351426764,0.0028227482542694613,0.05395673529044534,0.000273972828599978,0.9975839042039661,0.9975839042862374,0.0006980216407256942,0.002832998678389937,-4.7831855674787925e-05,-inf,-inf,0.0011833312284224228,-4.9225452975152685e-05
k_O2,0.09429408521733024,0.21770458706685628,-0.057035287566352476,-0.05703528603771578,-0.39634446018947034,0.22377925299896848,-0.4096525468183778,0.23491062012436542,0.24968962904487946,0.11247200443327454,0.09344894603068801,0.11170362453382265,0.213598755800194,0.7198906395967909,-0.390519823317506,0.1111709945501154,0.2264778547968315,0.22647785403825993,0.09429408325882944,0.8785034942765846,0.11371834876724217,,,0.15984274801750573,0.1137182666795819
k_ox1,0.015947792048285777,0.036820001832268925,-0.0044601677778874525,-0.00446016783111276,0.9374503272871315,0.011013357856161823,-0.05024328816229949,0.012089827681273464,0.04646977478103238,0.014253610683574775,0.011222136258535903,0.014082275440256241,0.027106859937031255,0.09137655926881129,-0.06180774786077047,0.014106782286183903,0.029349820656267667,0.02934982233803081,0.0159477980661448,-0.01605625695444172,0.014387004010497561,,inf,0.027037270876650414,0.014386703889125574
k_aa,0.011405247347602218,0.026332240266292464,-0.007723134157709177,-0.0077231358231399936,-0.04857562394368862,0.02708201245299317,0.9495119572025597,0.010872048936653096,0.029522991906351114,0.014377079102452067,0.012131636112526125,0.01429089961003692,0.02729504057039408,0.09198153684616492,-0.0479129011624403,0.01420806805689307,0.02875921783575631,0.028759217729358043,0.011405246128656022,-0.015327211620978352,0.014538681342308403,inf,,0.0193352999071213,0.014540428616692353
