,vPSIIquench,vPS2,vSDH,vRespiration,vbd,vb6f,vaa,vPS1,vNDH,vFNR,vPass,vO2out,vATPsynthase,vATPconsumption,vNADHconsumption,vCBB,vOxy,vPRsalv,vPSIIunquench,vFlv,vCCM,vCBBactivation,OCPactivation,vNQ,vExch_3PGA
PSIItot,1.1174203719684284,0.1596470753205416,-0.04096229286715558,-0.04096229286782744,0.1514168111590173,0.14191280140848933,0.2413694431435656,0.14170218158793424,-0.041664425306312126,0.14657435948542036,0.06486734245679814,0.15289310669853587,0.1448573382045403,0.19506589156794074,-0.024751331280431794,0.14069769335525945,0.12203018363628343,0.12203018160275911,1.1174203698067882,0.7731323330009358,0.15449420796527635,-inf,207010000.0,0.1143510761894226,0.15449347005371275
PSItot,-0.10323067946518343,-0.12493847375538648,0.029950406804547344,0.02995040680402073,-0.13049044074590502,-0.1102222546154821,-0.4880897722241636,-0.10942204264970687,0.030892643030764843,-0.11388040429532237,-0.05029312612421467,-0.11873895525670836,-0.11273375170528799,-0.1538516068487521,0.016023415361312597,-0.10937267116107689,-0.09547528630111952,-0.09547528352000584,-0.10323067754525733,-0.5883187916798086,-0.11995205867390313,,40034999.99999999,-0.08686274626403834,-0.11995299840425176
k_Q,-0.8519679732727251,0.030225074789821848,-0.0013269316139056986,-0.0013269316147759191,-0.9520458094762023,0.04547629527337567,0.062785476485733,0.04543963953285872,0.025913295061148377,0.03991447878964734,0.014924574805528718,0.04042113857362896,0.03906078800885536,0.0428016895833969,-0.09680318711110573,0.03862308211510145,0.03389371823575913,0.033893716591239305,-0.8519679744711471,0.2684023964382922,0.04165757330270478,,-0.0,0.05301724966347213,0.041657392971001427
k_FN_fwd,-0.3280774850204486,0.01163913087723013,-0.4741539348532938,-0.47415393485460394,-0.052793306424001304,-0.050030544632338816,0.25109710364593113,-0.05066824419793999,-0.46096524701585745,0.004808205416622821,0.1902056765858444,0.02084366041031214,-0.040861877294568735,-0.5461019503049774,-0.5082211494062345,-0.00981377381148954,-0.3121685880370911,-0.3121685863627695,-0.3280774837991515,-0.7825893426726629,0.025609509168902433,-inf,70000.0,-0.1643639456010519,0.02560991958583126
k_SDH,-0.00016631105702550995,5.900199501164395e-06,0.0016850622684337017,0.0016850622679370597,9.930170777853247e-05,9.420469121833042e-05,0.0004052934548403487,9.354589481407837e-05,0.0016563338049288769,4.1507302804135784e-05,0.00027624746132368056,-1.2090160543668643e-05,7.73784058437864e-05,-4.434666773401507e-05,0.0016323785419918978,9.36745568041975e-05,-0.00018032746118760187,-0.0001803290516862017,-0.0001663122193400782,0.0014600147646647373,-2.5573405537555296e-05,inf,4999.999999999999,0.00018322458722250904,-2.69046335073118e-05
k_NDH,0.05202132038409787,-0.001845548596972932,0.12846192933230993,0.1284619293362202,0.013795922766801397,0.01307877233068863,-0.02786622246679498,0.013165481808345297,0.34224468399654756,0.007686332604642711,-0.045504809575672774,-0.0033117116174061316,0.009987894091212217,-0.003951940157863018,-0.6502622295934157,0.011424300109263295,0.054171832557136076,0.054171830733235796,0.05202131886879657,0.1140529213790051,0.0025182282864627983,,10000.0,0.023680804242413294,0.002516780497183575
vNQ_max,0.5489309441578993,-0.019474298971193137,0.6296170704492573,0.6296170704504161,0.13189278948149427,0.12506064958428126,-0.325041020069719,0.12601383218567297,0.6105764848678632,0.043064693456325416,-0.29506921524155766,0.02337989655108957,0.10550785213856147,0.8243016672346408,0.6896438625202526,0.06082859506579338,0.5250156195715572,0.5250156241198786,0.5489309474967797,-4.1355602257075725,0.017378633380741623,-inf,-5000.0,0.4297049083254866,0.01737763291567927
kRespiration,-0.07650350715575689,0.002714097657358742,0.7325859265012713,0.7325859263259288,0.043264019648009244,0.041043836481559334,0.18111064752578512,0.040747214136768024,0.7201452410494763,0.01813628636342805,0.12495752068750704,-0.005156823864076302,0.03373505966833755,-0.019068410259516163,0.709125764347072,0.04082029188349627,-0.08290846044309733,-0.08290846733908724,-0.07650350593339375,0.6388146226633766,-0.0116133347499957,inf,5000.0,0.0796047342693169,-0.011591658789275896
kATPsynth,-0.0006682261759547912,2.370651522002246e-05,0.00019265272250931323,0.0001926527219990244,2.562365750896185e-05,2.4385422076203413e-05,0.0008051399432286692,2.2732019760989122e-05,0.00019695690740446082,1.879366161446067e-05,-0.00324350252284177,1.395609861601519e-05,2.3772396567682886e-05,2.7619935958336355e-05,0.00010070637815554268,2.5397069491134307e-05,-0.0007179573569202572,-0.0007179579058563579,-0.0006682265712171628,0.0007959691530596675,1.2034543782378964e-05,,-0.0,1.2799401010595306e-05,1.3173760979969123e-05
vCBB_max,0.04509402419528606,-0.0015998212356385605,0.30691792435506565,0.30691792435383336,-0.05799345968389019,-0.055006742557986946,-0.1785028003624817,-0.054745214316212834,0.2842616925256826,0.02410840787553122,-0.4076372181656155,0.01672700966491771,-0.049888912759120635,-1.3016562602761148,0.2907569832839297,0.034374142653337776,-0.8615767795148487,-0.8615767722307269,0.04509401671912935,-1.4513836123964778,0.014258677905159877,inf,4224170000.0,-0.20745748122515195,0.014258329622703394
vOxy_max,-0.0007054380910207057,2.5026678559085264e-05,-0.0028219738232336876,-0.002821973822757028,0.00029153558610117686,0.0002767575293796005,0.0014325579938334397,0.0002743098783831567,0.01539643557199025,0.0004995467823554314,0.0008109012706703247,-0.0014714913432102787,0.00018913309095117082,-0.0011933608048246146,0.015294825077789847,-0.0011223302170178977,0.9978393629759329,0.9978393621486893,-0.0007054386862612748,-0.0005475107612946181,-0.0016216547746755656,inf,10000.0,-0.0002409620144685307,-0.001622541481340128
k_O2,0.007618038569796304,-0.0002702634653922128,0.02151460946284658,0.02151460943947979,-0.007168466655015855,-0.006798619642417893,-0.024352014289008034,-0.00676144703863692,0.021028602539024468,-0.00809998701973165,-0.01295226168674515,-0.00909666474718471,-0.006119374525189631,0.012185587145964873,0.022125896004022805,-0.007190375132918008,0.007867726868613706,0.00786772780294148,0.0076180401621146684,0.8266891947205016,-0.009380926878364403,,-0.0,-0.02438141599603811,-0.009377939265401872
k_ox1,-0.0021479448103070347,7.620214181088628e-05,0.01833482844750702,0.01833482844540397,0.9844325564347727,-0.014764077081162888,-0.03191138615829939,-0.014727764126036675,0.018130319056164107,-0.010070523047507062,-0.01204243168659261,-0.011032173656648148,-0.008439796566541506,0.004989234623937694,0.017820931560547003,-0.009195246963143843,0.0034004795396429905,0.003400479206322577,-0.002147945060046128,-0.15773903294157698,-0.011291410703817062,-inf,-4999.999999999999,-0.022236493369603795,-0.011292110772176385
k_aa,0.0023450416657684646,-8.319453141237559e-05,0.006633684508949009,0.006633684510483531,-0.0022917395908162415,-0.002064548620045077,0.9897686420988566,-0.004164958825951941,0.00648896697881071,-0.002288968154663308,-0.003988144344775202,-0.002589586594875912,-0.0016744456340639818,0.004113441502628237,0.0068267440762303944,-0.0020151823005745404,0.002701639290777023,0.002701640603697034,0.002345042640311197,-0.052833634927227376,-0.0026731730376609274,inf,-0.0,-0.0074126643786186245,-0.0026744129320128863
