,vPSIIquench,vPS2,vSDH,vRespiration,vbd,vb6f,vaa,vPS1,vNDH,vFNR,vPass,vO2out,vATPsynthase,vATPconsumption,vNADHconsumption,vCBB,vOxy,vPRsalv,vPSIIunquench,vFlv,vCCM,vCBBactivation,OCPactivation,vNQ,vExch_3PGA
PSIItot,1.11778985251571,0.1867822694246242,-0.07536308853435494,-0.0753630885366633,0.16701975739632322,0.15670391726091554,0.23543450390202686,0.1565919333896897,-0.07590882715419506,0.1458186115266287,0.08711119381852196,0.1491826536168618,0.16106766709439885,0.3067931735702183,-0.04132485777907784,0.1425708972693851,0.1330540850201996,0.13305408509722183,1.1177898528356136,0.5553543725064524,0.15001804702731888,142.85714285714295,-1445000.0,0.07696520552537203,0.1500183590451723
PSItot,-0.0902919358567728,-0.11941523951541207,0.04701913044340639,0.04701913044505769,-0.127301261944248,-0.09961018130484524,-0.6130811310382195,-0.09887983659865492,0.048460139147526414,-0.09267948982744806,-0.05650691976762889,-0.0948210183596737,-0.10262783758935722,-0.19723444931050482,0.02194976024942618,-0.09062907385157908,-0.08402288897000654,-0.08402289107182233,-0.09029194391388805,-0.348239558198968,-0.09533261440407313,-5428.571428571429,-7735000.0,-0.047637922874025275,-0.09533326444195377
k_Q,-0.6918676831636605,0.06383584892219471,-0.007988778455407186,-0.007988778465360627,-0.9253721898996634,0.07065452462856288,0.08363975766155714,0.07063605477987342,0.0412764295165975,0.059292652693422626,0.027014020121854953,0.05958664063715095,0.06522941880205893,0.12007401448440827,-0.161861028395239,0.058296298738377335,0.061346334117482304,0.061346333425041595,-0.6918676852362574,0.2328629321574333,0.060557935165440085,-2142.8571428571427,-15000.0,0.05703335449332935,0.060558101027627265
k_FN_fwd,-0.1803565194752484,0.016640770704592488,-0.5369244423962957,-0.5369244423942783,-0.014158040189372547,-0.01336332672235278,0.20864400290936394,-0.013679102869784151,-0.5118881018527542,0.04787451363818231,0.1254900105071564,0.056639822378695234,-0.008576416583482863,-0.4069513244024474,-0.5648421070504591,0.03955816540838845,-0.17640198076130714,-0.17640197895909515,-0.18035651256516255,-0.37050650023746867,0.05936647724547263,4714.285714285715,-0.0,-0.08257750208732303,0.059366122683390414
k_SDH,-5.8939815744804834e-05,5.437929972542085e-06,0.0015748036686340896,0.0015748036669571105,2.6672721172191536e-05,2.5262685282781767e-05,0.00013618420766651137,2.510491399750495e-05,0.0015200420069526996,2.0715099625127547e-06,0.00010725767102324984,-2.0767181171020053e-05,2.0096633726612754e-05,7.555479729088975e-06,0.001502737041909614,2.540307200379356e-05,-7.506262201936761e-05,-7.506126676831705e-05,-5.893457631477599e-05,0.0002563361110850458,-2.707858909016959e-05,3428.571428571429,-0.0,2.4249815543997058e-05,-2.7449434248816323e-05
k_NDH,0.02998354290216645,-0.0027664607871704843,0.10612299684587845,0.10612299684412116,0.002719566529005069,0.0025706887308897387,-0.03397238066920801,0.0026226664229926744,0.33204391377339487,0.0011395847051414692,-0.039171907117880364,-0.0037918875655209108,0.00131200586583082,-0.007828329805139261,-0.6591527014030785,0.0026370973459993573,0.038192067408173214,0.03819206631480369,0.029983538836136567,0.0066218564342072584,-0.0009166768273967245,-2857.1428571428573,-14999.999999999998,0.005536304773996483,-0.0009168652831463641
vNQ_max,0.3022779886277763,-0.027889974287720457,0.2429341231706145,0.24293412317174767,0.20300148899910395,0.19228949027135095,0.034399906798753876,0.19251406738198418,0.22385898491436382,0.08854491574930792,-0.011411305871681938,0.08623226414045473,0.1637161191691222,0.7569743779357992,0.3126100321661897,0.09055068029053999,0.2814156626245231,0.28141566149627717,0.30227798429350816,-1.1749699271957343,0.08523940325418483,-2857.1428571428573,-0.0,0.846009091982191,0.08523918642165373
kRespiration,-0.036721299363488974,0.0033881373288269095,0.8315849587483641,0.8315849587519729,0.014389644854126327,0.013629719432357601,0.0800152520139591,0.013535294770362622,0.8027877770688062,0.0012389754030034798,0.06483932756198017,-0.010810279089626009,0.010932090923224334,0.005736382548516085,0.7920061318127225,0.013567723800073364,-0.046898163588990516,-0.046898164370931535,-0.03672129389114589,0.13936669095990975,-0.014332120120741237,17857.14285714286,-1749630000.0,0.01242744137722897,-0.014332040716751178
kATPsynth,-0.0012166452732194823,0.00011225497596779307,0.0005425328753494921,0.0005425328758702368,7.434107698463332e-05,7.057628341916057e-05,0.001778380767588567,6.814714702301377e-05,0.0005493327941578762,3.170797431313844e-05,-0.00577904092872029,2.6070850743826453e-05,7.536975017224785e-05,0.0003758358366585939,0.00019211675989561704,4.153546763182039e-05,-0.001577535626500227,-0.0015775356741504127,-0.0012166454440488974,0.0009445164641116567,2.5302943903928966e-05,-142.85714285714283,-15000.0,-7.239536896494912e-05,2.5342234196116024e-05
vCBB_max,0.046395270110338394,-0.0042807047387618865,0.7111741154025845,0.7111741154022274,-0.05099205973918031,-0.04823844519741245,-0.17365227900678246,-0.04806006056306121,0.6569015047142233,0.15794618699741295,-0.5421286008852398,0.15157893025620095,-0.04380336610984685,-1.7338428214585246,0.6705234978864637,0.16736832875188423,-0.7248713674111017,-0.72487136905689,0.04639526381710944,-1.5037174784670022,0.14930201810596738,-3999.9999999999995,-17190000.0,-0.20737438071129885,0.14930244082573654
vOxy_max,-0.0009522202192316975,8.78574230451649e-05,-0.004199177412620586,-0.004199177411777046,0.00031371501176312406,0.000297536362059524,0.00194133271572765,0.00029519829490791584,0.03153701716190473,0.0005933651841103766,0.00125210433498097,-0.0012019524039209573,0.0002180919902642288,-0.00134469798743257,0.031257438441847495,-0.0008930328298345066,0.9975954805319123,0.9975954812882687,-0.0009522174328448236,-0.0005357748779850799,-0.0013450512285772766,1857.142857142857,14999.999999999998,-0.0002832272947240597,-0.0013443489667718243
k_O2,0.03471875890442428,-0.0032033603923592295,0.11432070648671544,0.11432070648606624,-0.023820325046041528,-0.022524028162195023,-0.0983508143392137,-0.02241617455945926,0.10901233094460136,-0.037863265033097976,-0.04378264273912055,-0.04017633288697191,-0.02026464885687704,0.10696238247527176,0.11920601475148557,-0.035714255571595396,0.03119083279414942,0.031190833247379986,0.034718760658132196,0.3611951993750738,-0.04087579609855584,1142.857142857143,-14999.999999999998,-0.08529450151989024,-0.04087550673972998
k_ox1,-0.0036434520912603345,0.0003361664005729868,0.01129448819666282,0.011294488196316978,0.9888559254375789,-0.01055024591740776,-0.019272309039857473,-0.010537839926068888,0.011154150327688838,-0.005811818964960273,-0.0053787392651438335,-0.006076430803531705,-0.0045653467544309895,0.0038099729479375466,0.010084406196776327,-0.005568103569873832,0.00043249526367923635,0.00043249711349160197,-0.003643444956701655,-0.06470119906377352,-0.006146839723468496,4714.285714285714,-3410000.0,-0.008530620472285052,-0.006147324167402785
k_aa,0.0007672077091546714,-7.078721589251561e-05,0.002483427369711242,0.0024834273702439603,-0.0005924865925858565,-0.0004852102497473623,0.9960380881743169,-0.0019026332336362964,0.002373941628707778,-0.0007206706212377899,-0.000960407904557736,-0.0007695831724734771,-0.00031421244077006587,0.0026555117145481266,0.0025991995121565385,-0.0006756136828053658,0.0008659879580532287,0.0008659882489824371,0.0007672088224291345,-0.013852016491343853,-0.0007839473497252377,571.4285714285714,-15000.0,-0.001835930353313901,-0.0007843606561622067
