,vPSIIquench,vPS2,vSDH,vRespiration,vbd,vb6f,vaa,vPS1,vNDH,vFNR,vPass,vO2out,vATPsynthase,vATPconsumption,vNADHconsumption,vCBB,vOxy,vPRsalv,vPSIIunquench,vFlv,vCCM,vCBBactivation,OCPactivation,vNQ,vExch_3PGA
PSIItot,1.4308385952977207,0.66091194101682,-0.19941514739089014,-0.19941514739141872,0.5665906130668744,0.5536269596079127,0.6373440971034559,0.5535624204956421,-0.2006370269771211,0.5370074569790455,0.26831050856156,0.5504838788271854,0.5688895478863422,0.9620791407651287,-0.10241838153224593,0.5240631272862387,0.49275322580564285,0.49275322584619885,1.430838595414742,2.24521265386599,0.5538345285600774,-7500.0,1.3766519823788546,0.297719710309841,0.55383500714728
PSItot,-0.4063170998279775,-0.6048215109146847,0.18149149719219612,0.18149149719139096,-0.5332343166992589,-0.5061670847008327,-1.296025731357715,-0.5055581679693207,0.18326561322984333,-0.4909674981549651,-0.2455957112186688,-0.50328481285148,-0.520309367772133,-0.8814492893371615,0.09063714298690484,-0.479147309781857,-0.45067373609436323,-0.4506737348663032,-0.4063170965566926,-2.0471760349622814,-0.5063329236205232,-49999.99999999999,-2623.072687224669,-0.27114513659364126,-0.5063332135293351
k_Q,-0.7564104995900635,0.051001485697834914,-0.00061710048314445,-0.0006171005439654751,-0.9393896475754344,0.059264791539332666,0.060297347224837226,0.059263994704860726,0.03979631746883089,0.051041181387041036,0.018485543528884357,0.05126818611044724,0.05374222050620272,0.0855933022301763,-0.13264326396414683,0.05012663178761004,0.052503387645117874,0.0525033859942786,-0.7564104994461839,0.22829994174117837,0.05221014798849645,147499.99999999997,2718.8876651982378,0.05039758837372339,0.05221216687567318
k_FN_fwd,-0.2126194084217202,0.014336006891045609,-0.5485718122435165,-0.5485718122424439,-0.0208057167959365,-0.020339029435143097,0.22036411012190069,-0.020524591957900955,-0.5272849468400779,0.036996858386738316,0.14342260223194467,0.04760394929890277,-0.014852727682004484,-0.4109974665430064,-0.575755991505162,0.026999577256720125,-0.2046232728905633,-0.20462327424222404,-0.21261941188633085,-0.44933557166221383,0.050804166908183276,20000.0,-4546.25550660793,-0.09123217289462077,0.05080346768338979
k_SDH,-0.00012457211599175178,8.399490611747448e-06,0.001607791090859241,0.001607791105298204,3.528694364141047e-05,3.451205840100887e-05,0.0002260604339916393,3.436459599183484e-05,0.0015612690878421258,6.6085116626485575e-06,0.00019100328549883895,-2.148636117225444e-05,2.7987576759038456e-05,5.124607637317442e-06,0.0015328701880658808,3.5109121584051975e-05,-0.00014595085685545518,-0.00014595206292187472,-0.00012457657062592538,0.0004260556641279377,-2.936510718695132e-05,14999.999999999995,2.477973568281938,3.594120172466026e-05,-2.946542276867457e-05
k_NDH,0.03512539190031633,-0.0023683532096247795,0.10964372701346187,0.1096437270068945,0.004193028255665373,0.004099637264383247,-0.03491011206635661,0.0041297104988465266,0.3308499775703331,0.0019875907590864543,-0.04085054600209477,-0.0039138280496539895,0.002599777403605391,-0.006446502235598645,-0.6611424464648568,0.0038327817593342283,0.04137682610136586,0.04137682663023343,0.03512539403704119,0.01799273460500948,-0.0005402167132496045,-5000.000000000003,-0.0,0.007133797851355517,-0.0005403508342077698
vNQ_max,0.3572163882162382,-0.024085554775134944,0.33274825503671945,0.33274825503517397,0.20114324751976606,0.19671827665242356,-0.03438991649693932,0.1968964422583067,0.3143057129549064,0.09461459509518395,-0.04406895517124862,0.09028673326907012,0.16848692974304788,0.8142229818986361,0.3957406574602451,0.09848542466187715,0.3289658497103831,0.3289658494612002,0.3572163875446939,-1.691217411838982,0.08871857064614942,2499.9999999999995,-0.0,0.7894411668617951,0.08871892001558877
kRespiration,-0.043633775169556605,0.0029420366482020843,0.8183357340641781,0.8183357340672539,0.01726592319968358,0.016886284628883554,0.08918718398269172,0.016830546528356485,0.7943548256459284,0.0029507075021482604,0.07105792704248139,-0.01138476333073074,0.01347365206517205,-0.001419154566591407,0.7844076055681778,0.017429861405034483,-0.05067591809170974,-0.05067591822999115,-0.04363377566706712,0.20278920661562105,-0.015468829653153856,4999.999999999998,-24.22907488986784,0.019364796292607046,-0.01546931676453841
kATPsynth,-0.0010928927837802675,7.368910008855498e-05,0.00041404202598388046,0.00041404202629076085,4.635162613199917e-05,4.53600166089125e-05,0.0014464273545343688,4.427987651470377e-05,0.0004182691271448414,2.385487567941735e-05,-0.004941516238864442,1.8501881994042398e-05,4.824979389470098e-05,0.00021740294136331407,0.0001691213257335506,3.264781849970224e-05,-0.0013043827779774663,-0.001304383791993689,-0.001092895318809214,0.0008643753141447408,1.7214028350971464e-05,27500.0,56.718061674008815,-4.8229178670986015e-05,1.772944289987197e-05
vCBB_max,0.04506976492315451,-0.0030388592084783666,0.5831648433282748,0.5831648433476895,-0.05190758903547445,-0.05075806959719787,-0.1623414379334132,-0.050672047670045114,0.540009921902394,0.11708954450742795,-0.4953215126945926,0.11058640507491954,-0.04597970687225705,-1.6073389836203515,0.5502845237746166,0.12659227968434328,-0.7704942727442602,-0.770494272657603,0.04506976389504612,-1.5852862144817714,0.10832990559246941,-22500.0,-0.0,-0.20687656141090588,0.10832957492166125
vOxy_max,-0.0009258033571383698,6.24230547746915e-05,-0.0036901072586963545,-0.0036901072972941266,0.0002905114697771434,0.00028433473943424183,0.0017349244503673347,0.00028321591507432124,0.026570708199076726,0.0005582222740604734,0.0011146674452294266,-0.001261792462687118,0.00020264647777600838,-0.0013448825442803818,0.026359652229687062,-0.0009438910408963801,0.9976832841681583,0.9976832812796055,-0.0009258082424254318,-0.0005966605841039705,-0.00140547478536167,135000.0,55.89207048458149,-0.0002609309168287309,-0.001403573191751472
k_O2,0.027592174237562203,-0.0018604208869257447,0.08909854167357069,0.08909854167004065,-0.01995254191255084,-0.019501808270063828,-0.07505983316476553,-0.019458977608068632,0.08570621289479333,-0.030126245758055895,-0.0344299714485799,-0.03230864934571301,-0.017495226339687985,0.08220402586965002,0.09199642672956167,-0.028097214549563907,0.0235871575132237,0.023587156480586745,0.027592171462399513,0.4332223979202194,-0.03294613137890488,34999.99999999999,849.669603524229,-0.07206592116150976,-0.03294666911869636
k_ox1,-0.003579979814383825,0.0002413826192983179,0.012005140241507537,0.012005140244442873,0.9887650478060346,-0.010985538287936636,-0.018453104223542793,-0.01097978140487906,0.0118371572505669,-0.006459536175699559,-0.005629120287093796,-0.006801750826351951,-0.005087152416109382,0.004993472578804053,0.011021026128782998,-0.006143133965567259,0.0003496455690691882,0.00034964449689389477,-0.003579982761372679,-0.08065557859489406,-0.0068937120596125724,32499.999999999996,-0.0,-0.010199864532980957,-0.006893226833649103
k_aa,0.0011641971110107018,-7.849687955443494e-05,0.0012842742622863577,0.0012842742665495433,-0.00038616793256856293,-0.00036052707843080935,0.9969724858893989,-0.0011293895980818678,0.0012250571476008622,-0.0004728683006892755,-0.0014824057700051564,-0.000506213946941134,-0.0002613632471594583,0.0014417330043947395,0.0014904603371783587,-0.0004443706287386479,0.0013013973644044002,0.0013013987464120975,0.0011642005734893014,-0.010221509335106906,-0.0005169271454806432,-45000.00000000001,-62.5,-0.0011970931475499388,-0.0005164647189104858
