,vPSIIquench,vPS2,vSDH,vRespiration,vbd,vb6f,vaa,vPS1,vNDH,vFNR,vPass,vO2out,vATPsynthase,vATPconsumption,vNADHconsumption,vCBB,vOxy,vPRsalv,vPSIIunquench,vFlv,vCCM,vCBBactivation,OCPactivation,vNQ,vExch_3PGA
PSIItot,1.3378414022187204,0.3928230964983731,0.018690826090757142,0.01869082609283884,0.31594969256733346,0.3083637112819132,0.37350841441472266,0.3081767835906415,0.017787942443607558,0.34929240741992656,0.05560566114148673,0.39401893020195367,0.3212243287687074,0.36240212318526666,0.0310068800972619,0.31407298254122734,0.33965820460772084,0.3396582006232326,1.337841401959572,1.0880502164687733,0.40649594561127417,-5000.0,-30.358227079538555,0.23381479081634515,0.40649205775463954
PSItot,-0.3337675880796926,-0.3839891978205944,-0.019395883201840228,-0.01939588319909638,-0.3118053430949352,-0.3007954128790534,-0.5543690588568575,-0.3000678029254494,-0.01847922141469255,-0.34068460693127883,-0.05387937908864255,-0.3841549442714873,-0.31347505732151687,-0.35486107176098786,-0.03153876038542973,-0.3064561623317876,-0.3320532180672166,-0.3320477135759556,-0.3337675900684892,-1.0538209404530503,-0.39630414484678184,590000.0,12105804.493017608,-0.22661467997343043,-0.39627090586207414
k_Q,-0.9692613538036247,0.004048724143151168,-0.0031978223378968398,-0.003197822336133317,-0.9784212722833475,0.02112237672169796,0.02864368563204467,0.021100794931890942,0.00457896738626451,0.0171875537782479,0.005929744202800085,0.018934892422984198,0.014887464886430859,0.00596866986469628,-0.03334594467006792,0.01502507344892017,0.010652817667569568,0.010652819682729672,-0.9692613537122167,0.12094006990008536,0.020728848429021063,4999.999999999999,-0.0,0.02810829282441259,0.020731304886564716
k_FN_fwd,-0.4622730728554084,0.0019309717165718375,-0.43692690992734584,-0.4369269099269982,-0.12361340958786816,-0.1209791628631821,0.20605288730580318,-0.12191755600620484,-0.4331627516803646,-0.04873702641635677,0.23200280851842126,0.003805682276307232,-0.10378837062760307,-0.5003990391351667,-0.45125040752218626,-0.08953333173127376,-0.42038232767929945,-0.42038232497391914,-0.46227307245789634,-0.864644793588096,0.01944048804595801,0.0,-12486.338797814205,-0.2534152538726003,0.019441521883527792
k_SDH,-0.00017024471026471478,7.111309208307816e-07,0.001491974420277454,0.0014919744192966901,0.0003273018686613187,0.000320412667307767,0.0008638715543184429,0.0003188532604004762,0.0014841064299880304,0.0001677703884132524,0.0004833265337507552,-9.18398912874292e-06,0.00027122054868216987,-7.509541474284444e-05,0.0014774451558065246,0.0003094221077092508,-0.00016974452289654198,-0.0001697378438201521,-0.0001702443468649233,0.0032937901483236485,-5.8944592689159426e-05,9999.999999999998,-3.035822707953855,0.0005897534061181749,-6.028091419170208e-05
k_NDH,0.0884833379862011,-0.00036960581434656583,0.11951913456575254,0.11951913456428781,0.052142459310140284,0.051037893434999856,0.020753938203278446,0.05112479087880393,0.3216336143143336,0.03616593091821017,-0.035814246783928146,-0.0015138826622828388,0.042041667816702946,0.0076424266558085905,-0.6749042456846228,0.044979966216086686,0.08101019696010026,0.0810101940849953,0.08848333778165664,0.33362394612904206,0.02162705174618921,-10000.0,3.0358227079538556,0.07795172126745692,0.021624927401553983
vNQ_max,0.6204774243509968,-0.002591809460436806,0.5605017323809245,0.5605017323818312,0.16527380242165518,0.1617542410902789,-0.27807238394748396,0.163016289515348,0.5555715790281452,0.06342130516770327,-0.294104556716723,-0.003883860665760493,0.13909230253997043,0.7510497202816786,0.5798493979789041,0.11562878594444846,0.5603219659773587,0.560321230269686,0.620477423793254,-3.564674783190734,-0.02394553905862948,-35000.0,-567601.7000607165,0.34388400485973053,-0.02394107854819867
kRespiration,-0.07168783250418036,0.00029944896424158676,0.6362928724543796,0.6362928724542714,0.13958953989687173,0.13665133899591583,0.36749967464119176,0.13598893757871697,0.632934974614564,0.07155077022915528,0.20520687980482819,-0.003923573150608049,0.11567109905782749,-0.03199541697065011,0.6301299986238482,0.13196054484019334,-0.07150379485703226,-0.07150379356391039,-0.0716878322989549,1.4038819584332116,-0.025711069953938112,5000.0,-564.6630236794172,0.2515305979570462,-0.025709753677883265
kATPsynth,-0.00010213255252441437,4.266198260505899e-07,1.727974802728825e-05,1.7279748010089604e-05,3.4856426583291935e-06,3.418431267457382e-06,0.00011061455610101805,3.1108470528532548e-06,1.7446279591079145e-05,1.8834623201482038e-06,-0.0011410612849233285,-5.088082619802171e-08,2.9528836491448155e-06,-4.259804407115267e-06,1.3450073371526474e-05,3.6804842829207105e-06,-9.89314372798435e-05,-9.893083389591782e-05,-0.00010213253888839507,0.00013027412941034425,0.0,5000.0,-9.107468123861565,5.270193172623262e-06,-4.968710119484359e-07
vCBB_max,0.006095439152416153,-2.5461441833330003e-05,0.10839772181663447,0.10839772181650592,-0.029789270182391667,-0.02916158342064093,-0.0691302733911305,-0.02904689635511068,0.10252707983765048,0.012994831673004031,-0.2682972683062413,0.0026245347769463558,-0.027950399952796193,-1.0280011567603362,0.10276558000340826,0.024639887376490605,-0.9408848411685838,-0.9408848350480754,0.006095439365819484,-0.5317268432392319,-0.0008168036415497807,0.0,13530.661809350335,-0.1045608845170096,-0.0008163250761936204
vOxy_max,0.00014351155701689802,-5.995073977409941e-07,-0.0007252543435982955,-0.0007252543403962609,0.00033208580424542083,0.0003251230144673461,0.0005567576351469277,0.0003244583067170424,0.004819081776724977,0.0005425108026683705,-2.951957741843809e-05,-0.0018218643032594647,0.00023191729117225094,-0.0009576616036919373,0.004824697044582862,-0.0011385063579026793,0.9986826152358104,0.9986826025062598,0.00014351186587261688,-0.00013373879977177626,-0.0020518332026559782,4999.999999999999,16982.392228293866,-6.806499148608334e-05,-0.002050262392598134
k_O2,6.622067209533917e-05,-2.7662166013748577e-07,0.0002574373387632849,0.0002574373391171801,-0.00014751804400153646,-0.0001444055857041636,-0.00037875088058555317,-0.00014373314478047353,0.00025583748412297627,-0.00018901423231124795,-0.00018439128903343375,-0.0002494941312619995,-0.00013495367922654398,0.00013474268795162902,0.00025842854204502947,-0.00014182473577440942,6.391178214120853e-05,6.391819075687359e-05,6.622077709264671e-05,0.9975883486554873,-0.00027226788051659353,5000.0,3488.1602914389796,-0.0004635128577209867,-0.00026693479828223494
k_ox1,-0.007583327892742912,3.1676488084733837e-05,0.010113367161551359,0.010113367164773016,0.9843430771929044,-0.015326044095244538,-0.025424136195929207,-0.01529706843707338,0.010106746083256707,-0.011901983778157202,-0.007789146772360624,-0.014888645600412719,-0.009388968869781059,0.0008338370899166148,0.009810028337869344,-0.009571099389787768,-0.0019368873151195314,-0.0019368886017691346,-0.007583328003876063,-0.1094595852822087,-0.015738206248005565,-4999.999999999999,2103.8251366120217,-0.021373661780956496,-0.015737277881466293
k_aa,0.0013359289776452878,-5.5803485752041285e-06,0.005597183567877155,0.005597183565168149,-0.003145744545435419,-0.003018900870600561,0.9888058632323077,-0.005864865127126546,0.005564347058893913,-0.003704273906285961,-0.0037622891213415516,-0.004964187808009989,-0.0025666155565857844,0.003280939332627911,0.005616618810268134,-0.0027211603180346184,0.0015920228508024645,0.0015920179160132304,0.0013359285712919947,-0.05065818364486341,-0.005327468424953552,-10000.000000000002,3752.2768670309656,-0.009738022557052825,-0.005327741267386531
