,vPSIIquench,vPS2,vSDH,vRespiration,vbd,vb6f,vaa,vPS1,vNDH,vFNR,vPass,vO2out,vATPsynthase,vATPconsumption,vNADHconsumption,vCBB,vOxy,vPRsalv,vPSIIunquench,vFlv,vCCM,vCBBactivation,OCPactivation,vNQ,vExch_3PGA
PSIItot,0.9106841451604009,-0.000295506296095773,-0.07103132208244578,-0.0710313220531744,0.22746658662909164,-0.07073762681786377,0.1444776122387817,-0.07526729080205793,-0.7051131505796422,-0.030340096770735108,-0.00402052706215006,-0.028101874582118887,-0.054541743891740845,-0.183264263331383,0.313646734690253,-0.030549197242309995,-0.07700909599783937,-0.07700909695702486,0.9106841445248747,0.04902485136767443,-0.029924581166005017,inf,0.0,-0.4090346193146309,-0.029924803637012286
PSItot,0.0023574934365891546,6.793285943437456e-05,0.001762410228044336,0.0017624102363423128,-0.006013696243396656,0.0019274459674990206,-0.003845626816607086,0.0020489526102828296,0.018510701442289768,0.0008537715375823467,0.0001246372985649967,0.0007952150005989906,0.0014986036183256193,0.004933506480655028,-0.008379479580864428,0.0008581968336939558,0.002093734261686159,0.002093733831261837,0.002357493172275673,-0.0011777605911605122,0.0008437417911812847,inf,-147.05882352941177,0.01084401537669086,0.000844155212140505
k_Q,0.0020341782961971694,0.014742354566399433,-0.0010570317542323445,-0.0010570317316459037,0.000671337424136047,0.01442188694783431,0.3204735250942699,0.007980377098150557,0.013708676773654083,0.008435562633941001,0.018902993117056344,0.008425859072488539,0.014755174680765946,0.0489534723628724,-0.00949368477583935,0.008378958748265683,0.003894192006636389,0.003894191108400528,0.002034177695661419,0.004753952145994994,0.008522015556407263,inf,147.05882352941177,0.009322820306321679,0.008521443805138203
k_FN_fwd,0.021398342561629452,0.15508081325185835,-0.6070416911899965,-0.6070416911704067,0.0776689150860646,0.14794069748700298,0.09791551373882548,0.14899358422831607,-0.4110911636038995,0.1669574978628359,0.14182061233952586,0.1691275658152609,0.14789712647338982,0.06843249970466135,-0.6551662337198242,0.1620323240037772,0.047971200023325285,0.047971199346270435,0.021398342088391562,0.12040021461403265,0.17352477317369713,,294.11764705882354,0.09798924406693692,0.17352439354228877
k_SDH,1.2227891897775705e-05,8.861744558766814e-05,0.004963790560952211,0.004963789965167174,0.0003115313269159501,8.663395452417596e-05,0.00040796085123123124,7.987101610932413e-05,0.004698557308135501,2.5433403737843337e-05,0.00041932361708950556,9.612610059538641e-06,8.963285889817849e-05,0.00028788888991714695,0.00455908613740202,5.8145872058924794e-05,-0.00026026077450098077,-0.0002602611750783348,1.2227527495024977e-05,0.00033595517232751584,-1.564258334009949e-05,-inf,66029.41176470589,5.599600545266414e-05,-1.4654437641110006e-05
k_NDH,-0.0014765559516768901,-0.010701085343256617,0.08569766731324424,0.08569766730961485,-0.016300851930125527,-0.008384563159338982,-0.0217848608609955,-0.008102525292078756,0.6923350529728787,-0.00579957584831017,-0.02787129755874357,-0.008092233926386826,-0.009142259476371045,-0.029781102691192614,-0.29082296751886577,-0.005223212962409124,0.013018709178414542,0.01301870930377154,-0.0014765558438136633,-0.01925003106989581,-0.006583292931419014,,65000.00000000001,-0.006761798037959947,-0.006584110255231397
vNQ_max,0.007635918682524923,0.05534000082795874,-0.06784940155416916,-0.06784940234742616,-0.09454316764836242,0.20651045264668355,-0.17567262876485093,0.21455431130299354,0.002715378774037125,0.10141022511472793,0.09336258796064871,0.10168046852580645,0.17839137765800506,0.5966327313664581,-0.08438188374523822,0.10020987226075945,0.17539673238083825,0.17539673058405036,0.007635917256009557,-0.07932437863342147,0.10267153231651913,,-6176.470588235295,1.0349558766904765,0.10267293337708294
kRespiration,0.0018852155805890644,0.013662781398904963,0.7812972088354898,0.7812972088009508,0.048421679956427405,0.013377881393544792,0.06340729377746772,0.012324905642806114,0.7393038081031851,0.003845583645503291,0.06505641553302434,0.0013549374280298783,0.013838648528662888,0.04443963862758106,0.7178005389300252,0.008994724833109277,-0.04046661477697806,-0.04046661348978901,0.0018852164580708717,0.05218728443461273,-0.0024673780946046727,-inf,100882.35294117646,0.008633306159892162,-0.002466619263494437
kATPsynth,0.0001752955467177899,0.0012704263824496983,0.0006425147092148956,0.0006425146917550562,0.00274399810124985,0.0011499786625593716,0.003604511076352707,0.0010983177932274695,0.00169261132201445,0.0006983051982012808,-0.008555027154066214,0.0006984786228087435,0.0011996530002078096,0.003890570300979269,-0.0003068584181254748,0.0007015510793201604,-0.0022307462639645135,-0.0022307457370874455,0.00017529592764013038,0.0030941152226348447,0.000703916250304477,,588.2352941176471,0.0008027536887537227,0.0007038410016539516
vCBB_max,0.07213659606511277,0.5227975907538913,0.7852436560512339,0.7852436560627211,-0.22419137771447753,0.5217958068189824,-0.3189293668142815,0.5394906622442003,1.2311951093733688,0.7303269229349355,-0.2715558494924103,0.7297601398158305,0.507183231044225,-0.6926738382649076,0.40838633396608504,0.7318239854876105,-0.19199208819627162,-0.19199208860564368,0.07213659580177044,-0.08015422297464063,0.7314743320766014,,-8529.411764705881,0.3303285911627629,0.731474385835971
vOxy_max,0.00028957171777153104,0.0020986130748532027,-0.014334103831647736,-0.014334103767615755,0.002812830625793133,0.0020722560077294835,0.0036284578511783456,0.0020395024100081254,0.05588437825347359,0.0018822752126094035,0.0046016264645323615,0.0005674565745150257,0.002072780439750701,0.00414532642383591,0.05258146103588331,0.0005486372122568812,0.9973346508069953,0.9973346485634363,0.000289570216432196,0.0033911167816699337,0.00029018588277858037,-inf,-3529.4117647058824,0.0013260392664147123,0.0002900062379206868
k_O2,0.03424702545810837,0.24819943865681698,-0.0662705008734526,-0.06627050089955241,-0.18193053268297082,0.24946351954429355,-0.2516191361599935,0.2600098733644359,0.19753891702642812,0.1367606590324555,0.11969838998912957,0.13648711332027716,0.24089403530190268,0.8058904436542719,-0.1930915702881375,0.1352993261909072,0.2429301131723364,0.2429301140341247,0.03424702604601118,0.8864493521219474,0.13824563995945763,,2941.176470588235,0.15682351530456068,0.13824511161904074
k_ox1,0.006953874970873159,0.05039701620721309,-0.008422360145443264,-0.008422360158779715,0.9683496030136255,0.015503198163597229,-0.03285338387025377,0.016520965629817284,0.0440247605130864,0.021122287717338994,0.018280952666934882,0.021035805385599845,0.03722455594098676,0.12453598271253928,-0.035292948913337424,0.020908190572674085,0.037745575826423176,0.03774557621977399,0.006953875275027928,-0.017759573455349877,0.021336164439501006,inf,756176.4705882352,0.03184545086385728,0.021336267247306966
k_aa,0.004604716176346327,0.03337188376379847,-0.0096470005409238,-0.00964700062023718,-0.02520724746291685,0.033566753223132906,0.9651759639357195,0.013959049304726141,0.02598633464764501,0.019370005643844314,0.01701702909147064,0.019337820726971985,0.03411464577930404,0.11412257223901197,-0.02653624677023039,0.019161404437819125,0.03434007379165863,0.034340072211655456,0.00460471510451633,-0.016010022046747348,0.019582918159831084,,0.0,0.02108703674833888,0.01958251494838777
