,vPSIIquench,vPS2,vSDH,vRespiration,vbd,vb6f,vaa,vPS1,vNDH,vFNR,vPass,vO2out,vATPsynthase,vATPconsumption,vNADHconsumption,vCBB,vOxy,vPRsalv,vPSIIunquench,vFlv,vCCM,vCBBactivation,OCPactivation,vNQ,vExch_3PGA
PSIItot,1.086985401459698,0.0644471493768214,-0.02605531149691051,-0.026055311495588727,0.1645250936730773,0.050752047082715614,0.2209860437070705,0.048767275136141416,-0.03745952371312255,0.04792888365249678,0.03352665755557024,0.049223854490486996,0.053627807530447026,0.10618356606899691,0.017609587541346568,0.046819240325181165,0.0403217700394623,0.04032176996603299,1.0869854011714586,0.17959008028865173,0.04937701028592336,8.968609865470851,0.1462094303880879,0.01843355496621054,0.04937732730250433
PSItot,-0.044969932038834405,0.004377822518899481,-0.003546498726220533,-0.003546498749089268,-0.08321872069637211,0.006719076342246021,-0.1709982938755789,0.008791097458489485,0.003907955872622531,0.005867023190113762,-0.0004676159943189398,0.005898512811463731,0.005636854783503768,0.004767397492107913,-0.024561814389503358,0.005722401290547385,0.0073370820161206595,0.007337079296679829,-0.04496994153868456,0.03907696985668858,0.006046320337253956,233.18385650224212,-0.006008606728277585,0.009279030283846065,0.006046394536478816
k_Q,-0.40723247260127277,0.08085385039371058,-0.0007158097200885407,-0.0007158097168658778,-0.7407372840501573,0.08910661425213363,0.3178521106393442,0.08643965199375205,0.06601033907890361,0.07403669662755247,0.037549487939438665,0.07419084082448184,0.08271800185654181,0.158958666965826,-0.1918022455202718,0.07290298507131229,0.07525620857799256,0.07525620910933765,-0.4072324705345387,0.28197970098269376,0.07548267087894854,-35.874439461883405,-0.0,0.0717735537617378,0.07548219372604266
k_FN_fwd,-0.13382621624847543,0.02657048399254219,-0.5077795846512677,-0.5077795846561071,-0.01967468201739064,-0.004970773391912674,0.19524752263357065,-0.007305134719602238,-0.4748342947357328,0.05766162211838778,0.12413996058479539,0.06602357254634102,6.864782414284716e-05,-0.3987788340192148,-0.5595575972645854,0.049410306370984605,-0.16332158590722193,-0.16332157992410196,-0.13382619176771043,-0.4204370676768562,0.06905955021762446,-439.46188340807174,2.505589005691753,-0.08295489180592679,0.06906061132513208
k_SDH,-3.085293717392143e-05,6.125980991180403e-06,0.0017482854063153898,0.0017482854069724271,7.518934724910163e-05,2.682847557299668e-05,0.00022217069981060746,2.4550962138753502e-05,0.0016894866292806623,8.988904081035259e-07,0.0001338066980654409,-2.452425502379843e-05,2.1737107826989964e-05,1.0149319179575784e-05,0.0016699538621798905,2.7498751143325087e-05,-9.763783595625046e-05,-9.763830269226248e-05,-3.0854664057835785e-05,0.0002851674634044264,-3.2335665474432505e-05,26.90582959641256,-7.636939151640809,2.4595061469516615e-05,-3.2749066575379454e-05
k_NDH,0.02313098730906819,-0.00459253500723808,0.11211098000197149,0.11211098000197482,0.004154983655884286,0.0011359129405516635,-0.032095584358445506,0.0015233616569982165,0.35455464332775277,-0.00010439861773001772,-0.04087568414870608,-0.005390471478534368,-0.00022704142650380762,-0.012489743910670646,-0.6308014890097514,0.0015418015155558762,0.03759309409677571,0.03759309393193592,0.023130986631074966,0.006748862218309547,-0.002353766982659733,8.968609865470857,0.016022951275406892,0.004697628649808589,-0.0023541615543890937
vNQ_max,0.3371098723332166,-0.06693138055688415,0.24020397859089965,0.24020397859113057,0.42010689037594784,0.14327592757493157,0.33005959155640774,0.1410982017153893,0.18669291599995522,0.04227455247278288,-0.017825204157254325,0.039815993272664586,0.11780810349405765,0.6956820218460914,0.40011196791126535,0.04501114386398448,0.2273452700843716,0.22734527143185662,0.33710987770112893,-1.4059878256650757,0.03806671307331074,-107.62331838565021,-4.931063255006471,0.7989619247111115,0.03806682701748551
kRespiration,-0.01658187811624098,0.003292244175368911,0.8218410301775873,0.8218410301800242,0.036014222844754654,0.012875621521234788,0.10963774930354662,0.011747464040034388,0.794387474028112,0.0005826263849250755,0.06767127714685432,-0.011362355933552129,0.010510828572074188,0.006111458831493791,0.7838897449294662,0.01309033128689848,-0.049968086350448415,-0.04996808634187241,-0.01658187809421245,0.13626186888231953,-0.015222912735018945,4.484304932735429,-0.08812623201473792,0.01139609131693658,-0.015223090283042577
kATPsynth,-0.0007847109485180878,0.00015579969095578359,0.0005911947080252798,0.0005911946105366879,0.0002746894487485796,0.00010745488030276497,0.002012134663138315,8.5247671832343e-05,0.000640904973611242,5.9969359972905035e-05,-0.005692232963381405,5.3372622670962666e-05,0.00011582606854298051,0.0005028995312961663,0.00014411745607730158,7.028053501088371e-05,-0.0015494236323339045,-0.0015494234608862797,-0.0007847051289993629,0.0009196358497192967,4.9850817606416786e-05,94.17040358744391,-0.0,-5.33889693383249e-05,5.292998636376202e-05
vCBB_max,-0.002327495093954718,0.0004621118633594937,0.7016602562095197,0.7016602562085518,-0.12550929379075512,-0.04383528451647295,-0.27508432611892675,-0.041139133223660765,0.6532336423095935,0.16153102359496668,-0.5404345672706385,0.1552461140678298,-0.0400527590303296,-1.690505419014678,0.6517601427968203,0.17094259352004249,-0.7132671824870191,-0.7132671832433303,-0.0023274980390678122,-1.5901691282505452,0.1528358701843,58.29596412556053,0.5127344408130206,-0.21221019478735745,0.15283567894075512
vOxy_max,-0.0005725260360577606,0.00011367147063682301,-0.0043400137086699805,-0.004340013708524462,0.0007866225300653529,0.00028491276781693217,0.002769389040807976,0.0002559460596066631,0.030293011142417985,0.0005746867736695809,0.0015427696579689728,-0.0011923950060511762,0.0002180929822106327,-0.0011448588423515445,0.0299305545617717,-0.0009038394771252564,0.99735466005341,0.9973546612784964,-0.0005725213237204783,-0.0008534478299143727,-0.001343277436583717,-89.68609865470852,6.959969460254869,-0.0003441278823671868,-0.0013434941790526104
k_O2,0.006517773395385023,-0.0012940698509512935,0.09759596174028494,0.09759596174491195,-0.05231104735968802,-0.018382217680216344,-0.12798764795015652,-0.017104319098890014,0.0942168346931835,-0.0337247920942957,-0.03824823770341412,-0.035744941798524374,-0.016685906430197513,0.10494180872503887,0.0983431370277873,-0.03182503562581941,0.029359341299443276,0.029359342348958664,0.006517777467911875,0.4064057103588245,-0.0363960370237984,-85.20179372197309,-0.006008606728277584,-0.07704617226395157,-0.036395905354427105
k_ox1,-0.014760031544114495,0.0029305259286710626,0.014788795843165555,0.014788795845844735,0.9635795567282572,-0.012586764827622884,-0.05452577034212081,-0.01209779456625313,0.016717919355189372,-0.006169376304686528,-0.007141561282502153,-0.006527088783769415,-0.004086303063432125,0.010289861933290572,0.0073735718200516305,-0.005865414240963165,0.0033519955936162707,0.00335199595110943,-0.014760030155497183,-0.08610548547877017,-0.006593781117994694,-26.90582959641256,-0.010014344547129307,-0.009942228953911374,-0.006594569424305318
k_aa,-0.0072146924537294125,0.0014324391591401435,0.018187511273970024,0.01818751127430201,-0.026247054565777642,-0.0015506542826019753,0.940343554997908,-0.01253227510997303,0.019002498444658733,-0.00399514791993855,-0.006829979711803899,-0.004359606381149253,-0.00042594698076865966,0.02558919554159828,0.014434987863623397,-0.0036773763825359213,0.008886350751053663,0.008886350118743079,-0.007214694936642577,-0.10553913008870962,-0.004450195960918774,44.84304932735426,0.3224618944175637,-0.012813084105421695,-0.0044508466066799325
