,vPSIIquench,vPS2,vSDH,vRespiration,vbd,vb6f,vaa,vPS1,vNDH,vFNR,vPass,vO2out,vATPsynthase,vATPconsumption,vNADHconsumption,vCBB,vOxy,vPRsalv,vPSIIunquench,vFlv,vCCM,vCBBactivation,OCPactivation,vNQ,vExch_3PGA
PSIItot,1.0675951501970853,0.11815463180445313,-0.14205168475197946,-0.14205168478041164,0.17476624072287222,0.10287991307975283,0.3196171234737447,0.10182677879251396,-0.14641569537589247,0.0854930800462875,0.09995301284517236,0.08765452979525391,0.10571371977899491,0.2489816768394371,-0.08795489636581577,0.083446534645549,0.0537496276250117,0.05374962487982654,1.0675951464491373,0.2781290200659197,0.08818773433377343,5000.0,-1666.6666666666667,0.054934715225970716,0.08819197022087691
PSItot,-0.037116590561392965,-0.007457347620341153,0.005867864820686661,0.005867864818855474,-0.0824071087204769,-0.004395146691548245,-0.3166490269087849,-0.002877893539588595,0.013769209138441102,-0.003799812827980242,-0.008036821817361523,-0.003962615281446132,-0.005388362831574131,-0.01622906744333223,-0.018331697969139835,-0.003715800672216728,-0.00031245735266347083,-0.00031245692127092296,-0.037116587717807806,-0.007787436897742465,-0.003918663404566796,0.0,138473333.33333334,0.002899172966189079,-0.003918637693106988
k_Q,-0.3891350013535421,0.11222228739707758,-0.1128202691664304,-0.11282026916999137,-0.8064121410133208,0.12069792797152698,0.31254405654512857,0.1197657405458275,-0.016438607662743843,0.0926543227842681,0.09433755847601674,0.09370937696408187,0.11470525351379415,0.2688008934012527,-0.35298855616401076,0.09079571312407596,0.07167689518964154,0.0716768949734022,-0.38913500300813797,0.29228718389723735,0.09507627806853511,0.0,-203333.33333333328,0.11001898682085313,0.09507649791925328
k_FN_fwd,-0.07751156253827098,0.022353487971278556,-0.43040823542147344,-0.43040823545079576,-0.008974413901040267,-0.0033029012096641246,0.1328384070261399,-0.003964417041295194,-0.39464657027717215,0.06389818559868125,0.05071180176552594,0.06830182717246493,0.0006456231500494231,-0.38691214464753093,-0.4616837456127063,0.05956741912313727,-0.08876625245425379,-0.0887662542857263,-0.07751155792923033,-0.23908688365344263,0.06991924832686153,-10000.0,0.0,-0.0910770275155806,0.06992383029746638
k_SDH,-1.9057309880664307e-06,5.492464931790245e-07,0.0015523603247633525,0.0015523603190624922,2.010438416730171e-05,1.2401920979422796e-05,5.50752332064473e-05,1.2194575883013211e-05,0.001467884192849316,-1.6795874464053e-06,2.4986157298632806e-05,-1.5138369956431407e-05,9.315998541982229e-06,2.664168382605332e-06,0.0014662366518895457,1.2607459655327164e-05,-1.041747830595958e-05,-1.0417111678539706e-05,-1.9029246042397625e-06,8.556833253806798e-05,-1.9251601103251273e-05,0.0,-3333.333333333333,1.5660468920979624e-05,-1.9673701411519936e-05
k_NDH,0.01388403702787391,-0.004004004463483464,0.09420166638938753,0.09420166640509503,-0.00022175234869173467,-0.0003093272753938675,-0.029356803988880593,-0.0001681844224783609,0.3441769137228193,-0.000170924763601688,-0.03310739359156075,-0.003281721509608217,-0.0011774345649291672,-0.012473649380219822,-0.6438152420072683,0.000655905532337101,0.02897305377184783,0.02897305443386909,0.013884033088060325,-0.007636642107300583,-0.0013193763956094872,0.0,-3333.3333333333335,0.0040742557612228215,-0.001321330950336384
vNQ_max,0.18074359363768713,-0.05212447866469843,0.1678521014568814,0.16785210145640203,0.21412932564109574,0.1370635911487741,0.13948358223131135,0.13705183232260926,0.12965354497393283,0.040291629266507444,-0.013848456635656205,0.039251915995205576,0.11158366576705317,0.5700471376960027,0.28597267732171766,0.041239662958528406,0.20306457129053826,0.2030645699902225,0.18074358382094458,-0.6040821824669736,0.03849678500613479,5000.0,0.0,0.8714105181476938,0.03849682583347506
kRespiration,-0.01654670235907194,0.004771885633147729,0.8497753944275761,0.8497753944436791,0.015566015691872697,0.009818129113644285,0.07378438211356278,0.009507314843733208,0.8051001652091907,0.00029923928526624116,0.05569572664870137,-0.007025607137822924,0.008353694091872378,0.018010937070762036,0.7907894857006131,0.008157952963690393,-0.040178962699023865,-0.0401789583293544,-0.01654668086029259,0.06816892451425217,-0.0094647288223951,0.0,-125940000.0,0.00615912069263103,-0.009467286627994493
kATPsynth,-0.0011193673293636167,0.00032281265645956554,0.0011339720574573998,0.001133972051597637,0.0003435478174824611,0.0002274890442441288,0.0031867533717744815,0.00021310987061850834,0.0011853132674920987,8.664638291913464e-05,-0.008741943243593809,7.994426828418155e-05,0.0002414046707679813,0.0011955258733865079,0.00021721090426251498,9.981310252716781e-05,-0.0024936690424087328,-0.002493668333652734,-0.0011193619463297764,0.0016004443163464502,7.989414457849279e-05,-5000.0,0.0,-0.0001626015524099456,7.95237604569675e-05
vCBB_max,0.0473657582266606,-0.013659767312968703,1.3445297760556456,1.3445297760587633,-0.11012721049409072,-0.06372429580645678,-0.39715467716529257,-0.06210414525955814,1.231170394732273,0.23917157827477895,-0.7691793257715762,0.23107828070852485,-0.05861490221879019,-2.0562744362404852,1.2721354664755327,0.25040785614392364,-0.5486410801053185,-0.5486410808077529,0.047365752922716595,-1.3728582964344849,0.2278917906397921,0.0,0.0,-0.2975298315853359,0.22789216953022226
vOxy_max,-0.0007146296950868699,0.00020609152521012226,-0.005627353769602748,-0.005627353773906441,0.0005299240652975688,0.00034945121844768586,0.0027729606681137784,0.00033767529492264615,0.04901492833331759,0.0006613946331703033,0.0017545649461716134,-0.0010516848725754444,0.0002829648393046457,-0.0010942130977488712,0.04839686863477941,-0.0007660708020673569,0.9972816873536052,0.9972816871978859,-0.0007146306569210745,-0.00010153290850820507,-0.001203545928971592,0.0,0.0,-0.0004646803868346841,-0.0012030256765107618
k_O2,0.04039994218653766,-0.011650902850382209,0.2625203219624499,0.26252032195955394,-0.06242376007222028,-0.03671511210435099,-0.25135175115866065,-0.035672184746414974,0.2437878862894683,-0.06129403371679412,-0.11357844638233548,-0.06427718595880627,-0.033805425767796195,0.12918745144615584,0.27872845616655595,-0.05851750567491032,0.08273999059469421,0.08273999080731632,0.04039994415403023,0.3005325714411299,-0.06532677888368092,5000.0,4999.999999999999,-0.1430414298206645,-0.0653269434521433
k_ox1,-0.003951882721511951,0.0011396801145632503,0.018943856745294387,0.018943856742464345,0.9818634648503142,-0.01125711185304952,-0.03734671283182407,-0.011130341514158931,0.019013990597902843,-0.0054033497251293975,-0.00909988755112228,-0.005638994826615528,-0.004183639162549277,0.0025479871237565907,0.015596137873537834,-0.005192750707230918,0.004091069912927326,0.004091069642040933,-0.003951885278140274,-0.04753950665753551,-0.005703928546874964,4999.999999999999,-726666.6666666666,-0.009090782381568638,-0.00570398334808199
k_aa,0.0007163331653026221,-0.00020658221865745105,0.010633077262128374,0.010633077262055268,-0.004956899668675843,-0.0012340091490767827,0.9785826914474424,-0.005994974703688706,0.010124930334917638,-0.002076281375891751,-0.004453666088212124,-0.002196185226559675,-0.0007188676147659358,0.007494620202110159,0.010744462241802947,-0.001968169798374761,0.004205635582822801,0.004205635089482014,0.0007163294228215474,-0.028922321535371952,-0.002236073468142635,0.0,-701666.6666666666,-0.005724967163815029,-0.002235790671286673
