,vPSIIquench,vPS2,vSDH,vRespiration,vbd,vb6f,vaa,vPS1,vNDH,vFNR,vPass,vO2out,vATPsynthase,vATPconsumption,vNADHconsumption,vCBB,vOxy,vPRsalv,vPSIIunquench,vFlv,vCCM,vCBBactivation,OCPactivation,vNQ,vExch_3PGA
PSIItot,1.085937034201556,0.009315381197090137,0.0015156841792917815,0.0015156841814431372,0.09038813349023347,-0.0007846618318528689,0.025565774062891605,-0.004749253106120852,-0.0013445758170094995,-0.0008175632470251611,0.00016131084555221495,-0.0007246045528264677,0.0022025439792047103,0.03278360384015058,0.011878326356406631,-0.00042387147935567785,0.00656956210425827,0.006569552317188085,1.0859370332839002,-0.05935489990624351,-0.0016760381134903433,55000.0,20000.0,-0.013210689834727727,-0.0016736567309297288
PSItot,-0.06529735935879087,-0.0022795486452582606,-0.0014291385564188244,-0.0014291385479378884,-0.068180320116727,0.00456962579704316,-0.02017699583501339,0.008292912952767805,0.0007603726652890876,0.005831615428831881,0.0004149671750223464,0.007188891617716308,0.0023700871847882393,-0.024756115460830896,-0.0092867580701732,0.004577416227109791,-0.0012176817544350463,-0.0012164115352304556,-0.06529735681110062,0.061197133521813246,0.008423350347198247,164999.99999999997,104820000.0,0.013589025881926137,0.008429583051996608
k_Q,-0.47198033101902237,0.01675199866348465,0.022849151962302448,0.0228491519660625,-0.5440793195484133,0.03571687944102857,0.1434022891847798,0.019514922211875445,0.038701606813688526,0.023534085737462653,0.0017939283388306749,0.01970714498807997,0.024962352728617094,0.04252146231700509,-0.0339207495438989,0.02340100323903745,0.03096318748236889,0.030963612874919014,-0.4719803340497735,0.007351971344508304,0.02374986768830021,424999.99999999994,18623333.333333332,0.010863191749753514,0.023745603846046348
k_FN_fwd,-0.8222278078586169,0.029183333861689306,-0.11196776800236136,-0.11196776800549628,-0.6541350308439282,-0.018918432692202537,0.05141126401762987,-0.029499984455294656,-0.08499286657879024,0.03746689541547253,0.17916267436883057,0.07033672968915415,-0.0220501935852487,-0.4462956784209658,-0.21150687066377888,0.011928858576803977,-0.2582245490542879,-0.2582245491643548,-0.8222278078720682,-0.5393351468721981,0.09156587049781005,4999.999999999999,-3333.333333333333,-0.17363985029283777,0.091560452481299
k_SDH,0.0009171823586131813,-3.255356111792434e-05,0.0020070852281921874,0.0020070852274438277,0.0018128245285046521,0.00023846066486655874,0.0013374179430264061,7.311552846405436e-05,0.0019666753526805148,-2.177993221567479e-05,0.0006269723360455179,-0.0005386348424247523,0.0002102306956132958,-0.0006372067550983221,0.0021077997618103523,0.00033298316148207047,-0.0004105940061266281,-0.0004105904190827586,0.0009171827508417588,0.0020520576482565027,-0.0007313184901495775,4999.999999999998,-0.0,0.00027731035815777716,-0.0007379473441524371
k_NDH,0.4822836386712105,-0.017117694111910626,0.20060062765564649,0.2006006276554098,0.4998322844020282,0.03440389686250649,0.11940358015981564,0.021615151979121255,0.4018299317392126,0.009826659270535708,-0.06425737607350963,-0.09062862565962584,0.029736331193820933,-0.07156081724711523,-0.5239623728119056,0.04297311416124497,0.08938694838607592,0.0893869552576889,0.48228363969853644,0.1915028177039507,-0.05799475515163224,-85000.0,1666.6666666666667,0.0469850199289753,-0.05799575300488742
vNQ_max,1.4938531599469838,-0.05302133353694975,0.13804988371421653,0.13804988371384705,1.2601010447922765,0.04875100770440209,-0.0011496054144168474,0.05625887345023271,0.08885669152979342,-0.10569286223107036,-0.0995884096681609,-0.1579521275995328,0.05642525971310575,1.493460573169935,0.3187118980075614,-0.06400329774714132,0.3577042032650483,0.35770432781300304,1.4938531581836763,-2.9475402964540685,-0.19384495743492605,244999.99999999997,923333.3333333334,0.4050426876382297,-0.19384641851844217
kRespiration,0.2989609082579553,-0.010611019753468145,0.6534956194084087,0.6534956194103783,0.5904401935616361,0.07763523367243445,0.4353461913639521,0.0238153368941088,0.6403279721055575,-0.00709245091385674,0.20394630843905723,-0.17538377764862595,0.06844272574905336,-0.20751719442606456,0.6863282907198688,0.10841627695400818,-0.13351279687137735,-0.13351277303629155,0.2989609080843155,0.6681182348555511,-0.24027528938002907,4999.9999999999945,651666.6666666666,0.09032230460569413,-0.24027268768608323
kATPsynth,-0.00019900056200917052,7.063126752440817e-06,5.13521014797395e-05,5.13521004157554e-05,-8.431893211716389e-05,1.0270691290230563e-05,0.00010773098948093011,-4.392833169172814e-06,5.730723641890797e-05,1.2645137493070641e-07,-0.0007882319153229906,-1.4382549545456401e-05,8.443368266332363e-06,1.4748891748553482e-05,2.6687550951901994e-05,9.298556509168929e-06,-0.00012747341152690033,-0.0001274680827478658,-0.00019900048464296344,6.601780208084124e-05,-1.1988827707370123e-05,34999.99999999999,1666.6666666666667,-1.412500339546816e-05,-1.7464966780845305e-05
vCBB_max,-0.016013125209866145,0.0005683537895019474,0.06805654010583376,0.06805654010797485,-0.0987507206764334,-0.017628280795857494,-0.10975537145794449,-0.0037671719751845058,0.06483107340921294,0.0435184195253879,-0.2589664274810513,0.04029894220241667,-0.0198112222110696,-0.7893907416330116,0.06236717648058632,0.04947252997966987,-0.8728123083101818,-0.8728123132363571,-0.016013125779316503,-0.5452290769329531,0.03863519616977096,30000.000000000004,18333.333333333332,-0.10553644643057565,0.03863716652443638
vOxy_max,0.0013354430770908783,-4.7398874077359336e-05,-0.0008866666716408282,-0.0008866666710893173,0.001412646115578398,0.00010101081936245866,0.0003674829535391632,6.0918388744163726e-05,0.0030645720955189393,0.00039620858964554317,-7.350599433185921e-05,-0.0028294321451721406,4.870903030680024e-05,0.0001372856209947355,0.003270053159444598,-0.001648792091058598,0.9984520480534573,0.998452044861362,0.001335442602997952,-0.0029148940008162285,-0.0032921320884438357,-34999.99999999999,-0.0,-0.0006607422734496505,-0.00328873947503498
k_O2,-2.0501565336023518e-05,7.276497067778747e-07,8.873985422600747e-06,8.873989406740739e-06,-3.4157388527503964e-05,-4.05305448845824e-06,-2.1699668038542893e-05,-1.3980076163542661e-06,9.532924155138552e-06,-1.2347944271062321e-05,8.418089889948191e-08,-1.806180640592199e-05,-4.526596999419606e-06,4.8466529442990934e-05,6.378409388293167e-06,-8.670363027142955e-06,1.8101528043309501e-06,1.810653402274738e-06,-2.0500959900552856e-05,0.9998798265544245,-1.6784358790318172e-05,-115000.0,3333.333333333333,-2.456372579760343e-05,-1.9917836251984746e-05
k_ox1,-0.195620176695716,0.006943147282891958,0.00800864643951871,0.008008646438635745,0.7637445577617138,-0.020680583204030278,-0.09159139264859015,-0.01001159931340982,0.014557728183878847,-0.010675118426497912,-0.01019435153874334,-0.01722761853228552,-0.005875277442821526,0.016869281251955307,-0.015541827359608637,-0.007445186527569921,0.006061408536366666,0.006061404789270443,-0.19562017721567856,-0.06517271550487932,-0.017352629223647515,85000.0,-18333.333333333332,-0.008580622670627664,-0.017354507232694157
k_aa,-0.714224945766049,0.02534998732208762,0.05607683738820052,0.0560768373927852,-0.9420030344837557,0.028821254680428662,0.5200436849012688,-0.04508629532024726,0.08026699882755021,-0.020270433206993697,-0.061186612197406655,-0.04658085519429115,0.016554998482792207,0.3068029344078921,-0.029628891557643897,-0.007200829335721295,0.11872566187753487,0.11872566699109008,-0.7142249454331572,-0.6123391830971789,-0.047854604676738584,-70000.0,3333.3333333333335,-0.09848240369086822,-0.04785715437133341
