,vPSIIquench,vPS2,vSDH,vRespiration,vbd,vb6f,vaa,vPS1,vNDH,vFNR,vPass,vO2out,vATPsynthase,vATPconsumption,vNADHconsumption,vCBB,vOxy,vPRsalv,vPSIIunquench,vFlv,vCCM,vCBBactivation,OCPactivation,vNQ,vExch_3PGA
PSIItot,1.1063874388792092,0.14036392694470695,0.004276871831251763,0.004276871832321933,0.10202657909368533,0.10129940061211624,0.11953545410459894,0.10127819872994637,0.004142808025086162,0.1217711148997448,0.01306055523689586,0.14105906033507118,0.10647123052372096,0.08055653192683888,0.00724147953911179,0.10725005131993406,0.1122905964301723,0.11229059637723682,1.1063874388243273,0.3318898835566129,0.14662783830981688,-inf,-0.0,0.07172992188939288,0.14663103336678604
PSItot,-0.10396912444285845,-0.13402285430174415,-0.004978235167761141,-0.004978235175606551,-0.09947682507705877,-0.09618563790843218,-0.5610599660807704,-0.09564515773252626,-0.00483104020335513,-0.1154838862242865,-0.012349246011763751,-0.13362715265406414,-0.10121292307072133,-0.07792478901061048,-0.007859275202328049,-0.1018259444904156,-0.1069722212000834,-0.10697302835990473,-0.10396912358919207,-0.30980688408728857,-0.13886644987421282,-inf,-747025000.0,-0.06704308466150187,-0.1388639920810205
k_Q,-0.9759600668602159,0.002442360878666718,-0.003973542959261765,-0.003973542960151442,-0.9812850616537874,0.018603370275546007,0.02213908836166123,0.018599259494694174,0.001823388979863338,0.016512042528960012,0.002360678708744027,0.01895977343737953,0.012647072031057461,-0.0027970056578865404,-0.026602708184365085,0.013985708518642741,0.01113590075499466,0.011135900806412294,-0.9759600667873443,0.09158136149443681,0.02085434370109299,-inf,-0.0,0.021577503890981144,0.020856944207073923
k_FN_fwd,-0.36218835021551926,0.0009062890239784287,-0.43223554246969786,-0.4322355424654219,-0.1276533607032184,-0.12689285766319422,0.10662077635145414,-0.12716434940282784,-0.4296496726182922,-0.0577822228115741,0.18629138879066098,0.0036484689075653443,-0.11019675260197745,-0.2264018365492566,-0.4401988761290347,-0.10370382127523435,-0.3309059523681086,-0.3309053899828118,-0.36218836116384306,-0.8283983340321727,0.0221258073342623,inf,10540955000.0,-0.22672454784642224,0.022129782596784643
k_SDH,-2.7110227364164117e-05,6.943923543600725e-08,0.00134590859769195,0.0013459085962620474,0.00030181630950336375,0.00030002439498570227,0.0006378100614715961,0.0002996317009715247,0.0013400105539833464,0.00018223723426951814,0.0002847062721711156,-7.16094997107219e-06,0.00025594603108252566,-0.00019762355593970068,0.001339220933034683,0.000326443423796478,1.1713463982281694e-05,1.1699803066819342e-05,-2.7110187784311087e-05,0.0025185919087642467,-6.240312310033436e-05,-inf,-176834999.99999997,0.00046775272288257746,-6.323403416573915e-05
k_NDH,0.08763479543992196,-0.00021930794963947282,0.10273544725651067,0.10273544725445456,0.05046037801910696,0.050160161016110094,0.013791793751510982,0.05020244423798353,0.30365555810153466,0.04073408946808616,-0.040118393269664376,-0.0013283562196338913,0.04165148428273454,-0.00990040483757145,-0.6937919699795323,0.04833970918088133,0.08459780911447536,0.08459780937864668,0.08763479553527265,0.2616468916952763,0.027511976896859913,,-315000.0,0.06375158740113533,0.02750621983281825
vNQ_max,0.5720830714287316,-0.0014316501315960308,0.5450189007091107,0.5450189007071652,0.23342329364667413,0.23203397010535004,-0.10422203333366158,0.23242491383201522,0.5412691684205904,0.07230806477964771,-0.12593829210576502,-0.005240270860203632,0.20524165066512662,0.9609555489347198,0.5579318265225923,0.13021849797341167,0.45868943758549613,0.4586894381893987,0.5720830715231785,-2.84689765289748,-0.028693736040572494,inf,-0.0,0.46370786009903486,-0.02869009743500767
kRespiration,-0.02024269981283763,5.065781808580379e-05,0.6597000283147993,0.6597000283145615,0.14789735113783278,0.14701931802142776,0.3195513701572637,0.14681872583763747,0.656819711808154,0.08932545735853253,0.14644425525034377,-0.003502792719428337,0.12541448437148608,-0.09722053982096229,0.6562301170532737,0.16001803534554632,-0.0009169862035497882,-0.0009169856615575593,-0.020242699686002015,1.240830837524172,-0.03097925042412224,-inf,-10000.0,0.22915270471133808,-0.030973263219702323
kATPsynth,-0.00016939886441591905,4.2392413051853483e-07,1.4527404474648707e-05,1.452740482836399e-05,2.333279099433359e-06,2.320598643919429e-06,0.0001753569343880089,2.1194702749807097e-06,1.4721286114827206e-05,2.019312690448523e-06,-0.0008254071146248429,2.1061617561977034e-07,1.9692986275040254e-06,-1.0753630418026577e-05,9.78732582384038e-06,3.807343042673922e-06,-0.0001617759709172127,-0.00016177521939836077,-0.0001693987978498015,0.00018134331461315377,-3.900195193770898e-06,inf,-0.0,2.2053438906570846e-06,-1.635175001412632e-07
vCBB_max,0.006992848014935494,-1.749976334446752e-05,0.1964324021267145,0.19643240212715574,-0.053368550328894884,-0.05305167770099228,-0.11500683284356221,-0.05297964636946754,0.19145024778177144,0.02810860127429926,-0.2740471804123509,0.0029776914909123123,-0.05175676309627885,-0.9441083771344416,0.19165392351158633,0.05028354048391167,-0.8919438115402033,-0.8919438130993954,0.0069928478818032,-0.8531136184522521,-0.004886944577794935,-inf,-0.0,-0.1693438882633794,-0.004878522814381235
vOxy_max,0.00015736004230059412,-3.934199707672767e-07,-0.00034138728211966987,-0.00034138728194494305,0.0002965396067335233,0.0002948108090106374,0.00044128050363511615,0.000294640497409229,0.004193920213897678,0.0005628777320656771,-7.769420461610328e-05,-0.0018054720628045444,0.00021009032055277862,-0.0009538428281044232,0.00419850352871451,-0.0010158628331484005,0.99885227424088,0.9988522731905558,0.00015736015834152479,-0.00028597799154957257,-0.0020554028671172634,-inf,-42180000.0,-9.095822698055728e-05,-0.002055480383775735
k_O2,1.7898315275503924e-06,-4.478056766395857e-09,0.00020409096787193348,0.00020409096677117953,-0.00012182899932896925,-0.00012110074909065569,-0.00024824801147289215,-0.00012095293049050786,0.0002030315740887849,-0.0001941773120081887,-7.254162334287738e-05,-0.0002595493337554303,-0.00011458185495543377,0.00022633813366366559,0.00020308370476424602,-0.00014515401291297412,-2.6948409411793554e-05,-2.694772881886518e-05,1.7899286780981314e-06,0.9982882632684759,-0.00027691385875773376,inf,-0.0,-0.00033923500932665155,-0.00027882277379643125
k_ox1,-0.009654045891147586,2.4159454644215762e-05,0.00854011674043376,0.008540116741737817,0.9851825061395647,-0.014729142276718002,-0.020246530909985017,-0.01472272760315116,0.008533156750046879,-0.012983899471027328,-0.003616705553442176,-0.016522698566587234,-0.009001410417158679,0.006512486799426183,0.008251970198131047,-0.010332238052131041,-0.005474270639692563,-0.005474271746725549,-0.009654046059361876,-0.08572828030267314,-0.01756257895755035,-inf,-0.0,-0.017200549095648256,-0.01755428677994297
k_aa,5.994192394641092e-05,-1.5000796308809156e-07,0.0019365046015776596,0.0019365046043883297,-0.001119543100575146,-0.0011059507276846637,0.9964860537569499,-0.0022657885561984774,0.0019269012031497485,-0.001673847687382028,-0.0006720783021925026,-0.002266651282019968,-0.0009413826513628786,0.002249212703582697,0.0019286470888738429,-0.0012295283542953835,-0.00010133622196973436,-0.0001013359308780705,5.99420058047423e-05,-0.01575160878298722,-0.0024415221913005824,-inf,-0.0,-0.0031127648150223947,-0.0024413453468868623
