,vPSIIquench,vPS2,vSDH,vRespiration,vbd,vb6f,vaa,vPS1,vNDH,vFNR,vPass,vO2out,vATPsynthase,vATPconsumption,vNADHconsumption,vCBB,vOxy,vPRsalv,vPSIIunquench,vFlv,vCCM,vCBBactivation,OCPactivation,vNQ,vExch_3PGA
PSIItot,0.8206832217142515,0.016405867932753424,-0.11527769726945557,-0.11527769748389563,0.48653252105573713,-0.0786079517977814,0.28746065085560635,-0.08562390690823976,-0.8748942978242018,-0.028856409294927353,0.015043881801619665,-0.025251344958452753,-0.05525496021078701,-0.18727323922149364,0.5771046003975838,-0.02934960683328451,-0.09608077912854612,-0.09608077839147665,0.8206832229223185,0.07034805490789803,-0.028012827631753077,,-0.0,-0.44982892808977465,-0.02801304989322315
PSItot,0.06315701091060787,-0.005687597083515862,0.040499620028457056,0.040499619977174,-0.17127973500392385,0.027769238837272454,-0.1011653146064377,0.030240357732018257,0.3080495708325822,0.010229097396480898,-0.005162864033756396,0.008960160562844937,0.019545306296453763,0.06614181666999942,-0.20335774022476166,0.010401782550227608,0.03382784718178234,0.03382784756526956,0.06315701156081568,-0.02457621124338199,0.00993370304689058,inf,10000.0,0.1584789895744493,0.009933604185173412
k_Q,0.004481982008624438,0.01581588989051073,-0.001383385123546222,-0.0013833850633193285,-0.004831560823128506,0.015684355114578743,0.38189565196161324,0.00866566517767399,0.017954977402109367,0.008709260724298985,0.021281449479870512,0.008679457112850845,0.01596498637031309,0.05320704830150797,-0.018337382569338635,0.008648513013773809,0.0033665795437595103,0.0033665774083019018,0.0044819782768496215,0.0055878555390130435,0.008802947707063453,,3379999.9999999995,0.011249776267575253,0.00880332194309012
k_FN_fwd,0.04406985694177656,0.15551255198996972,-0.6193293054314181,-0.6193293034828531,0.020543139815678173,0.15049669399817298,0.072888504297601,0.15198410791972147,-0.38745161997815614,0.16906807066915536,0.14561578295603433,0.17169371028757197,0.14936465235610324,0.07152687499174748,-0.7443027156924518,0.16395122471052162,0.04749240414871386,0.047492405620385196,0.04406986014815056,0.12281009435236885,0.1758945725989962,,-0.0,0.11054605202735115,0.1758933525786214
k_SDH,1.0544701287280181e-05,3.720941887174637e-05,0.0035191876672743916,0.0035191902761796756,0.00017109297659285267,4.079468992077898e-05,0.00024563002636237733,3.6868732982313625e-05,0.003316465084164739,3.5654773179981447e-06,0.00023426484583215684,-1.0764856796338925e-05,4.101558060735462e-05,0.00013095938098758603,0.003231081542848272,2.726664983737673e-05,-0.00015827510650599495,-0.00015827573853293325,1.0544527088142183e-05,0.00019556517207709316,-2.4024994639883025e-05,-inf,-0.0,2.6451366773396076e-05,-2.5626497324029507e-05
k_NDH,-0.0032878580263678596,-0.011602106189692296,0.09576684505476596,0.09576684494476954,-0.014735591935788873,-0.009254364419352703,-0.024472113116213296,-0.008962705857365154,0.6004733844034996,-0.006108349628010246,-0.03200326003130462,-0.008671129025501963,-0.009983982497620501,-0.03263029003965905,-0.37290352688757195,-0.005454896918844805,0.01576114637034693,0.015761146457974145,-0.0032878579155132697,-0.022365856256165474,-0.007001073109072228,,5000.0,-0.008247571751303534,-0.007001178742874377
vNQ_max,0.01595462453607843,0.05630025852419315,-0.08851782175558238,-0.08851782178851303,-0.1291390246846457,0.22676281124615105,-0.22885638078283452,0.23549506464424289,-0.001919817142730375,0.10627142553560932,0.10248271587437663,0.10666262331415723,0.19607706735325098,0.6591157560834413,-0.13111073687017888,0.10486144601486747,0.1922902158935103,0.19229021723937179,0.015954626346069777,-0.09214401285106527,0.10775304931492694,-inf,1808170000.0,1.040010177324842,0.10775276302933025
kRespiration,0.0029094146519925046,0.010266668056483031,0.8060393185054024,0.8060393177595752,0.04259547866885068,0.0109523429027076,0.061506061196944115,0.009983446375515842,0.761476261204549,0.001748239940202437,0.05980779224331629,-0.001532264819251315,0.011055909370474149,0.03539905707278681,0.7379175790953673,0.007175994098211116,-0.03964205178533703,-0.03964205110323231,0.0029094155937851697,0.04934769338062719,-0.004922594954371822,,-30000.0,0.007298332727304923,-0.004922469586392651
kATPsynth,0.00034814992010651606,0.001228542726463521,0.0005827664684373156,0.0005827665135733648,0.002417115836304659,0.0011342802027078964,0.003718013648878157,0.0010847611985272782,0.001859202962778665,0.0006535410238079196,-0.008936206112088564,0.0006521396858550535,0.0011713825328805519,0.0038092559448112523,-0.0009599058484653911,0.0006569063235556307,-0.002402592242519854,-0.0024025921414563556,0.00034815009989486634,0.003225076895316161,0.0006594228791946841,,1960000.0,0.0008733304949099972,0.0006595326369835559
vCBB_max,0.14714836194618808,0.519253247127085,0.8645220462311448,0.8645220466193002,-0.44870691296850296,0.526164492663411,-0.48178087949270676,0.5454824549846393,1.420108581419649,0.7378923810003233,-0.2946115013448589,0.7360864582218475,0.5081584035355282,-0.6660788787084492,0.22859006742544968,0.7398641417922001,-0.15815181490574462,-0.15815181389967553,0.14714836381298005,-0.10725422945287551,0.7384132681504131,,-15000.0,0.36910551435930333,0.7384132517716685
vOxy_max,0.0005201282361256153,0.0018354141926789273,-0.012510653836731606,-0.012510653058475258,0.0018875003698730882,0.0018953437042682183,0.0030917069687709134,0.0018724145408834138,0.05766066337061345,0.0017392101624351076,0.004125700860252942,0.0003434900894011856,0.0018632265811868965,0.0034542754374169747,0.05344898107373092,0.0003933947757181531,0.997457525917533,0.997457525639276,0.0005201280088282528,0.0030945084487024386,0.00010052563546687895,,-5000.0,0.001304710156138693,0.00010000875250065026
k_O2,0.06551879548695391,0.2312009853101393,-0.06417708607543897,-0.06417708607551871,-0.26989861999058645,0.23526467193394815,-0.31192314078844147,0.24575190055161886,0.2338199266283069,0.12222483999237073,0.1066269176482913,0.12167448014917673,0.22605029247808042,0.760269906480086,-0.29671168106586465,0.12084023622593516,0.23267450895410471,0.23267450851807345,0.06551879471003257,0.8821338247238985,0.12359279150467191,,10000.0,0.16434608096741035,0.12359270038603781
k_ox1,0.012241753091348673,0.043198368445533694,-0.006644250326340727,-0.006644250286447779,0.9543643360133677,0.013266788358689687,-0.03985400214144379,0.014284884636536226,0.04799905537632459,0.017267601136197033,0.014524514313857807,0.017126612805156084,0.03196732085047152,0.10753198618841468,-0.051127252068673995,0.01708747434065164,0.03343330597836401,0.03343330496528543,0.012241751266447491,-0.017224709122445944,0.0174386688066993,,202090000.0,0.030708747682714203,0.017439544315151795
k_aa,0.008384466860835034,0.029586887883634328,-0.009042705098727743,-0.00904270512689534,-0.0352922012937548,0.03012813713190785,0.9590322919708677,0.012325053768077658,0.029253041613236247,0.0165001547797131,0.014462373779972244,0.016435614611841075,0.030510747277986982,0.10261144568516244,-0.03863931276879731,0.01631079530786109,0.03133717566009296,0.03133717648141941,0.008384468280509899,-0.015834101423326367,0.016687571605852432,,5000.000000000001,0.02103235951503232,0.016688120491483924
