,vPSIIquench,vPS2,vSDH,vRespiration,vbd,vb6f,vaa,vPS1,vNDH,vFNR,vPass,vO2out,vATPsynthase,vATPconsumption,vNADHconsumption,vCBB,vOxy,vPRsalv,vPSIIunquench,vFlv,vCCM,vCBBactivation,OCPactivation,vNQ,vExch_3PGA
PSIItot,0.9627648177696392,0.03517240760379645,-0.06657109077301288,-0.06657109078077954,0.6703144709366341,-0.007928628681288828,0.5787945529986495,-0.015975413283348085,-0.2928042098322272,0.0035474930585096547,0.03874631903956016,0.005426067241361997,0.005532233324195839,0.017268088557581437,0.38690586002301014,0.0030911549868242166,-0.02880280231037295,-0.028802801826599212,0.9627648226662653,0.03367400112969901,0.004232974827343223,-0.0,-0.0,-0.11640747836514892,0.0042326194694343715
PSItot,0.005847863041680468,-0.005412162810532543,0.01023230592649895,0.010232307275183062,-0.10527451503713167,0.0013522327642361924,-0.09098727545569456,0.0026186498546404125,0.04578335292927492,-0.0004636599059382504,-0.006030534684134458,-0.0007567974138060831,-0.0007622123826112806,-0.0025317996620560575,-0.06096662080419133,-0.0003942367544405392,0.004614956758194319,0.004614957684181398,0.00584787325173966,-0.005067628722815854,-0.00056835533753907,4999.999999999999,14999.999999999998,0.018365463383293,-0.0005684334927052465
k_Q,0.00416807807552943,0.02122911168381447,-0.001705244696372548,-0.001705244718884683,-0.062195157603048466,0.021230955945216838,0.7459120587589203,0.011292107571892019,0.02417193372540232,0.011195164227024525,0.03033766365203158,0.011129036579447327,0.02125292964920081,0.07079619223947048,-0.05191431207039703,0.01111479400770929,0.002486378624072714,0.002486378906200219,0.004168080001526351,0.009234322939991244,0.011325634719518182,-0.0,75540000.0,0.013092596286260905,0.011326262594586075
k_FN_fwd,0.02782802788535036,0.1417353634111422,-0.652067462123026,-0.6520674621437312,-0.3424415860126535,0.13780806075803262,-0.25265675046524505,0.14316320323379855,-0.43636217208103406,0.16224108545912438,0.1404544876456249,0.16627757441337337,0.13364947579597847,0.017610858286539903,-0.9443491304137127,0.15662494471387087,0.02985974851694232,0.029859748842090403,0.027828031422082317,0.1333031645643434,0.1697519359655525,5000.0,-29964999.999999996,0.08697781753504956,0.16975206991428762
k_SDH,4.260796003923328e-06,2.1696888412814754e-05,0.0018562540549657157,0.0018562540612598374,6.61717457375947e-05,2.63569882678353e-05,0.00017102853786737395,2.4372847590478418e-05,0.0017529267197796776,2.8605460896403147e-06,0.0001628359727304569,-8.19806852362094e-06,2.5050065494589338e-05,7.925432249021751e-05,0.001675164227055184,1.618963877567086e-05,-0.00011595070958800191,-0.0001159508755281892,4.259123890970562e-06,0.00013901690316397912,-1.3509828366047547e-05,-0.0,-0.0,1.332143875305052e-05,-1.3465530646325404e-05
k_NDH,-0.002057295419588483,-0.01047833092996247,0.09512859309720732,0.09512859302170254,0.010196209478482075,-0.008379504852512884,-0.010051078197599398,-0.00835657958840743,0.41398547784274253,-0.00533478705369237,-0.03356007724317799,-0.007967177792859331,-0.008781032901097075,-0.028553730144401,-0.5484596419095685,-0.004652440610864998,0.019092480890499097,0.019092481271546273,-0.002057291630642027,-0.024978844979297282,-0.006276100731166646,-0.0,-0.0,-0.0064316012930493785,-0.0062762621147102095
vNQ_max,0.010755008584410366,0.054778051597954514,-0.11278721518795555,-0.11278721518653687,-0.2991151219546086,0.25292894383591297,-0.5590012124624473,0.2640643945646272,-0.024739740225278008,0.11427811267560876,0.10663267982695743,0.11505597474355765,0.21922437197983172,0.7389894088731007,-0.22106713775465217,0.11252383085168652,0.22206394089206802,0.22206394079635927,0.010755007589041233,-0.11539682657024648,0.1161072351624729,-0.0,-15000.0,1.0335594124462857,0.1161075074739962
kRespiration,0.0006125976900436625,0.0031201254358588287,0.8596757348636364,0.8596757348594067,0.031398384385413605,0.005656359757601923,0.0625696343603405,0.004875806207119404,0.8046368498699296,-0.002250471326203077,0.04655283496070711,-0.007377145888293596,0.005057230254569685,0.015558326001899235,0.7934541534326942,0.0039201349232529095,-0.03588410522767728,-0.035884105026616216,0.0006125997404624973,0.04187678094062871,-0.009882910722846316,-0.0,-0.0,0.00191677246973595,-0.00988245515783536
kATPsynth,0.00020374399551215136,0.001037753634433389,0.00046531559746652515,0.0004653155768156591,-9.557740172644804e-05,0.0009825957996486012,0.0025219124716896637,0.0009614843978557017,0.0015100751137697348,0.0005334358423447639,-0.009364261420870938,0.0005313622744903522,0.0009812382085000024,0.0031706886061098976,-0.0022092889738167896,0.0005371369433432434,-0.0026835939144897627,-0.0026835928006124763,0.00020375594914408336,0.0033881676280301514,0.0005400789525868775,-0.0,-48000000.0,0.0006370017064954605,0.0005399355215923754
vCBB_max,0.08994467792562426,0.4581117621527435,1.0039618562993955,1.0039618562607637,-1.6887529809477504,0.468429146439793,-1.8848902932839144,0.5007044258620194,1.4809885910782483,0.708196997832758,-0.40079898849545154,0.704412628012621,0.4426353179927154,-0.8647719766195683,-0.1609078533960695,0.711409561792637,-0.14513153978648,-0.14513153798805786,0.0899446960052616,-0.15118708287342061,0.7071191832355147,-5000.0,-0.0,0.2810817191701826,0.707119764105817
vOxy_max,0.00024150169727778461,0.001230043397533952,-0.008215138084781337,-0.008215138090998716,-0.001704054638707116,0.0014217048082836193,-8.687267658880376e-05,0.001442394629268026,0.05932015998170616,0.0014368079566383421,0.002919007331675784,-0.00012950716701390586,0.0013241026520763206,0.0016037380757457486,0.054911619511745266,7.198413702535072e-05,0.9977661481246587,0.9977661485838129,0.000241506298320527,0.002424769054111264,-0.00030161477282338706,-0.0,-0.0,0.0007548688135902835,-0.0003017005386386042
k_O2,0.03787622012532565,0.19291346071068968,-0.046403188163509364,-0.04640318815552518,-0.7723490679394469,0.19668323067010987,-0.9036490907828449,0.21177405622575382,0.20331365015801722,0.09618667302416159,0.06335693116116055,0.0954190519462912,0.18548213118237125,0.6262677445064905,-0.4880982584551362,0.09502044801429058,0.2135206338419316,0.21352063383577816,0.03787622004544781,0.8751179706441468,0.0972446871249753,-0.0,-0.0,0.11836106915516273,0.09724455090422324
k_ox1,0.0047513397998191495,0.024199823682837716,-0.001908980117887175,-0.0019089792678733738,0.9065101825034915,0.005590066794249777,-0.09188893440237338,0.006926970867163498,0.028729860227921875,0.008694741015415624,0.004803931421866769,0.008560005027380111,0.016805230602617544,0.05677255046507134,-0.05800356958476034,0.008604346730265418,0.020239506529733158,0.020239506833809803,0.004751344327721139,-0.012257113253182324,0.00876882115572993,-4999.999999999999,-75255000.0,0.01485216468282497,0.0087682473334903
k_aa,0.003718840607767678,0.018941020848775164,-0.005247032876516519,-0.005247032875341663,-0.076368510605598,0.019319385948309706,0.9103021712295986,0.007099745100508993,0.019388938160402193,0.010046566994555636,0.0068476309929092136,0.009978129940960397,0.01936315312596212,0.06536431416496141,-0.04849666925033078,0.009922216794133755,0.022066924559612983,0.02206692452800456,0.0037188402513179675,-0.012792058294394542,0.010160647659487852,-5000.000000000001,-0.0,0.01162325324481475,0.010161064193580685
