,vPSIIquench,vPS2,vSDH,vRespiration,vbd,vb6f,vaa,vPS1,vNDH,vFNR,vPass,vO2out,vATPsynthase,vATPconsumption,vNADHconsumption,vCBB,vOxy,vPRsalv,vPSIIunquench,vFlv,vCCM,vCBBactivation,OCPactivation,vNQ,vExch_3PGA
PSIItot,1.0896424681525998,0.13648655128576628,-0.0031823195049359046,-0.0031823195022649153,0.08934723560084488,0.08868690920400754,0.1138097586300812,0.08865201718652525,-0.0032438229361470283,0.11263735465695954,0.014635040280065209,0.13747378718184364,0.09458788071266531,0.06812527449386001,-0.001097346232923984,0.09526215489733494,0.09607014435992244,0.0960707376534768,1.0896424647151426,0.2636486025429007,0.1450851303923066,-1682000.0000000002,4796645000.0,0.05742849540992081,0.14507003361992274
PSItot,-0.08851576994429851,-0.13164625044246978,0.002153763511213887,0.002153763508118972,-0.08785970031379203,-0.08505379385622468,-0.48708993137655593,-0.08449542396067103,0.0022269925424946084,-0.10785011914545267,-0.013950346229369727,-0.1314416607648102,-0.09082159507167412,-0.06667560854026168,0.00010749449449212533,-0.0913468484802376,-0.09249304484124712,-0.09249304401472688,-0.08851576996273768,-0.24798037283215837,-0.13865250496196774,5000.000000000001,-1305000.0,-0.05409428510110956,-0.13865306119659365
k_Q,-0.9803072200832337,0.00174507701539657,-0.005609123503933996,-0.00560912350083883,-0.9825992934100086,0.01729782112898976,0.021548878163207132,0.01729191702988275,-0.000842006901785444,0.016074143099304355,0.0029083045397845855,0.01974201770685174,0.011531277857880566,-0.0034512677332142042,-0.024315329698469203,0.012826584650981682,0.009309945723330243,0.0093099428217773,-0.9803072202936574,0.08024486403700033,0.02215280555504351,-5000.0,15000.0,0.018862334474359112,0.022157219417874966
k_FN_fwd,-0.2979442965330424,0.0005303804312178112,-0.33718889276742636,-0.33718889276928404,-0.11625837460414681,-0.11557103077237675,0.06380287664649881,-0.11582015507058088,-0.3355221935460726,-0.056915214043256314,0.1446331835160385,0.0031522476484071487,-0.10129410871005856,-0.1715641536201853,-0.34265642918591044,-0.09870287688559663,-0.2741165067948907,-0.2741165068059844,-0.2979442966339174,-0.7020832401554312,0.02210117934773742,4000.0,79999.99999999999,-0.19229111851584707,0.022109091607636275
k_SDH,-4.0060074838486116e-05,1.0041634331795608e-07,0.0012638818589066595,0.0012638818580726027,0.0003394603920099971,0.00033746095957148237,0.0007279560067350573,0.00033691869460830454,0.0012594033637225543,0.000214468943565186,0.00033022935628244384,-8.80977508725142e-06,0.000290956766053942,-0.000220175250175054,0.0012584441309747014,0.0003724205058924688,9.392423181796736e-06,8.637084043077502e-06,-4.005845970520473e-05,0.002654233960267784,-6.711406949791789e-05,1001999.9999999999,-2831655000.0,0.0004956572660563359,-7.8309901908466e-05
k_NDH,0.09323846965000646,-0.00016597693035243593,0.09603485354304868,0.09603485354067191,0.05878508478886735,0.05843802435645429,0.025417638668922334,0.05848388498664213,0.2962865122259352,0.049851368134255766,-0.037120375435158115,-0.001554971187145122,0.049028893662109115,-0.009463054364578064,-0.7014809101774572,0.056730463940911226,0.09020833334387064,0.09020835644358095,0.0932384696510902,0.28565009282318793,0.03681981105070387,5000.0,6659999.999999999,0.06966150182774573,0.036815822015192554
vNQ_max,0.6091608000061597,-0.0010843871509435099,0.5572068242883922,0.5572068242887986,0.26842903632740345,0.2668432538300057,-0.06828771238400848,0.26730870229486464,0.5540347655392786,0.09316949135359097,-0.12527052578727776,-0.006270999797784644,0.2379605616206176,0.9686476075936367,0.568621037836833,0.1622988916003969,0.49156113035413435,0.4915611291422089,0.6091607998922589,-2.6590070122681815,-0.03777489588586655,-0.0,-15000.0,0.4943411341810831,-0.037785968234413346
kRespiration,-0.02032678572896205,3.6184401777743024e-05,0.6224218437450397,0.6224218437468549,0.1671583779269148,0.1661738144620025,0.3590660570749866,0.16590591509053973,0.6202184717153241,0.10560707957331009,0.16320183895007523,-0.004367721304976368,0.14323960614442346,-0.10848518895761056,0.6197317496147918,0.1833957735641648,0.004054805354215369,0.004054805621043805,-0.020326785798383287,1.3076106029720531,-0.038580264719841564,-1000.0,-0.0,0.2440744902058526,-0.03858015887156821
kATPsynth,-0.0001425889915067822,2.538278613554283e-07,3.0840138680804206e-06,3.084014019088574e-06,-6.124232724590075e-07,-6.076404645830552e-07,0.00014201230068906377,-8.057003174255474e-07,3.2535270122631503e-06,4.250198050892323e-07,-0.0006797703487659856,4.5884245246101146e-08,-5.781898404560197e-07,-1.2393975193122772e-05,-1.607478762120361e-07,1.023124880618849e-06,-0.00013552665960164147,-0.00013552773269832072,-0.00014258915095915968,0.0001302232295155489,-1.0325241461218135e-05,-8999.999999999998,-0.0,-2.4330076686315856e-06,9.619790173633807e-08
vCBB_max,0.008217487994419194,-1.4627813375586223e-05,0.18638961611601848,0.18638961611725158,-0.04862291283104998,-0.048336515721846655,-0.10676950602478243,-0.04825536079582102,0.18235198481481338,0.03322996211115395,-0.26550831298830874,0.0030563495758427974,-0.048341249651273226,-0.9226496251707935,0.18254875144303181,0.057585238884153594,-0.8880314572535937,-0.8880314589409076,0.00821748814736323,-0.7638839016269986,-0.0067733583985590965,16000.000000000002,-40170000.0,-0.15406010918682875,-0.00678321226492458
vOxy_max,0.00016514994331967865,-2.93991057202733e-07,-0.0002653173002599445,-0.0002653172994186134,0.0002898205039586237,0.000288138862890992,0.0004211971768964734,0.00028795407091951444,0.003451894294807177,0.0005803301903747347,-9.212140568766058e-05,-0.0019316808406156121,0.00020689760312052026,-0.000955403106798888,0.0034558487881814633,-0.0010056269127244823,0.9988761048884828,0.9988761042320584,0.00016515002358822147,-0.0002973169727291793,-0.002219926914161899,-6999.999999999999,105000.0,-9.209197215267529e-05,-0.002227034334042181
k_O2,1.0563630076627747e-05,-1.8800697303847153e-08,0.00014253721918520003,0.0001425372212381082,-7.448998987349952e-05,-7.40485129181693e-05,-0.0001615290129689924,-7.392700529297267e-05,0.0001419193728804729,-0.0001323305246341187,-5.213015296285569e-05,-0.00019129141843099567,-7.150778986671227e-05,0.00014616975049850528,0.00014217231826078527,-9.121655324385776e-05,-9.855104073352898e-06,-9.85399162011238e-06,1.0563889322332244e-05,0.9989763435698197,-0.00021166744995497176,-0.0,-200000.0,-0.00020451500267447303,-0.000209552699247352
k_ox1,-0.008911636713111667,1.5863895700389415e-05,0.00912801774008991,0.00912801773969558,0.985759007832422,-0.01415677303299806,-0.019896692266716146,-0.01414880108362457,0.009118913108861842,-0.013215246415333722,-0.0038709748708755406,-0.018012181661073722,-0.008603264590642057,0.006241134165512275,0.008905525181949469,-0.009870908291441523,-0.004828811543098575,-0.004828813463261158,-0.008911636940900688,-0.07581633821996138,-0.019478568016588014,-999.9999999999999,-0.0,-0.015349923465137753,-0.019487794983222798
k_aa,0.0002043279015645945,-3.6372983067635486e-07,0.002376610309996547,0.002376610308302847,-0.001208829243173199,-0.0011934863166391857,0.9959210462515262,-0.0025783339790685263,0.0023667774691299923,-0.002009890103808882,-0.0008357260763872161,-0.0029506781590410264,-0.0010260982461410696,0.0025633219022493884,0.0023716700726063972,-0.0013538474593902871,-1.8612804983057118e-06,-1.8644384067796577e-06,0.00020432755662679294,-0.016624882839844517,-0.0032369631980918856,-8000.000000000001,-0.0,-0.0033145592735903595,-0.003242436856134837
