,vPSIIquench,vPS2,vSDH,vRespiration,vbd,vb6f,vaa,vPS1,vNDH,vFNR,vPass,vO2out,vATPsynthase,vATPconsumption,vNADHconsumption,vCBB,vOxy,vPRsalv,vPSIIunquench,vFlv,vCCM,vCBBactivation,OCPactivation,vNQ,vExch_3PGA
PSIItot,1.106207542330236,0.20434228900149354,-0.1623825451029323,-0.16238254510139236,0.18725486737653976,0.17564234413784763,0.27055889038234704,0.17552535547694814,-0.1595042689498011,0.15253287651503733,0.12714861240950906,0.15600762571978685,0.1799603805963091,0.373861611392463,-0.11509107317022285,0.14915851603007882,0.1237966149795132,0.12379661483130783,1.1062075413636798,0.5037468491666443,0.15691356487462604,1470.5882352941173,inf,0.0889213612608245,0.15691419328098707
PSItot,-0.07621601571538703,-0.11602444735420936,0.09103306648955864,0.09103306648826776,-0.13104599033197667,-0.09910146371410808,-0.6880906137985675,-0.0983755096748443,0.09109722790255219,-0.08601135711891357,-0.07310913299015925,-0.08798377382537581,-0.10181032252847214,-0.21324780702364152,0.05922569870129325,-0.08411538003371637,-0.06908344112355284,-0.06908344159206478,-0.07621601820322604,-0.28147522749738535,-0.08847581347351988,4705.882352941176,inf,-0.04870959128549492,-0.08847604885271988
k_Q,-0.6008977634501205,0.08386727881903155,-0.049667784424433495,-0.04966778442266599,-0.9048413807469864,0.0899239743180005,0.11376453439911811,0.08989458981099636,0.0157426035444254,0.07193918859178464,0.0503423341250162,0.0725884496826705,0.08463679259108173,0.1729972957964446,-0.23553700702327604,0.07062755782695147,0.06700586747020731,0.06700586772116458,-0.6008977618658093,0.2356733792249696,0.07361847482101112,-2941.1764705882347,-inf,0.07410075471933847,0.07361886280330177
k_FN_fwd,-0.12713624653162708,0.017744400876724523,-0.5068423364242375,-0.5068423363704094,-0.008541583903364324,-0.007922469347425834,0.17043105501725822,-0.008142297173643336,-0.47618542553644166,0.056229576049139474,0.0896794162114008,0.062341527040214256,-0.0038898555721164838,-0.3558764604190637,-0.5293504527135182,0.050377041365188495,-0.12482674545754817,-0.12482674217038799,-0.12713623725421583,-0.2557118752829128,0.06432285485451879,-34117.64705882353,,-0.08051199297621066,0.06432018986693161
k_SDH,-4.978403387895066e-05,6.94857480853505e-06,0.0014837082339270362,0.0014837082323030516,1.9206657873082842e-05,1.816108240020258e-05,0.00011656635849440678,1.8039788357480694e-05,0.001415370532413213,1.7245605953605798e-07,0.00010062344924312992,-1.5336657804585078e-05,1.4932546234485836e-05,2.264951929735109e-05,0.0013945518862292497,1.6360669460741585e-05,-7.37709786263998e-05,-7.377155336462829e-05,-4.978777400346237e-05,0.00014276262340193386,-1.956661734874675e-05,5588.235294117645,,1.1862461948523753e-05,-2.005308844512833e-05
k_NDH,0.021654347054201342,-0.003022296273888204,0.09480320542448224,0.09480320542296894,0.001011262484832671,0.0009453885765242842,-0.030335983674879226,0.0009839441739681032,0.32814441032492864,0.0007569237977977805,-0.034431281909018466,-0.0028035382870456186,1.326119262945636e-05,-0.010216041440813974,-0.6628003178589269,0.0017330365442299708,0.032000389119468904,0.032000388675457195,0.021654344441019664,-0.004676366012774873,-0.0005965972384070707,4411.764705882352,inf,0.004303061936939071,-0.0005963851310290314
vNQ_max,0.2312137732479619,-0.03227049742023969,0.1366400199027461,0.13664001990447,0.1870950980692804,0.17714097333289092,0.04680629431043281,0.17730161633615757,0.11753527443223498,0.06497016222999868,0.019726758572210113,0.06417961133497706,0.14925679595617708,0.6845928032016031,0.21422277971457446,0.06553019859271311,0.22058856440193622,0.22058856348975472,0.2312137673395936,-0.6483608330957437,0.06367752566346954,8823.529411764704,-inf,0.8933881505087774,0.06367784714753347
kRespiration,-0.026984453351387258,0.003766218971350394,0.852541040827614,0.8525410408232543,0.010891088100029277,0.010297538768064447,0.06422920642231798,0.01023106569901893,0.8132272319827664,6.461345569992173e-05,0.054984078005920686,-0.008851003919904324,0.008428981065432837,0.01212419415332176,0.8019430464699586,0.009363307256073466,-0.03994876690205157,-0.03994876602770257,-0.026984447591915543,0.08064137937929379,-0.011562024945812276,-9117.647058823528,inf,0.006977181097023117,-0.011562351934759432
kATPsynth,-0.0014582522712033538,0.00020352775017610638,0.0008157640797616674,0.0008157640666034285,0.00013849904714012922,0.00013154017715888663,0.0024900753567406887,0.0001286330742142483,0.0008195548195906069,3.046785265776418e-05,-0.0074274158280887735,2.4705610255609163e-05,0.000140579571934912,0.0007977022171784063,0.00020975171161322762,4.208366428920693e-05,-0.0021933066839660105,-0.0021933079282251654,-0.0014582583371676673,0.0013048107145536272,2.3258431942849913e-05,16470.58823529412,-inf,-0.00013553330346532377,2.4087714394277667e-05
vCBB_max,0.06300791126886289,-0.008794011775166862,1.0840329428195028,1.0840329428232918,-0.058977026474853436,-0.05539700362740052,-0.23049439215136075,-0.05518118868518604,0.997719944558025,0.22590810411638504,-0.6487328353469407,0.21848614781804238,-0.05052150469985034,-1.8703507135617443,1.0240681904776792,0.23638698029001295,-0.6164011408367962,-0.6164011413177636,0.06300790802757227,-1.3988064475819266,0.21579246992868029,4411.764705882352,-inf,-0.24805719019206277,0.21579222823449473
vOxy_max,-0.0009926793415564147,0.000138548658696232,-0.00479447757419206,-0.004794477576198074,0.0003345230464786017,0.00031751723069417515,0.002198090657476463,0.00031519933829390846,0.042474068405368576,0.0006379800680668404,0.0015225460045174921,-0.0011168336349046061,0.00024320997533351874,-0.0011955455689837023,0.04205895548753033,-0.0008111299048040229,0.9974376020604893,0.9974376009034727,-0.0009926867830045067,-0.0002516256100240543,-0.0012607546838862293,11764.70588235294,,-0.00036402771206214775,-0.001261218568377979
k_O2,0.05044060181048689,-0.007039993339784342,0.1777128145597009,0.17771281456308824,-0.03182511770457004,-0.02990059421935431,-0.14838860560321704,-0.029754552729501945,0.1665728656419196,-0.057603391675380325,-0.06759745007165674,-0.060214702393477794,-0.027112253250778595,0.1543536314409904,0.1876657962213294,-0.05519912383009496,0.04788659130101528,0.04788659209776532,0.05044060696042869,0.32415558238147696,-0.06104341595057693,-7941.176470588234,inf,-0.11418687427848545,-0.06104363573783929
k_ox1,-0.002760739257587658,0.00038531636408872284,0.012367496431571444,0.01236749643344196,0.9893190383929137,-0.010089856292178288,-0.018930892690402615,-0.010078959341225872,0.012106637325033467,-0.005411838251293935,-0.005727108499147219,-0.005613234004181472,-0.004121545437345865,0.0031020984121183683,0.010952168824952873,-0.005227976153711191,0.0009756987128394006,0.0009756985169132357,-0.0027607406358850888,-0.044876164336404234,-0.005669150490704812,1470.5882352941176,inf,-0.007425048576980818,-0.005668631916702861
k_aa,0.0006134562876052059,-8.561994996736358e-05,0.0020993195053683558,0.0020993195045822042,-0.0004496333890740344,-0.0003564348024392484,0.9966628034585592,-0.0015853032060849368,0.0019734865252869255,-0.0006155789744558259,-0.0008059615371558154,-0.0006458988935326403,-0.0002176745880667836,0.0021711961653783384,0.0022300173006663095,-0.000588013232417672,0.0007254280468116587,0.0007254270910351045,0.0006134498291287056,-0.008124783970803538,-0.0006560354533721316,10588.235294117647,-inf,-0.0013577443021363155,-0.0006555152743831841
